,Name German,Name French,Name English,Full name German,Full name French,Full name English,Count German,Count French,Count English,yob,yod,item,Label German,Label French,Label English
0,Kant,Kant,Kant,Immanuel Kant,Emmanuel Kant,Immanuel Kant,37455,4970,13790,1724,1804,http://www.wikidata.org/entity/Q9312,Immanuel Kant,Emmanuel Kant,Immanuel Kant
1,Lessing,Lessing,Lessing,Ephraim Lessing,Gotthold Ephraim Lessing,Gotthold Ephraim Lessing,28636,2799,11050,1729,1781,http://www.wikidata.org/entity/Q34628,Gotthold Ephraim Lessing,Gotthold Ephraim Lessing,Gotthold Ephraim Lessing
2,Goethe,Goethe,Goethe,Johann Wolfgang Goethe,Goethe,Johann Wolfgang von Goethe,25806,1620,6125,1749,1832,http://www.wikidata.org/entity/Q5879,Johann Wolfgang von Goethe,Johann Wolfgang von Goethe,Johann Wolfgang von Goethe
3,Rousseau,Rousseau,Rousseau,Jean-Jacques Rousseau,Jean-Jacques Rousseau,Jean-Jacques Rousseau,19429,24539,118271,1712,1778,http://www.wikidata.org/entity/Q6527,Jean-Jacques Rousseau,Jean-Jacques Rousseau,Jean-Jacques Rousseau
4,Mendelssohn,Mendelssohn,Mendelssohn,Moses Mendelssohn,Moses Mendelssohn,Moses Mendelssohn,17949,971,4447,1729,1786,http://www.wikidata.org/entity/Q76997,Moses Mendelssohn,Moses Mendelssohn,Moses Mendelssohn
5,Diderot,Diderot,Diderot,Denis Diderot,Denis Diderot,Denis Diderot,15318,20775,88811,1713,1784,http://www.wikidata.org/entity/Q448,Denis Diderot,Denis Diderot,Denis Diderot
6,Leibniz,Leibniz,Leibniz,Gottfried Wilhelm Leibniz,Leibniz,Gottfried Wilhelm Leibniz,12555,2504,9940,1646,1716,http://www.wikidata.org/entity/Q9047,Gottfried Wilhelm Leibniz,Gottfried Wilhelm Leibniz,Gottfried Wilhelm Leibniz
7,Hegel,Hegel,Hegel,G. W. F. Hegel,Hegel,G. W. F. Hegel,7768,1554,3863,1770,1831,http://www.wikidata.org/entity/Q9235,Georg Wilhelm Friedrich Hegel,Georg Wilhelm Friedrich Hegel,Georg Wilhelm Friedrich Hegel
8,Voltaire,Voltaire,Voltaire,Voltaire,de Voltaire,de Voltaire,7403,29552,256179,1694,1778,http://www.wikidata.org/entity/Q9068,Voltaire,Voltaire,Voltaire
9,Spinoza,Spinoza,Spinoza,Baruch Spinoza,Spinoza,Benedict de Spinoza,5380,2828,5677,1632,1677,http://www.wikidata.org/entity/Q35802,Benedictus de Spinoza,Baruch de Spinoza,Benedictus de Spinoza
10,Montesquieu,Montesquieu,Montesquieu,de Montesquieu,de Montesquieu,Montesquieu,5084,10463,38036,1689,1755,http://www.wikidata.org/entity/Q15975,"Charles de Secondat, Baron de Montesquieu",Montesquieu,Montesquieu
11,Hume,Hume,Hume,David Hume,David Hume,David Hume,4950,1428,26074,1711,1776,http://www.wikidata.org/entity/Q37160,David Hume,David Hume,David Hume
12,Plato,Platon,Plato,Plato,Platon,Plato,4891,1597,5460,-426,-0346,http://www.wikidata.org/entity/Q859,Platon,Platon,Plato
13,Locke,Locke,Locke,John Locke,John Locke,John Locke,4659,3335,26121,1632,1704,http://www.wikidata.org/entity/Q9353,John Locke,John Locke,John Locke
14,Newton,Newton,Newton,Isaac Newton,Isaac Newton,Isaac Newton,4517,3398,18030,1643,1727,http://www.wikidata.org/entity/Q935,Isaac Newton,Isaac Newton,Isaac Newton
15,Descartes,Descartes,Descartes,René Descartes,René Descartes,René Descartes,4185,4089,10137,1596,1650,http://www.wikidata.org/entity/Q9191,René Descartes,René Descartes,René Descartes
16,Hobbes,Hobbes,Hobbes,Thomas Hobbes,Thomas Hobbes,Thomas Hobbes,3617,1006,5461,1588,1679,http://www.wikidata.org/entity/Q37621,Thomas Hobbes,Thomas Hobbes,Thomas Hobbes
17,Bayle,Bayle,Bayle,Pierre Bayle,Pierre Bayle,Pierre Bayle,2916,3148,13721,1647,1706,http://www.wikidata.org/entity/Q214816,Pierre Bayle,Pierre Bayle,Pierre Bayle
18,Cicero,Cicéron,Cicero,Marcus Tullius Cicero,Cicéron,Cicero,2241,907,3349,-106,-0042,http://www.wikidata.org/entity/Q1541,Marcus Tullius Cicero,Cicéron,Cicero
19,Horaz,Horace,Horace,Horaz,Horace,Horace,2239,1302,3426,-64,-0007,http://www.wikidata.org/entity/Q6197,Horaz,Horace,Horace
20,Condillac,Condillac,Condillac,Etienne Bonnot de Condillac,Condillac,Etienne Bonnot de Condillac,2088,1571,6351,1714,1780,http://www.wikidata.org/entity/Q272119,Étienne Bonnot de Condillac,Étienne Bonnot de Condillac,Étienne Bonnot de Condillac
21,Fontenelle,Fontenelle,Fontenelle,de Fontenelle,Fontenelle,de Fontenelle,1959,3127,6564,1657,1757,http://www.wikidata.org/entity/Q310309,Bernard le Bovier de Fontenelle,Bernard Le Bouyer de Fontenelle,Bernard Le Bovier de Fontenelle
22,Holbach,Holbach,Holbach,Paul Thiry d'Holbach,Holbach,Baron d'Holbach,1801,2593,3446,1723,1789,http://www.wikidata.org/entity/Q7104,Paul Henri Thiry d’Holbach,Paul Henri Thiry d’Holbach,Baron d'Holbach
23,Helvétius,Helvétius,Helvétius,Helvétius,Helvétius,Helvétius,1424,2928,4344,1715,1771,http://www.wikidata.org/entity/Q190302,Claude Adrien Helvétius,Claude-Adrien Helvétius,Claude Adrien Helvétius
