,Name,Count,Full name,item,gnd,dod,dob,label,yob,yod
0,Voltaire,29552,de Voltaire,http://www.wikidata.org/entity/Q9068,118627813,1778-05-30T00:00:00Z,1694-11-21T00:00:00Z,Voltaire,1694,1778
1,Rousseau,24539,Jean-Jacques Rousseau,http://www.wikidata.org/entity/Q6527,118603426,1778-07-02T00:00:00Z,1712-06-28T00:00:00Z,Jean-Jacques Rousseau,1712,1778
2,Diderot,20775,Denis Diderot,http://www.wikidata.org/entity/Q448,118525263,1784-07-31T00:00:00Z,1713-10-05T00:00:00Z,Denis Diderot,1713,1784
3,Montesquieu,10463,de Montesquieu,http://www.wikidata.org/entity/Q15975,118583670,1755-02-10T00:00:00Z,1689-01-18T00:00:00Z,Montesquieu,1689,1755
4,Alembert,6409,Jean d'Alembert,http://www.wikidata.org/entity/Q153232,11850178X,1783-10-29T00:00:00Z,1717-11-16T00:00:00Z,Jean Le Rond d'Alembert,1717,1783
5,Kant,4970,Emmanuel Kant,http://www.wikidata.org/entity/Q9312,118559796,1804-02-12T00:00:00Z,1724-04-22T00:00:00Z,Emmanuel Kant,1724,1804
6,Louis XIV,4717,Louis XIV,http://www.wikidata.org/entity/Q7742,118816829,1715-09-01T00:00:00Z,1638-09-05T00:00:00Z,Louis XIV,1638,1715
7,Buffon,4094,de Buffon,http://www.wikidata.org/entity/Q229264,118517252,1788-04-16T00:00:00Z,1707-09-07T00:00:00Z,Buffon,1707,1788
8,Descartes,4089,René Descartes,http://www.wikidata.org/entity/Q9191,118524844,1650-02-11T00:00:00Z,1596-03-31T00:00:00Z,René Descartes,1596,1650
9,Marivaux,3964,Pierre de Marivaux,http://www.wikidata.org/entity/Q49478,118577972,1763-02-12T00:00:00Z,1688-02-04T00:00:00Z,Marivaux,1688,1763
10,Condorcet,3778,Condorcet,http://www.wikidata.org/entity/Q201477,118521772,1794-03-29T00:00:00Z,1743-09-17T00:00:00Z,Nicolas de Condorcet,1743,1794
11,Newton,3398,Isaac Newton,http://www.wikidata.org/entity/Q935,118587544,1727-03-31T00:00:00Z,1643-01-04T00:00:00Z,Isaac Newton,1643,1727
12,Locke,3335,John Locke,http://www.wikidata.org/entity/Q9353,118573748,1704-10-28T00:00:00Z,1632-08-29T00:00:00Z,John Locke,1632,1704
13,Napoléon,3188,Napoléon Bonaparte,http://www.wikidata.org/entity/Q517,118586408,1821-05-05T00:00:00Z,1769-08-15T00:00:00Z,Napoléon Ier,1769,1821
14,Sade,3169,Marquis de Sade,http://www.wikidata.org/entity/Q123867,118604759,1814-12-02T00:00:00Z,1740-06-02T00:00:00Z,Marquis de Sade,1740,1814
15,Bayle,3148,Pierre Bayle,http://www.wikidata.org/entity/Q214816,11850777X,1706-12-28T00:00:00Z,1647-11-18T00:00:00Z,Pierre Bayle,1647,1706
16,Fontenelle,3127,Fontenelle,http://www.wikidata.org/entity/Q310309,118639056,1757-01-09T00:00:00Z,1657-02-11T00:00:00Z,Bernard Le Bouyer de Fontenelle,1657,1757
17,Quérard,3102,Quérard,http://www.wikidata.org/entity/Q456912,117683922,1865-12-03T00:00:00Z,1797-12-25T00:00:00Z,Joseph-Marie Quérard,1797,1865
18,Louis XV,3049,,https://www.wikidata.org/entity/Q7738,118729438,1774-05-10T00:00:00Z,1710-02-15T00:00:00Z,Louis XV,1710,1774
19,Helvétius,2928,Helvétius,http://www.wikidata.org/entity/Q190302,118710257,1771-12-26T00:00:00Z,1715-01-26T00:00:00Z,Claude-Adrien Helvétius,1715,1771
20,Rameau,2843,Jean-Philippe Rameau,http://www.wikidata.org/entity/Q1145,118598090,1764-09-12T00:00:00Z,1683-09-25T00:00:00Z,Jean-Philippe Rameau,1683,1764
21,Spinoza,2828,Spinoza,http://www.wikidata.org/entity/Q35802,118616242,1677-02-21T00:00:00Z,1632-11-24T00:00:00Z,Baruch de Spinoza,1632,1677
22,Lessing,2799,Gotthold Ephraim Lessing,http://www.wikidata.org/entity/Q34628,118572121,1781-02-15T00:00:00Z,1729-01-22T00:00:00Z,Gotthold Ephraim Lessing,1729,1781
23,Barbier,2777,Le Barbier,http://www.wikidata.org/entity/Q3166330,102822514,1826-05-07T00:00:00Z,1738-11-29T00:00:00Z,Jean-Jacques Le Barbier,1738,1826
24,Mercier,2741,Louis-Sébastien Mercier,http://www.wikidata.org/entity/Q709670,118581007,1814-04-25T00:00:00Z,1740-06-06T00:00:00Z,Louis-Sébastien Mercier,1740,1814
25,Louis XVI,2666,,https://www.wikidata.org/entity/Q7732,118574949,1793-01-21T00:00:00Z,1754-08-23T00:00:00Z,Louis XVI,1754,1793
26,Holbach,2593,Holbach,http://www.wikidata.org/entity/Q7104,118706403,1789-06-21T00:00:00Z,1723-12-08T00:00:00Z,Paul Henri Thiry d’Holbach,1723,1789
27,Prévost,2559,Prévost romancier,http://www.wikidata.org/entity/Q311480,118596462,1763-11-25T00:00:00Z,1697-04-01T00:00:00Z,Antoine François Prévost,1697,1763
28,Maupertuis,2526,Maupertuis,http://www.wikidata.org/entity/Q164374,118731998,1759-07-27T00:00:00Z,1698-07-17T00:00:00Z,Pierre Louis Moreau de Maupertuis,1698,1759
29,Leibniz,2504,Leibniz,http://www.wikidata.org/entity/Q9047,118571249,1716-11-14T00:00:00Z,1646-07-01T00:00:00Z,Gottfried Wilhelm Leibniz,1646,1716
30,Schoepflin,2497,Schoepflin,http://www.wikidata.org/entity/Q90329,118610260,1771-08-07T00:00:00Z,1694-09-06T00:00:00Z,Jean-Daniel Schoepflin,1694,1771
31,Cochin,2434,Charles-Nicolas Cochin,http://www.wikidata.org/entity/Q2408093,118676512,1790-04-29T00:00:00Z,1715-02-22T00:00:00Z,Charles-Nicolas Cochin,1715,1790
32,Paoli,2364,Pascal Paoli,http://www.wikidata.org/entity/Q152346,118789554,1807-02-05T00:00:00Z,1725-04-24T00:00:00Z,Pascal Paoli,1725,1807
33,Saint-Simon,2306,Saint-Simon,http://www.wikidata.org/entity/Q82934,118604937,1825-05-19T00:00:00Z,1760-10-17T00:00:00Z,Claude-Henri de Rouvroy de Saint-Simon,1760,1825
34,Bolingbroke,2288,Lord Bolingbroke,http://www.wikidata.org/entity/Q332470,118513044,1751-12-23T00:00:00Z,1678-09-16T00:00:00Z,Henri Saint Jean,1678,1751
35,Grimm,2174,Melchior Grimm,http://www.wikidata.org/entity/Q61852,118697765,1807-12-19T00:00:00Z,1723-09-26T00:00:00Z,Friedrich Melchior Grimm,1723,1807
36,Fleury,2147,Joly de Fleury,http://www.wikidata.org/entity/Q42531261,117655503,1756-03-25T00:00:00Z,1675-11-11T00:00:00Z,Guillaume-François Joly de Fleury,1675,1756
37,Marmontel,2080,Jean-François Marmontel,http://www.wikidata.org/entity/Q379923,118578073,1799-12-31T00:00:00Z,1723-07-11T00:00:00Z,Jean-François Marmontel,1723,1799
38,Crébillon,2056,Crébillon,http://www.wikidata.org/entity/Q733161,118677276,1777-04-12T00:00:00Z,1707-02-13T00:00:00Z,Claude-Prosper Jolyot de Crébillon,1707,1777
39,Turgot,2047,Turgot,http://www.wikidata.org/entity/Q221303,118763202,1781-03-18T00:00:00Z,1727-05-10T00:00:00Z,Anne Robert Jacques Turgot,1727,1781
