,index,Name,Count,Full name
0,0,Voltaire,29552,de Voltaire
1,1,Rousseau,24539,Jean-Jacques Rousseau
2,2,Diderot,20775,Denis Diderot
3,3,Montesquieu,10463,de Montesquieu
4,4,Alembert,6409,Jean d'Alembert
5,6,Kant,4970,Emmanuel Kant
6,5,Louis XIV,4717,Louis XIV
7,7,Buffon,4094,de Buffon
8,8,Descartes,4089,René Descartes
9,9,Marivaux,3964,Pierre de Marivaux
10,10,Condorcet,3778,Condorcet
11,11,Newton,3398,Isaac Newton
12,15,Locke,3335,John Locke
13,13,Sade,3169,Marquis de Sade
14,19,Bayle,3148,Pierre Bayle
15,14,Fontenelle,3127,Fontenelle
16,12,Quérard,3102,Quérard
17,101,Louis XV,3049,
18,16,Helvétius,2928,Helvétius
19,24,Rameau,2843,Jean-Philippe Rameau
20,17,Spinoza,2828,Spinoza
21,18,Lessing,2799,Gotthold Ephraim Lessing
22,20,Barbier,2777,Le Barbier
23,41,Mercier,2741,Louis-Sébastien Mercier
24,102,Louis XVI,2666,
25,21,Holbach,2593,Holbach
26,26,Prévost,2559,Prévost romancier
27,23,Leibniz,2504,Leibniz
28,22,Schoepflin,2497,Schoepflin
29,25,Cochin,2434,Charles-Nicolas Cochin
30,35,Paoli,2364,Pascal Paoli
31,27,Saint-Simon,2306,Saint-Simon
32,28,Bolingbroke,2288,Lord Bolingbroke
33,29,Grimm,2174,Melchior Grimm
34,83,Fleury,2147,Joly de Fleury
35,32,Marmontel,2080,Jean-François Marmontel
36,30,Crébillon,2056,Crébillon
37,31,Turgot,2047,Turgot
38,33,Necker,1863,Necker
39,36,Haller,1827,de Haller
40,34,Napoléon,1818,Napoléon Bonaparte
41,37,Machiavel,1789,Nicolas Machiavel
42,55,Guibert,1739,Jacques Guibert
43,100,Pascal,1714,
44,40,Saint-Pierre,1675,Saint-Pierre
45,73,Racine,1633,Louis Racine
46,43,Mirabeau,1627,Riqueti
47,38,Malesherbes,1627,Malesherbes
48,39,Goethe,1620,Goethe
49,42,Platon,1597,Platon
50,44,Condillac,1571,Condillac
51,70,Staël,1555,de Staël
52,46,Hegel,1554,Hegel
53,69,Fontaine,1551,La Fontaine
54,47,Fénelon,1533,Fénelon
55,48,Choiseul,1528,de Choiseul
56,57,Séguier,1519,Jean-François Séguier
57,53,Duhamel,1518,Duhamel du Monceau
58,71,Potocki,1507,Jean Potocki
59,45,Volney,1484,Volney
60,52,Chateaubriand,1478,Chateaubriand
61,49,Maupertuis,1473,Maupertuis
62,50,Montaigne,1467,Montaigne
63,58,Rétif,1458,Rétif de la Bretonne
64,51,Molière,1453,Molière
65,68,Croy,1450,Emmanuel de Croy
66,54,Bordeu,1433,Bordeu
67,72,Hume,1428,David Hume
68,56,Beaumarchais,1390,Beaumarchais
69,62,Bonaparte,1370,Napoléon Bonaparte
70,65,Caylus,1325,Comte de Caylus
71,64,Raynal,1307,Raynal
72,61,Casanova,1302,Casanova
73,60,Horace,1302,Horace
74,63,Malebranche,1289,Malebranche
75,66,Bossuet,1284,Bossuet
76,59,Châtelet,1279,Châtelet
77,67,Dante,1220,Dante
78,90,Bonnet,1190,Charles Bonnet
79,75,Argenson,1164,Argenson
80,79,Tissot,1143,Tissot
81,74,Laclos,1138,Laclos
82,76,Socrate,1117,Socrate
83,77,Herder,1117,Herder
84,80,Mably,1115,Bonnot de Mably
85,78,Sommervogel,1075,Sommervogel
86,81,Frédéric II,1066,Frédéric II de Prusse
87,88,Jaucourt,1060,Louis de Jaucourt
88,85,Graslin,1053,Jean-Joseph-Louis Graslin
89,92,Moreau,1053,Moreau de Maupertuis
90,84,Duclos,1036,Duclos
91,89,Creutz,1032,Gustav Creutz
92,82,Joseph II,1028,Joseph II
93,86,Hobbes,1006,Thomas Hobbes
94,87,Robespierre,1004,Robespierre
95,93,Beaumont,977,Beaumont
96,99,Mendelssohn,971,Moses Mendelssohn
97,97,Corneille,952,Pierre Corneille
98,91,Chamfort,951,Chamfort
99,94,Cicéron,907,Cicéron
100,95,Gottsched,904,Gottsched
101,96,Shakespeare,891,Shakespeare
102,98,Homère,872,Homère
