,Name German,Name French,Name English,Full name German,Full name French,Full name English,Count German,Count French,Count English,yob,yod,item,Label German,Label French,Label English
0,Montesquieu,Montesquieu,Montesquieu,de Montesquieu,de Montesquieu,Montesquieu,1268.0,10463.0,5098.0,1689,1755,http://www.wikidata.org/entity/Q15975,"Charles de Secondat, Baron de Montesquieu",Montesquieu,Montesquieu
1,,Condorcet,Condorcet,,Condorcet,Marquis de Condorcet,,3778.0,1012.0,1743,1794,http://www.wikidata.org/entity/Q201477,,Nicolas de Condorcet,Jean-Antoine-Nicolas de Caritat de Condorcet
2,,Bayle,Bayle,,Pierre Bayle,Pierre Bayle,,3148.0,1747.0,1647,1706,http://www.wikidata.org/entity/Q214816,,Pierre Bayle,Pierre Bayle
3,,Buffon,Buffon,,de Buffon,Buffon,,4094.0,1430.0,1707,1788,http://www.wikidata.org/entity/Q229264,,Buffon,"Georges-Louis Leclerc, Comte de Buffon"
4,Condillac,,Condillac,de Condillac,,Etienne Bonnot de Condillac,1589.0,,1461.0,1714,1780,http://www.wikidata.org/entity/Q272119,Étienne Bonnot de Condillac,,Étienne Bonnot de Condillac
5,Lessing,Lessing,Lessing,G. E. Lessing,Gotthold Ephraim Lessing,Gotthold Ephraim Lessing,2831.0,2799.0,4178.0,1729,1781,http://www.wikidata.org/entity/Q34628,Gotthold Ephraim Lessing,Gotthold Ephraim Lessing,Gotthold Ephraim Lessing
6,Spinoza,Spinoza,Spinoza,Baruch de Spinoza,Spinoza,Baruch Spinoza,2122.0,2828.0,1203.0,1632,1677,http://www.wikidata.org/entity/Q35802,Benedictus de Spinoza,Baruch de Spinoza,Benedictus de Spinoza
7,Hume,,Hume,David Hume,,David Hume,2542.0,,8860.0,1711,1776,http://www.wikidata.org/entity/Q37160,David Hume,,David Hume
8,Hobbes,,Hobbes,Thomas Hobbes,,Thomas Hobbes,2027.0,,916.0,1588,1679,http://www.wikidata.org/entity/Q37621,Thomas Hobbes,,Thomas Hobbes
9,Diderot,Diderot,Diderot,Denis Diderot,Denis Diderot,Denis Diderot,5777.0,20775.0,9618.0,1713,1784,http://www.wikidata.org/entity/Q448,Denis Diderot,Denis Diderot,Denis Diderot
10,Goethe,,Goethe,Johann Wolfgang Goethe,,Johann Wolfgang von Goethe,1792.0,,1175.0,1749,1832,http://www.wikidata.org/entity/Q5879,Johann Wolfgang von Goethe,,Johann Wolfgang von Goethe
11,Rousseau,Rousseau,Rousseau,Jean-Jacques Rousseau,Jean-Jacques Rousseau,Jean-Jacques Rousseau,7213.0,24539.0,9808.0,1712,1778,http://www.wikidata.org/entity/Q6527,Jean-Jacques Rousseau,Jean-Jacques Rousseau,Jean-Jacques Rousseau
12,Holbach,Holbach,,Paul Thiry d'Holbach,Holbach,,1151.0,2593.0,,1723,1789,http://www.wikidata.org/entity/Q7104,Paul Henri Thiry d’Holbach,Paul Henri Thiry d’Holbach,
13,Wolff,,Wolff,Christian Wolff,,Christian Wolff,5144.0,,1376.0,1679,1754,http://www.wikidata.org/entity/Q76510,Christian Wolff,,Christian Wolff
14,Mendelssohn,,Mendelssohn,Moses Mendelssohn,,Moses Mendelssohn,2174.0,,1887.0,1729,1786,http://www.wikidata.org/entity/Q76997,Moses Mendelssohn,,Moses Mendelssohn
15,Plato,,Plato,Plato,,Plato,4808.0,,2359.0,-426,-0346,http://www.wikidata.org/entity/Q859,Platon,,Plato
16,Aristoteles,,Aristotle,Aristoteles,,Aristotle,1625.0,,1160.0,-383,-0321,http://www.wikidata.org/entity/Q868,Aristoteles,,Aristotle
17,Leibniz,Leibniz,Leibniz,Gottfried Wilhelm Leibniz,Leibniz,Gottfried Wilhelm Leibniz,6042.0,2504.0,2914.0,1646,1716,http://www.wikidata.org/entity/Q9047,Gottfried Wilhelm Leibniz,Gottfried Wilhelm Leibniz,Gottfried Wilhelm Leibniz
18,Marx,,Marx,Karl Marx,,Karl Marx,2348.0,,871.0,1818,1883,http://www.wikidata.org/entity/Q9061,Karl Marx,,Karl Marx
19,Voltaire,Voltaire,Voltaire,Voltaire,de Voltaire,Voltaire,2224.0,29552.0,10292.0,1694,1778,http://www.wikidata.org/entity/Q9068,Voltaire,Voltaire,Voltaire
20,Descartes,Descartes,Descartes,René Descartes,René Descartes,René Descartes,2605.0,4089.0,4337.0,1596,1650,http://www.wikidata.org/entity/Q9191,René Descartes,René Descartes,René Descartes
21,Hegel,,Hegel,G. W. F. Hegel,,G. W. F. Hegel,4217.0,,1822.0,1770,1831,http://www.wikidata.org/entity/Q9235,Georg Wilhelm Friedrich Hegel,,Georg Wilhelm Friedrich Hegel
22,Kant,Kant,Kant,Immanuel Kant,Emmanuel Kant,Immanuel Kant,17882.0,4970.0,5562.0,1724,1804,http://www.wikidata.org/entity/Q9312,Immanuel Kant,Emmanuel Kant,Immanuel Kant
23,Newton,Newton,Newton,Isaac Newton,Isaac Newton,Isaac Newton,2308.0,3398.0,3865.0,1643,1727,http://www.wikidata.org/entity/Q935,Isaac Newton,Isaac Newton,Isaac Newton
24,Locke,Locke,Locke,John Locke,John Locke,John Locke,2073.0,3335.0,6009.0,1632,1704,http://www.wikidata.org/entity/Q9353,John Locke,John Locke,John Locke
