,Name,Count,Full name,item,gnd,dod,dob,label,yob,yod
0,Voltaire,10292,Voltaire,http://www.wikidata.org/entity/Q9068,118627813,1778-05-30T00:00:00Z,1694-11-21T00:00:00Z,Voltaire,1694,1778
1,Rousseau,9808,Jean-Jacques Rousseau,http://www.wikidata.org/entity/Q6527,118603426,1778-07-02T00:00:00Z,1712-06-28T00:00:00Z,Jean-Jacques Rousseau,1712,1778
2,Diderot,9618,Denis Diderot,http://www.wikidata.org/entity/Q448,118525263,1784-07-31T00:00:00Z,1713-10-05T00:00:00Z,Denis Diderot,1713,1784
3,Hume,8860,David Hume,http://www.wikidata.org/entity/Q37160,118554735,1776-08-25T00:00:00Z,1711-05-07T00:00:00Z,David Hume,1711,1776
4,Locke,6009,John Locke,http://www.wikidata.org/entity/Q9353,118573748,1704-10-28T00:00:00Z,1632-08-29T00:00:00Z,John Locke,1632,1704
5,Kant,5562,Immanuel Kant,http://www.wikidata.org/entity/Q9312,118559796,1804-02-12T00:00:00Z,1724-04-22T00:00:00Z,Immanuel Kant,1724,1804
6,Montesquieu,5098,Montesquieu,http://www.wikidata.org/entity/Q15975,118583670,1755-02-10T00:00:00Z,1689-01-18T00:00:00Z,Montesquieu,1689,1755
7,Descartes,4337,René Descartes,http://www.wikidata.org/entity/Q9191,118524844,1650-02-11T00:00:00Z,1596-03-31T00:00:00Z,René Descartes,1596,1650
8,Lessing,4178,Gotthold Ephraim Lessing,http://www.wikidata.org/entity/Q34628,118572121,1781-02-15T00:00:00Z,1729-01-22T00:00:00Z,Gotthold Ephraim Lessing,1729,1781
9,Newton,3865,Isaac Newton,http://www.wikidata.org/entity/Q935,118587544,1727-03-31T00:00:00Z,1643-01-04T00:00:00Z,Isaac Newton,1643,1727
10,Smith,3354,Adam Smith,http://www.wikidata.org/entity/Q9381,118615033,1790-07-17T00:00:00Z,1723-06-16T00:00:00Z,Adam Smith,1723,1790
11,Leibniz,2914,Gottfried Wilhelm Leibniz,http://www.wikidata.org/entity/Q9047,118571249,1716-11-14T00:00:00Z,1646-07-01T00:00:00Z,Gottfried Wilhelm Leibniz,1646,1716
12,La Mettrie,2512,La Mettrie,http://www.wikidata.org/entity/Q7068,118726102,1751-11-11T00:00:00Z,1709-12-25T00:00:00Z,Julien Offray de La Mettrie,1709,1751
13,Berkeley,2026,George Berkeley,http://www.wikidata.org/entity/Q82049,118509616,1753-01-14T00:00:00Z,1685-03-12T00:00:00Z,George Berkeley,1685,1753
14,Mendelssohn,1887,Moses Mendelssohn,http://www.wikidata.org/entity/Q76997,118580744,1786-01-04T00:00:00Z,1729-09-06T00:00:00Z,Moses Mendelssohn,1729,1786
15,Hegel,1822,G. W. F. Hegel,http://www.wikidata.org/entity/Q9235,118547739,1831-11-14T00:00:00Z,1770-08-27T00:00:00Z,Georg Wilhelm Friedrich Hegel,1770,1831
16,Bayle,1747,Pierre Bayle,http://www.wikidata.org/entity/Q214816,11850777X,1706-12-28T00:00:00Z,1647-11-18T00:00:00Z,Pierre Bayle,1647,1706
17,Plato,1688,Plato,http://www.wikidata.org/entity/Q859,118594893,-0346-01-01T00:00:00Z,-0426-05-02T00:00:00Z,Plato,-0426,-0346
18,Cabanis,1599,Cabanis,http://www.wikidata.org/entity/Q705666,118675141,1808-05-05T00:00:00Z,1757-06-05T00:00:00Z,Pierre Jean George Cabanis,1757,1808
19,Condillac,1461,Etienne Bonnot de Condillac,http://www.wikidata.org/entity/Q272119,118521756,1780-08-03T00:00:00Z,1714-09-30T00:00:00Z,Étienne Bonnot de Condillac,1714,1780
20,Buffon,1430,Buffon,http://www.wikidata.org/entity/Q229264,118517252,1788-04-16T00:00:00Z,1707-09-07T00:00:00Z,"Georges-Louis Leclerc, Comte de Buffon",1707,1788
21,Wolff,1376,Christian Wolff,http://www.wikidata.org/entity/Q76510,118634771,1754-04-09T00:00:00Z,1679-02-03T00:00:00Z,Christian Wolff,1679,1754
22,Burke,1288,Edmund Burke,http://www.wikidata.org/entity/Q165792,118517708,1797-07-09T00:00:00Z,1729-01-12T00:00:00Z,Edmund Burke,1729,1797
23,Spinoza,1203,Baruch Spinoza,http://www.wikidata.org/entity/Q35802,118616242,1677-02-21T00:00:00Z,1632-11-24T00:00:00Z,Benedictus de Spinoza,1632,1677
24,Spinoza,1203,Baruch Spinoza,http://www.wikidata.org/entity/Q79759,118582607,1674-11-08T00:00:00Z,1608-12-09T00:00:00Z,John Milton,1608,1674
25,Hutcheson,1195,Francis Hutcheson,http://www.wikidata.org/entity/Q316367,118775367,1746-08-08T00:00:00Z,1694-08-08T00:00:00Z,Francis Hutcheson,1694,1746
26,Lloyd,1195,Henry Lloyd,http://www.wikidata.org/entity/Q1606988,100369715,1783-06-19T00:00:00Z,1720-01-01T00:00:00Z,Henry Lloyd,1720,1783
27,Goethe,1175,Johann Wolfgang von Goethe,http://www.wikidata.org/entity/Q5879,118540238,1832-03-22T00:00:00Z,1749-08-28T00:00:00Z,Johann Wolfgang von Goethe,1749,1832
28,Reid,1165,Thomas Reid,http://www.wikidata.org/entity/Q316347,118744003,1796-10-07T00:00:00Z,1710-04-26T00:00:00Z,Thomas Reid,1710,1796
29,Aristotle,1160,Aristotle,http://www.wikidata.org/entity/Q868,118650130,-0321-01-01T00:00:00Z,-0383-01-01T00:00:00Z,Aristotle,-0383,-0321
30,Pope,1136,Alexander Pope,http://www.wikidata.org/entity/Q4719870,132404583,1835-03-22T00:00:00Z,1763-01-01T00:00:00Z,Alexander Pope,1763,1835
31,Gibbon,1134,Edward Gibbon,http://www.wikidata.org/entity/Q161841,118717286,1794-01-16T00:00:00Z,1737-05-08T00:00:00Z,Edward Gibbon,1737,1794
32,Franklin,1131,Benjamin Franklin,http://www.wikidata.org/entity/Q34969,118534912,1790-04-17T00:00:00Z,1706-01-17T00:00:00Z,Benjamin Franklin,1706,1790
33,Condorcet,1012,Marquis de Condorcet,http://www.wikidata.org/entity/Q201477,118521772,1794-03-29T00:00:00Z,1743-09-17T00:00:00Z,Jean-Antoine-Nicolas de Caritat de Condorcet,1743,1794
34,Schlegel,950,Friedrich Schlegel,http://www.wikidata.org/entity/Q157271,118607987,1829-01-12T00:00:00Z,1772-03-10T00:00:00Z,Friedrich Schlegel,1772,1829
35,Cicero,923,Marcus Tullius Cicero,http://www.wikidata.org/entity/Q1541,118520814,-0042-12-05T00:00:00Z,-0106-12-31T00:00:00Z,Cicero,-0106,-0042
36,Hobbes,916,Thomas Hobbes,http://www.wikidata.org/entity/Q37621,118551698,1679-12-04T00:00:00Z,1588-04-05T00:00:00Z,Thomas Hobbes,1588,1679
37,Galiani,915,Ferdinando Galiani,http://www.wikidata.org/entity/Q979496,118689258,1787-10-30T00:00:00Z,1728-12-02T00:00:00Z,Ferdinando Galiani,1728,1787
38,Marx,871,Karl Marx,http://www.wikidata.org/entity/Q9061,118578537,1883-03-14T00:00:00Z,1818-05-05T00:00:00Z,Karl Marx,1818,1883
39,Jefferson,864,Thomas Jefferson,http://www.wikidata.org/entity/Q11812,118711962,1826-07-04T00:00:00Z,1743-04-13T00:00:00Z,Thomas Jefferson,1743,1826
40,Holbach,840,Baron d'Holbach,http://www.wikidata.org/entity/Q7104,118706403,1789-06-21T00:00:00Z,1723-12-08T00:00:00Z,Baron d'Holbach,1723,1789
41,Schelling,837,Friedrich Wilhelm Joseph Schelling,http://www.wikidata.org/entity/Q60070,118607057,1854-08-20T00:00:00Z,1775-01-27T00:00:00Z,Friedrich Wilhelm Joseph Schelling,1775,1854
42,Clausewitz,828,Carl von Clausewitz,http://www.wikidata.org/entity/Q76430,11852111X,1831-11-16T00:00:00Z,1780-06-01T00:00:00Z,Carl von Clausewitz,1780,1831
43,Bentham,818,Jeremy Bentham,http://www.wikidata.org/entity/Q60887,118509187,1832-06-06T00:00:00Z,1748-02-15T00:00:00Z,Jeremy Bentham,1748,1832
44,Hitler,818,Adolph Hitler,http://www.wikidata.org/entity/Q352,118551655,1945-04-30T00:00:00Z,1889-04-20T00:00:00Z,Adolf Hitler,1889,1945
45,Fontenelle,797,Bernard de Fontenelle,http://www.wikidata.org/entity/Q310309,118639056,1757-01-09T00:00:00Z,1657-02-11T00:00:00Z,Bernard Le Bovier de Fontenelle,1657,1757
47,Turgot,796,Anne-Robert-Jacques Turgot,http://www.wikidata.org/entity/Q221303,118763202,1781-03-18T00:00:00Z,1727-05-10T00:00:00Z,Anne Robert Jacques Turgot,1727,1781
48,D'Alembert,773,Jean d'Alembert,http://www.wikidata.org/entity/Q153232,11850178X,1783-10-29T00:00:00Z,1717-11-16T00:00:00Z,Jean le Rond d'Alembert,1717,1783
49,Kuhn,767,Thomas Kuhn,http://www.wikidata.org/entity/Q184980,118567918,1996-06-17T00:00:00Z,1922-07-18T00:00:00Z,Thomas Kuhn,1922,1996
50,Godwin,731,William Godwin,http://www.wikidata.org/entity/Q188569,118540033,1836-04-07T00:00:00Z,1756-03-03T00:00:00Z,William Godwin,1756,1836
51,Napoleon,724,Napoleon,https://www.wikidata.org/entity/Q517,118586408,1821-05-05T00:00:00Z,1769-08-15T00:00:00Z,Napoleon,1769,1821
52,Napoleon,724,Napoleon,http://www.wikidata.org/entity/Q517,118586408,1821-05-05T00:00:00Z,1769-08-15T00:00:00Z,Napoleon,1769,1821
53,Malebranche,707,Malebranche,http://www.wikidata.org/entity/Q309818,118576682,1715-10-13T00:00:00Z,1638-08-06T00:00:00Z,Nicolas Malebranche,1638,1715
54,Mandeville,699,Bernard Mandeville,http://www.wikidata.org/entity/Q379912,118730592,1733-01-21T00:00:00Z,1670-11-15T00:00:00Z,Bernard Mandeville,1670,1733
55,Platon,671,Platon,http://www.wikidata.org/entity/Q859,118594893,-0346-01-01T00:00:00Z,-0426-05-02T00:00:00Z,Plato,-0426,-0346
56,Mercier,641,Louis-Sébastien Mercier,http://www.wikidata.org/entity/Q709670,118581007,1814-04-25T00:00:00Z,1740-06-06T00:00:00Z,Louis-Sébastien Mercier,1740,1814
57,Marivaux,639,Marivaux,http://www.wikidata.org/entity/Q49478,118577972,1763-02-12T00:00:00Z,1688-02-04T00:00:00Z,Pierre de Marivaux,1688,1763
58,Shaftesbury,609,Shaftesbury,http://www.wikidata.org/entity/Q335112,118613693,1713-02-04T00:00:00Z,1671-02-26T00:00:00Z,"Anthony Ashley-Cooper, 3rd Earl of Shaftesbury",1671,1713
59,Pascal,419,,https://www.wikidata.org/entity/Q1290,118591843,1662-08-19T00:00:00Z,1623-06-19T00:00:00Z,Blaise Pascal,1623,1662
60,Louis XV,290,,https://www.wikidata.org/entity/Q7738,118729438,1774-05-10T00:00:00Z,1710-02-15T00:00:00Z,Louis XV of France,1710,1774
61,Louis XVI,122,,https://www.wikidata.org/entity/Q7732,118574949,1793-01-21T00:00:00Z,1754-08-23T00:00:00Z,Louis XVI of France,1754,1793
