,Name German,Name English,Full name German,Full name English,Count German,Count English,yob,yod,item,Label German,Label English
5,Wolff,Wolff,Christian Wolff,Christian Wolff,16296,3576,1679,1754,http://www.wikidata.org/entity/Q76510,Christian Wolff,Christian Wolff
11,Mozart,Mozart,Wolfgang Amadeus Mozart,Wolfgang Amadeus Mozart,5314,2713,1756,1791,http://www.wikidata.org/entity/Q254,Wolfgang Amadeus Mozart,Wolfgang Amadeus Mozart
17,Marx,Marx,Karl Marx,Karl Marx,4370,3423,1818,1883,http://www.wikidata.org/entity/Q9061,Karl Marx,Karl Marx
20,Bacon,Bacon,Francis Bacon,Francis Bacon,3538,3713,1561,1626,http://www.wikidata.org/entity/Q37388,Francis Bacon,Francis Bacon
21,Shakespeare,Shakespeare,William Shakespeare,William Shakespeare,3496,6588,1564,1616,http://www.wikidata.org/entity/Q692,William Shakespeare,William Shakespeare
22,Aristoteles,Aristotle,Aristoteles,Aristotle,3372,4560,-383,-0321,http://www.wikidata.org/entity/Q868,Aristoteles,Aristotle
24,Shaftesbury,Shaftesbury,Earl of Shaftesbury,Shaftesbury,2716,3492,1671,1713,http://www.wikidata.org/entity/Q335112,"Anthony Ashley-Cooper, 3. Earl of Shaftesbury","Anthony Ashley-Cooper, 3rd Earl of Shaftesbury"
31,Berkeley,Berkeley,George Berkeley,George Berkeley,1408,5818,1685,1753,http://www.wikidata.org/entity/Q82049,George Berkeley,George Berkeley
