,Name German,Name French,Name English,Full name German,Full name French,Full name English,Count German,Count French,Count English,yob,yod,item,Label German,Label French,Label English
0,Goethe,Goethe,Goethe,Johann Wolfgang Goethe,Goethe,Johann Wolfgang von Goethe,15955,823,1688,1749,1832,http://www.wikidata.org/entity/Q5879,Johann Wolfgang von Goethe,Johann Wolfgang von Goethe,Johann Wolfgang von Goethe
1,Lessing,Lessing,Lessing,Ephraim Lessing,Gotthold Ephraim Lessing,Gotthold Ephraim Lessing,15032,962,6593,1729,1781,http://www.wikidata.org/entity/Q34628,Gotthold Ephraim Lessing,Gotthold Ephraim Lessing,Gotthold Ephraim Lessing
2,Kant,Kant,Kant,Immanuel Kant,Emmanuel Kant,Immanuel Kant,7400,867,2006,1724,1804,http://www.wikidata.org/entity/Q9312,Immanuel Kant,Emmanuel Kant,Immanuel Kant
3,Rousseau,Rousseau,Rousseau,Jean-Jacques Rousseau,Jean-Jacques Rousseau,Jean-Jacques Rousseau,6502,11720,6416,1712,1778,http://www.wikidata.org/entity/Q6527,Jean-Jacques Rousseau,Jean-Jacques Rousseau,Jean-Jacques Rousseau
4,Diderot,Diderot,Diderot,Denis Diderot,Denis Diderot,Denis Diderot,5591,11925,4763,1713,1784,http://www.wikidata.org/entity/Q448,Denis Diderot,Denis Diderot,Denis Diderot
5,Voltaire,Voltaire,Voltaire,de Voltaire,de Voltaire,Voltaire,2844,8352,5549,1694,1778,http://www.wikidata.org/entity/Q9068,Voltaire,Voltaire,Voltaire
