,search_term,count,count_norm
0,Voltaire,1025906,12.786325902708832
1,Rousseau,589750,7.350318353847753
2,Napoléon,338917,4.22407434596188
3,Diderot,299956,3.7384859553145513
4,Chateaubriand,232877,2.902450338768975
5,Saint-Simon,199613,2.4878662103715325
6,Montaigne,192208,2.395574379239286
7,Staël,181429,2.2612308751509014
8,Robespierre,168432,2.099243443790224
9,Racine,158330,1.9733376938782785
10,Montesquieu,140792,1.7547537459515605
11,Mirabeau,133792,1.667509611187789
12,Kant,128367,1.599895406745866
13,Necker,127560,1.5898374043523855
14,Fontaine,127218,1.5855749051967842
15,Corneille,108096,1.347248855917807
16,Goethe,105814,1.3188072679848175
17,Alembert,94191,1.1739446139334866
18,Bonnet,88532,1.103413962700889
19,Locke,80977,1.0092526143951328
20,Molière,79523,0.991130761259915
21,Châtelet,77328,0.9637734932875609
22,Condorcet,77156,0.9616297802619368
23,Pascal,77034,0.9601092396274826
24,Grimm,76165,0.9492785034689514
25,Choiseul,74744,0.9315679441119058
26,Saint-Pierre,74086,0.9233669954441113
27,Fontenelle,70480,0.8784238025929455
28,Bossuet,70087,0.8735256675983509
29,Fleury,69479,0.8659478913217262
30,Newton,69407,0.8650505230784417
31,Turgot,68595,0.8549302034458441
32,Mercier,67286,0.8386155502450189
33,Descartes,67242,0.8380671585407895
34,Hume,66428,0.8279219120125452
35,Horace,64789,0.8074943210299992
36,Buffon,61726,0.7693187803469375
37,Bayle,60676,0.7562321601323718
38,Fénelon,60137,0.7495143617555613
39,Marmontel,57273,0.7138190471893555
40,Sade,56837,0.7083849839383548
41,Argenson,54306,0.6768399974973397
42,Marivaux,50895,0.6343271769717361
43,Prévost,50506,0.6294788957684351
44,Rameau,50060,0.6239201980392005
45,Cicéron,47979,0.5979837631187136
46,Leibniz,47811,0.5958899038843831
47,Beaumont,47670,0.5941325577412843
48,Barbier,46640,0.5812952064831864
49,Platon,46177,0.5755246301409541
50,Beaumarchais,42174,0.5256334485039001
51,Helvétius,41600,0.518479429453271
52,Malesherbes,40343,0.5028128755392622
53,Crébillon,37823,0.4714049870243045
54,Socrate,35248,0.43931160887905996
55,Raynal,35026,0.436544723462266
56,Lessing,34966,0.4357969165928623
57,Duclos,33786,0.4210900481612551
58,Condillac,32386,0.4036412212085008
59,Maupertuis,32177,0.401036360613411
60,Herder,31639,0.39433102568442396
61,Holbach,31498,0.39257367954132516
62,Cochin,31377,0.39106560235469423
63,Hegel,28858,0.3596701772875599
64,Spinoza,28337,0.3531767209715706
65,Caylus,27271,0.33989068559183055
66,Guibert,26869,0.33488037956682537
67,Mably,26694,0.3326992761977311
68,Laclos,25983,0.3238377647952966
69,Croy,24893,0.31025260666779503
70,Machiavel,23497,0.29285363350633425
71,Séguier,23052,0.2873073992249231
72,Paoli,22527,0.2807640891176402
73,Malebranche,22200,0.2766885416793898
74,Haller,22200,0.2766885416793898
75,Bolingbroke,22053,0.2748564148493505
76,Chamfort,21472,0.2676151516639575
77,Hobbes,20358,0.25373087078869444
78,Dante,18428,0.22967641648954032
79,Jaucourt,16738,0.20861318966800116
80,Casanova,16221,0.20216958714330546
81,Potocki,15713,0.19583815564902032
82,Volney,14934,0.18612912979459492
83,Rétif,14461,0.18023391897412863
84,Tissot,12347,0.15388619027546963
85,Mendelssohn,12174,0.1517300138020221
86,Duhamel,11961,0.14907529941563877
87,Gottsched,10717,0.13357077032333425
88,Sommervogel,10463,0.13040505457619167
89,Bordeu,8664,0.10798331194190239
90,Quérard,6983,0.08703225615077381
91,Schoepflin,3847,0.047946883776604166
92,Creutz,3622,0.045142608016340076
93,Graslin,2235,0.027855805885289915
94,Frédéric II,76,0.0009472220345780911
95,Joseph II,30,0.0003739034347018781
