,index,orig,fromRecord,htid,itemURL,rightsCode,lastUpdate,enumcron,usRightsString,record_id,author,title,pubyear,subjects,lang,pubyear_clean,ldr,marc_008,enumcron_clean
0,0,University of Michigan,000650679,mdp.39015053650126,https://hdl.handle.net/2027/mdp.39015053650126,ic,20220729,False,Limited (search-only),000650679,"Dirscherl, Klaus.","Der Roman der Philosophen : Diderot, Rousseau, Voltaire /",c1985.,"['Voltaire, 1694-1778 Criticism and interpretation.', 'Rousseau, Jean-Jacques, 1712-1778 Criticism and interpretation.', 'Diderot, Denis, 1713-1784 Criticism and interpretation.', 'French fiction 18th century History and criticism.']",ger,1985,m,880719s1985    gw       b    00110 ger d,False
1,7,University of California,006150398,uc1.b4088908,https://hdl.handle.net/2027/uc1.b4088908,ic,20200525,False,Limited (search-only),006150398,,Literarische Landschaft : Naturauffassung und Naturbeschreibung zwischen 1750 und 1830 /,1995.,"['Romanticism Europe Congresses.', 'Nature in literature Congresses.', 'European literature 19th century History and criticism Congresses.', 'European literature 18th century History and criticism Congresses.']",ger,1995,m,950711s1995    gw       b    100 0 ger c,False
2,10,University of California,102607872,uc1.b000656431,https://hdl.handle.net/2027/uc1.b000656431,ic,20190803,False,Limited (search-only),102607872,,Aufstieg und Krise der Vernunft : komparatistische Studien zur Literatur der Aufklärung und des fin-de-siècle /,1984.,"['Hinterhäuser, Hans, 1919- Bibliography.', 'European literature 19th century History and criticism.', 'European literature 18th century History and criticism.', 'Comparative literature.']",ger,1984,m,870224s1984    au       b    00000 ger  ,False
3,12,University of California,006038251,uc1.b4129473,https://hdl.handle.net/2027/uc1.b4129473,ic,20200525,False,Limited (search-only),006038251,,Europäischer Philhellenismus : antike griechische Motive in der heutigen europäischen Literatur /,c1995.,"['Romanticism Europe Congresses.', 'Philhellenism Europe Congresses.', 'European literature 19th century History and criticism Congresses.', 'European literature 18th century History and criticism Congresses.']",ger,1995,m,960424s1995    gw       b    101 0 ger d,False
4,18,Indiana University,006007587,inu.30000064275583,https://hdl.handle.net/2027/inu.30000064275583,ic,20220218,False,Limited (search-only),006007587,,Neue Bilder vom Menschen in der Literatur der europäischen Aufklärung /,c1998.,"['European literature 18th century History and criticism Congresses.', 'Philosophical anthropology History 19th century Congresses.', 'Enlightenment Congresses.']",ger,1998,m,991021s1998    gw       b    100 0 ger c,False
5,38,University of Michigan,001300254,mdp.39015013938959,https://hdl.handle.net/2027/mdp.39015013938959,ic,20220128,False,Limited (search-only),001300254,,Das Achtzehnte Jahrhundert : Facetten einer Epoche : Festschrift für Rainer Gruenter /,1988.,"['Gruenter, Rainer.', 'Literature, Modern 18th century History and criticism.', 'Europe Civilization 18th century.']",ger,1988,m,890804s1988    gw acf   b    01000 ger c,False
6,41,Indiana University,006025525,inu.30000041638762,https://hdl.handle.net/2027/inu.30000041638762,ic,20220223,False,Limited (search-only),006025525,"Hazard, Paul, 1878-1944.","... Die krise des europäischen geistes; La crise de la conscience européenne 1680-1715,",[c1939],"['Literature, Modern 18th century History and criticism.', 'Philosophy, Modern History.', 'Seventeenth century.', 'Eighteenth century.', 'Europe Intellectual life.']",ger,1939,m,741213s1939    xx            000 0 ger c,False
8,50,University of Michigan,000175245,mdp.39015077883174,https://hdl.handle.net/2027/mdp.39015077883174,pdus,20220501,False,Full view,000175245,"Belouin, G.",Der Franzose (1747) : contribution a l'histoire des français en allemagne au XVIIIe siècle.,1909.,['Germany History 18th century Drama.'],ger,1909,m,880715s1909    fr            000 0 ger d,False
9,51,University of Michigan,000734277,mdp.39015053582501,https://hdl.handle.net/2027/mdp.39015053582501,ic,20211016,False,Limited (search-only),000734277,"Ozdoba, Joachim, 1953-",Heuristik der Fiktion : künstlerische u. philosophische Interpretation d. Wirklichkeit in Diderots contes (1748-1772) /,1980.,"['Diderot, Denis, 1713-1784 Criticism and interpretation.']",ger,1980,m,880718s1980    gw       b    00010 ger  ,False
10,52,University of Michigan,000303672,mdp.39015005288371,https://hdl.handle.net/2027/mdp.39015005288371,ic,20210925,False,Limited (search-only),000303672,,Diderot und die Aufklärung /,c1980.,"['Diderot, Denis, 1713-1784 Criticism and interpretation Congresses.']",ger,1980,m,880718s1980    gw            10000 ger  ,False
11,54,University of California,006671140,uc1.b3539893,https://hdl.handle.net/2027/uc1.b3539893,ic,20200625,False,Limited (search-only),006671140,,"Denis Diderot, oder, Die Ambivalenz der Aufklärung : Heidelberger Vortragsreihe zum Internationalen Diderot-Jahr 1984 /",1987.,"['Diderot, Denis, 1713-1784 Criticism and interpretation.', 'Enlightenment.']",ger,1987,m,880721s1987    gw ah    b    00100 ger  ,False
12,55,University of California,000325525,uc1.b3747848,https://hdl.handle.net/2027/uc1.b3747848,ic,20191010,False,Limited (search-only),000325525,"Albert, Claudia, 1953-",Der melancholische Bürger : Ausbildung bürgerlicher Deutungsmuster im Trauerspiel Diderots und Lessings /,c1983.,"['Lessing, Gotthold Ephraim, 1729-1781 Criticism and interpretation.', 'Diderot, Denis, 1713-1784 Dramatic works.', 'Melancholy in literature.', 'Middle class in literature.', 'Tragedy.', 'Domestic drama History and criticism.']",ger,1983,m,860625s1983    gw       b    00010 ger  ,False
13,59,University of California,006679265,uc1.b3582464,https://hdl.handle.net/2027/uc1.b3582464,ic,20190912,False,Limited (search-only),006679265,,Johann Georg Hamann 1730-1788 : Quellen und Forschungen /,1988.,"['Hamann, Johann Georg, 1730-1788 Exhibitions.', 'Philosophers Germany Biography Exhibitions.', 'Authors, German 18th century Biography Exhibitions.']",ger,1988,m,900320s1988    gw a     bc   00000bger  ,False
14,60,University of Michigan,001304915,mdp.39015005568905,https://hdl.handle.net/2027/mdp.39015005568905,ic,20220128,False,Limited (search-only),001304915,Gesamthochschule Wuppertal. Arbeitsstelle 18. Jahrhundert. Colloquium (8th : 1981 : Schloss Dyck),Das weinende Saeculum /,1983.,"['Crying History 18th century Congresses.', 'Sentimentalism in literature Congresses.', 'Emotions in literature Congresses.', 'Crying in literature Congresses.', 'Literature, Modern 18th century Congresses.']",ger,1983,m,890822s1983    gw a     b    10010 ger  ,False
15,61,University of California,000701048,uc1.b3750763,https://hdl.handle.net/2027/uc1.b3750763,ic,20191010,False,Limited (search-only),000701048,Internationales Kolloquium Voltaire und Deutschland (1978 : Mannheim),Voltaire und Deutschland : Quellen u. Unters. zur Rezeption d. franz. Aufklärung /,1979.,"['Voltaire, 1694-1778 Congresses.', 'Enlightenment Congresses.', 'Germany In literature Congresses.', 'Germany Intellectual life Congresses.']",ger,1979,m,841028s1979    gw       b    10010 germ ,False
16,65,Indiana University,007827407,inu.30000087901488,https://hdl.handle.net/2027/inu.30000087901488,ic,20220116,False,Limited (search-only),007827407,"Quéval, Marie Hélène.","Les paradoxes d'Eros, ou, L'amour dans l'œuvre de Johann Christoph Gottsched /",c1999.,"['Gottsched, Johann Christoph, 1700-1766 Criticism and interpretation.', 'Love in literature.']",ger,1999,m,000629s1999    gw       b    001 0 ger  ,False
17,66,University of California,009848388,uc1.b5165507,https://hdl.handle.net/2027/uc1.b5165507,ic,20200711,False,Limited (search-only),009848388,,Der Theatralische Neoklassizismus um 1800 : ein europäisches Phänomen? /,c1986.,"['Neoclassicism (Literature) Congresses.', 'Drama 19th century History and criticism Congresses.', 'Drama 18th century History and criticism Congresses.']",ger,1986,m,870611s1986    sz       b    10000 ger d,False
18,67,University of California,000941546,uc1.b3747061,https://hdl.handle.net/2027/uc1.b3747061,ic,20200617,False,Limited (search-only),000941546,"Rauhut, Franz, 1898-",Die klassizistische und romantische Lyrik der Franzosen : im kulturellen Zusammenhang d. Epoche 1780-1850 : mit kommentierter Anthologie /,1977.,"['French poetry 18th century History and criticism.', 'French poetry 19th century History and criticism.']",ger,1977,m,860310s1977    gw       b    00010 ger  ,False
19,73,University of California,000739795,uc1.b3746669,https://hdl.handle.net/2027/uc1.b3746669,ic,20191010,False,Limited (search-only),000739795,"Hecker, Kristine.",Die satirische Epigrammatik im Frankreich des 18. Jahrhunderts.,c1979.,"['French poetry 18th century History and criticism.', 'Epigrams, French History and criticism.']",ger,1979,m,850906s1979    xx            00000 ger d,False
20,79,University of Michigan,001965082,mdp.39015065585435,https://hdl.handle.net/2027/mdp.39015065585435,pd,20210927,False,Full view,001965082,"Vivenot, Alfred, Ritter von, 1836-1874 ed. http://id.loc.gov/authorities/names/n88651105 http://viaf.org/viaf/13085144","Thugut, Clerfayt und Wurmser : Original-documente aus dem K. K. Haus-, hof- und staats-archiv und dem K. K. Kriegs-archiv in Wien vom juli 1794 bis februar 1797 /",1869.,"['Thugut, Franz Maria, Freiherr von, 1736-1818 http://id.loc.gov/authorities/names/n85339643 http://viaf.org/viaf/22934694', 'Europe History 1789-1815 Sources.', 'Austria History 1789-1815 Sources.']",ger,1869,m,900614s1869    au |||||||||||||||||ger|d,False
21,129,University of Michigan,001840380,mdp.39015016949136,https://hdl.handle.net/2027/mdp.39015016949136,ic,20210927,False,Limited (search-only),001840380,,"Skulptur aus dem Louvre : 89 Werke des französischen Klassizismus 1770-1830 : 16. April-11. Juni 1989, Wilhelm Lehmbruck Museum.",c1989.,"['Musée du Louvre. Département des sculptures Exhibitions.', 'Classicism in art France Exhibitions.', 'Sculpture, French 19th century Exhibitions.', 'Sculpture, French 18th century Exhibitions.', 'Sculpture, French Exhibitions.']",ger,1989,m,900402s1989    gw a     bc   00100 ger d,False
22,130,University of Michigan,004321443,mdp.39015056679031,https://hdl.handle.net/2027/mdp.39015056679031,ic,20220522,False,Limited (search-only),004321443,,Kunstsammeln und Geschmack im 18. Jahrhundert /,2002.,"['Art Collectors and collecting France History 18th century Congresses.', 'Art Collectors and collecting England History 18th century Congresses.', 'Art Collectors and collecting Netherlands History 18th century Congresses.', 'Art Collectors and collecting Germany History 18th century Congresses.']",ger,2002,m,030728s2002    gw a     b    001 0 ger c,False
23,131,University of California,008444625,uc1.l0071189039,https://hdl.handle.net/2027/uc1.l0071189039,pdus,20220216,False,Full view,008444625,"Goncourt, Edmond de, 1822-1896.",Stecher et Maler des achtzehnten Jahrhunderts /,1910.,"['Art, Modern 18th century History.', 'Artists France.']",ger,1910,m,780118s1910    ge af         000 0 ger d,False
24,133,University of Virginia,006191072,uva.x001257939,https://hdl.handle.net/2027/uva.x001257939,ic,20201216,False,Limited (search-only),006191072,,Zur Geschichte von Buch und Leser im Frankreich des Ancien Régime : Beiträge zu einer empirischen Rezeptionsforschung /,c1986.,"['French literature 18th century History and criticism.', 'French literature 17th century History and criticism.', 'Books and reading France History 18th century.', 'Books and reading France History 17th century.', 'France Intellectual life 18th century.', 'France Intellectual life 17th century.']",ger,1986,m,860626s1986    gw a     b    00000 ger  ,False
25,139,University of California,102166235,uc1.c088937027,https://hdl.handle.net/2027/uc1.c088937027,ic,20210201,False,Limited (search-only),102166235,,Aufklärung und Modernität : eine Freundesgabe für Peter-Eckhard Knabe /,c2006.,"['French literature 18th century History and criticism.', 'Enlightenment France History.']",ger,2006,m,070313s2006    gw a     b    011 0 ger d,False
26,142,University of Michigan,002193346,mdp.39015034793706,https://hdl.handle.net/2027/mdp.39015034793706,ic,20210929,False,Limited (search-only),002193346,"Scheffers, Henning, 1943-",Höfische Konvention und die Aufklärung : Wandlungen d. Honnête-homme-Ideals im 17. u. 18. Jh. /,1980.,"['Men in literature.', 'Aristocracy (Social class) in literature.', 'Social ethics in literature.', 'Comparative literature German and French.', 'Comparative literature French and German.', 'French literature 18th century History and criticism.', 'French literature 17th century History and criticism.']",ger,1980,m,901105s1980    gw       b    00110 ger  ,False
27,148,University of California,000594662,uc1.b3749883,https://hdl.handle.net/2027/uc1.b3749883,ic,20191009,False,Limited (search-only),000594662,,Französische Literatur im Zeitalter der Aufklärung : Gedächtnisschrift für Fritz Schalk /,1983.,"['Schalk, Fritz, 1903-', 'French literature 18th century History and criticism.']",ger,1983,m,831208s1983    gw a          00100 ger d,False
28,150,University of California,006707815,uc1.b3749879,https://hdl.handle.net/2027/uc1.b3749879,ic,20191010,False,Limited (search-only),006707815,,Aufsätze zum 18. Jahrhundert in Frankreich /,1979.,['French literature 18th century History and criticism.'],ger,1979,m,850827s1979    gw       b    00000 ger  ,False
29,152,University of Michigan,002592094,mdp.39015028467705,https://hdl.handle.net/2027/mdp.39015028467705,ic,20211016,False,Limited (search-only),002592094,"Goethe, Johann Wolfgang von, 1749-1832.",Weimar und Mailand : Briefe und Dokumente zu einem Austausch um Goethe und Manzoni /,1992.,"['Manzoni, Alessandro, 1785-1873 Influence Goethe.', 'Goethe, Johann Wolfgang von, 1749-1832 Influence Manzoni.', 'Goethe, Johann Wolfgang von, 1749-1832. Correspondence.', 'Authors, German 19th century Correspondence.']",ger,1992,m,930126s1992    gw a     b    001 0ager d,False
30,154,University of Virginia,000822202,uva.x001206975,https://hdl.handle.net/2027/uva.x001206975,ic,20201210,False,Limited (search-only),000822202,"Goethe, Johann Wolfgang von, 1749-1832.",Goethe an Cornelia : die dreizehn Briefe an seine Schwester /,c1986.,"['Goethe, Cornelia, 1750-1777 Correspondence.', 'Goethe, Johann Wolfgang von, 1749-1832. Correspondence.', 'Authors, German 18th century Correspondence.']",ger,1986,m,900711s1986    gw       b    00000 ger d,False
31,156,University of California,006143860,uc1.b4071495,https://hdl.handle.net/2027/uc1.b4071495,ic,20200525,False,Limited (search-only),006143860,"Hinterberger, Heinrich.","Herzogin Juliane von Giovane : geb. Freiin von Mudersbach (gest. 1805) : eine Zusammenfassung der wichtigsten biographischen Mitteilungen über die Herzogin nebst einem chronologischen Verzeichnis derartiger Mitteilungen und Erwähnungen der Herzogin in historischen Werken, Briefwechseln u. dgl. : mit Abdruck von Goethes Beschreibung seines Besuches auf dem Schlosse der Herzogin (Italienische Reise, 2. Juni 1787) /",1946.,"['Goethe, Johann Wolfgang von, 1749-1832.', 'Giovane, Juliane, Herzogin von, 1766-1805 Friends and associates.', 'Giovane, Juliane, Herzogin von, 1766-1805.', 'Austria Court and courtiers Biography.']",ger,1946,m,900922s1946    au            00010 ger c,False
32,157,University of Virginia,102067298,uva.x000296547,https://hdl.handle.net/2027/uva.x000296547,pdus,20201214,False,Full view,102067298,"Dürckheim, Anna Elisabeth Schönemann, Freifrau von, 1758-1817.","Die Briefe der Elise von Türckheim, geb. Schönemann, Goethes Lili /",1924.,"['Dürckheim, Anna Elisabeth Schönemann, Freifrau von, 1758-1817.', 'Goethe, Johann Wolfgang von, 1749-1832 Relationship with women Lilli.']",ger,1924,m,760114s1924    gw acfh  b    00110dger d,False
33,158,University of Wisconsin - Madison,007963562,wu.89011293651,https://hdl.handle.net/2027/wu.89011293651,ic,20210209,False,Limited (search-only),007963562,"Ehrlich, Godfrey Max.",Französische Übersetzungen als Kommentare für erklärungsbedürftige Stellen in Goethes Faust /,1932.,"['Goethe, Johann Wolfgang von, 1749-1832. Faust.', 'Dissertations, Academic German.']",ger,1932,m,990604s1932    xx       bm   000 0 ger d,False
34,159,Harvard University,009719160,hvd.hnxuw7,https://hdl.handle.net/2027/hvd.hnxuw7,pd,20190826,False,Full view,009719160,,Goethe in den Zeugnissen der Mitlebenden : Beilage zu allen Ausgaben von Goethe's Werken. Erste Sammlung : Zum 28. August 1823.,1823,"['Goethe, Johann Wolfgang von, 1749-1832 Appreciation.', 'Literature History and criticism.', 'German literature.']",ger,1823,m,810715s1823    gw            001 0bger d,False
35,160,University of California,012105320,uc1.l0076683986,https://hdl.handle.net/2027/uc1.l0076683986,pd,20201021,False,Full view,012105320,"Liszt, Franz, 1811-1886.",Joie ou douleur = Freudvoll und Leidvoll /,186-?],"['Goethe, Johann Wolfgang von, 1749-1832 Musical settings.', 'Songs (Medium voice) with piano.']",ger,1860,m,970903q18601869gw sga         n    ger d,False
36,161,University of Michigan,000118854,mdp.39015005876597,https://hdl.handle.net/2027/mdp.39015005876597,ic,20220530,False,Limited (search-only),000118854,"Gallati, Ernst.",Frédéric Soret und Goethe : nach Sorets unveröffentlichen Korrespondenzen mit seinen Angehörigen in Genf /,c1980.,"['Goethe, Johann Wolfgang von, 1749-1832.', 'Soret, Frédéric Jacob, 1795-1865.']",ger,1980,m,880715s1980    sz       b    00110 ger d,False
37,164,University of Michigan,002445623,mdp.39015007865333,https://hdl.handle.net/2027/mdp.39015007865333,pd,20211016,False,Full view,002445623,"Schumann, Robert, 1810-1856.","Scenen aus Göthe's Faust : für Solostimmen, Chor und Orchester /",[1889?],"['Goethe, Johann Wolfgang von, 1749-1832 Musical settings.', 'Choruses, Secular (Mixed voices) with orchestra Vocal scores with piano.']",ger,1889,m,910617s1889    gw zzc   d     n    ger  ,False
38,165,University of Wisconsin - Madison,005693141,wu.89076285733,https://hdl.handle.net/2027/wu.89076285733,ic,20200730,False,Limited (search-only),005693141,"Kraus, Otto Proteus.",Goethe im Urteil Frankreichs /,1933.,"['Goethe, Johann Wolfgang von, 1749-1832 Appreciation France.', 'Dissertations, Academic German.']",ger,1933,m,970129s1933    xx       bm   000 0 ger d,False
39,166,University of Michigan,004453647,mdp.49015000713645,https://hdl.handle.net/2027/mdp.49015000713645,ic,20220209,False,Limited (search-only),004453647,"Perls, Hugo.",Goethes Ästhetik und andere Aufsätze zu Literatur und Philosophie.,(1969).,"['Goethe, Johann Wolfgang von, 1749-1832 Aesthetics.', 'Plato. Critias.', 'Greek drama (Tragedy) History and criticism.']",ger,1969,m,940225s1969    sz       b    00000 ger  ,False
40,167,University of Michigan,004230101,mdp.39015048031903,https://hdl.handle.net/2027/mdp.39015048031903,ic,20220526,False,Limited (search-only),004230101,"Schubert, Franz, 1797-1828.","Der Erlkönig : Op. 1, D 328 (1818) = Le roi des aulnes /",c2000.,"['Goethe, Johann Wolfgang von, 1749-1832 Musical settings.', 'Songs (High voice) with orchestra Scores.']",ger,2000,m,030106s2000    gw sga   i     n    ger c,False
41,168,University of Wisconsin - Madison,006914349,wu.89103440392,https://hdl.handle.net/2027/wu.89103440392,ic,20200707,False,Limited (search-only),006914349,"Fuchs, Albert, 1896-",Goethe und das Elsass /,1973.,"['Goethe, Johann Wolfgang von, 1749-1832 Homes and haunts Alsace-Lorraine.']",ger,1973,m,761229s1973    gw f     b    000 0 ger  ,False
42,172,University of Michigan,004155131,mdp.39015042250558,https://hdl.handle.net/2027/mdp.39015042250558,ic,20210928,False,Limited (search-only),004155131,,"Republikanische Tugend : Aussbildung [sic] eines Schweizer Nationalbewusstseins und Erziehung eines neuen Bürgers = Contribution à une nouvelle approche des lumières helvétiques : actes du 16e Colloque de l'Académie suisse des sciences humaines et sociales (Ascona, Monte Verità, Centro Stefano Franscini), 7-11 septembre 1998 /",2000.,"['Enlightenment Switzerland 18th century Congresses.', 'Switzerland Intellectual life 18th century Congresses.']",ger,2000,m,011022s2000    sz            100 0 gerod,False
43,181,University of Michigan,000226813,mdp.39015008163753,https://hdl.handle.net/2027/mdp.39015008163753,ic,20220530,False,Limited (search-only),000226813,Deutsche Gesellschaft für die Erforschung des 18. Jahrhunderts.,Das achtzehnte Jahrhundert als Epoche /,1978.,"['Enlightenment Congresses.', 'Civilization, Modern 18th century Congresses.']",ger,1978,m,880715s1978    lh a     b    10010 ger  ,False
44,182,University of Michigan,002728345,mdp.39015028902339,https://hdl.handle.net/2027/mdp.39015028902339,ic,20210903,False,Limited (search-only),002728345,,Aufklärung als Mission : Akzeptanzprobleme und Kommunikationsdefizite = La mission des Lumières : accueil rʹeciproque et difficultʹes de communication /,1993.,"['Philosophy, Modern 18th century Congresses.', 'Enlightenment Congresses.']",ger,1993,m,931202s1993    gw       b    101 0 ger d,False
45,185,University of Michigan,004028409,mdp.39015047502151,https://hdl.handle.net/2027/mdp.39015047502151,ic,20220530,False,Limited (search-only),004028409,,Staatskanzler Wenzel Anton von Kaunitz-Rietberg 1711-1794 : neue Perpektiven zu Politik und Kultur der europäischen Aufklärung /,[1996],"['Kaunitz-Rietberg, Wenzel Anton, Fürst, 1711-1794 Congresses.', 'Enlightenment Europe Congresses.', 'Austria Politics and government 1740-1780 Congresses.', 'Austria Foreign relations 18th century Congresses.']",ger,1996,m,991213s1996    au       b    100 0dger c,False
46,186,University of Virginia,101968832,uva.x002647704,https://hdl.handle.net/2027/uva.x002647704,ic,20201222,False,Limited (search-only),101968832,,Aufklärung und Skepsis : Studien zur Philsophie und Geistesgeschichte des 17. und 18. Jahrhunderts : Günter Gawlick zum 65. Geburtstag /,c1995.,"['Enlightenment.', 'Philosophy, Modern 18th century.', 'Philosophy, Modern 17th century.']",ger,1995,m,950426s1995    gw       b    011 0 ger c,False
47,187,University of California,001827363,uc1.b4245000,https://hdl.handle.net/2027/uc1.b4245000,ic,20200515,False,Limited (search-only),001827363,,Fachgespräche in Aufklärung und Revolution /,1989.,"['Science History 18th century.', 'Enlightenment.', 'Sociolinguistics.', 'Philosophy and science.', 'Science Language.']",ger,1989,m,900118s1989    gw a     b    00000 ger c,False
48,23,University of Virginia,000939816,uva.x000309029,https://hdl.handle.net/2027/uva.x000309029,ic,20201212,V.1,Limited (search-only),000939816,"Weisshaupt, Winfried, 1940-","Europa sieht sich mit fremden Blick : Werke nach d. Schema d. Lettres persanes in d. europ., insbesondere d. dt. Literatur d. 18. Jh. /",1979.,"['Exoticism in literature.', 'European literature History and criticism.', 'German literature 18th century History and criticism.', 'Europe History 18th century.']",ger,1979,m,791213s1979    gw       b    00010 ger  ,v.1
49,24,University of Virginia,000939816,uva.x000309018,https://hdl.handle.net/2027/uva.x000309018,ic,20200311,V.2 PT.1,Limited (search-only),000939816,"Weisshaupt, Winfried, 1940-","Europa sieht sich mit fremden Blick : Werke nach d. Schema d. Lettres persanes in d. europ., insbesondere d. dt. Literatur d. 18. Jh. /",1979.,"['Exoticism in literature.', 'European literature History and criticism.', 'German literature 18th century History and criticism.', 'Europe History 18th century.']",ger,1979,m,791213s1979    gw       b    00010 ger  ,v.2 Pv.1
50,25,University of Virginia,000939816,uva.x000309037,https://hdl.handle.net/2027/uva.x000309037,ic,20201212,V.2 PT.2,Limited (search-only),000939816,"Weisshaupt, Winfried, 1940-","Europa sieht sich mit fremden Blick : Werke nach d. Schema d. Lettres persanes in d. europ., insbesondere d. dt. Literatur d. 18. Jh. /",1979.,"['Exoticism in literature.', 'European literature History and criticism.', 'German literature 18th century History and criticism.', 'Europe History 18th century.']",ger,1979,m,791213s1979    gw       b    00010 ger  ,v.2 Pv.2
51,26,University of Michigan,000939816,mdp.39015014214038,https://hdl.handle.net/2027/mdp.39015014214038,ic,20210929,no.279 pt.1,Limited (search-only),000939816,"Weisshaupt, Winfried, 1940-","Europa sieht sich mit fremden Blick : Werke nach d. Schema d. Lettres persanes in d. europ., insbesondere d. dt. Literatur d. 18. Jh. /",1979.,"['Exoticism in literature.', 'European literature History and criticism.', 'German literature 18th century History and criticism.', 'Europe History 18th century.']",ger,1979,m,791213s1979    gw       b    00010 ger  ,no.279 pv.1
52,27,University of Michigan,000939816,mdp.39015014214160,https://hdl.handle.net/2027/mdp.39015014214160,ic,20210927,no.279 pt.2,Limited (search-only),000939816,"Weisshaupt, Winfried, 1940-","Europa sieht sich mit fremden Blick : Werke nach d. Schema d. Lettres persanes in d. europ., insbesondere d. dt. Literatur d. 18. Jh. /",1979.,"['Exoticism in literature.', 'European literature History and criticism.', 'German literature 18th century History and criticism.', 'Europe History 18th century.']",ger,1979,m,791213s1979    gw       b    00010 ger  ,no.279 pv.2
53,47,University of California,009243774,uc1.$b433343,https://hdl.handle.net/2027/uc1.$b433343,pdus,20200520,v. 1,Full view,009243774,"Werner, Richard.","Zur Geschichte der ""Proverbes dramatiques"" /",1887-,"['Carmontelle, 1717-1806.', 'French drama 18th century History and criticism.']",ger,1887,m,881222m18879999gw            00000 ger d,v.1
54,49,University of Michigan,003516372,mdp.39015088950160,https://hdl.handle.net/2027/mdp.39015088950160,ic,20210916,Guide,Limited (search-only),003516372,,German & Austrian drama,c1984.,"['Theater Austria Vienna History 18th century Sources.', 'Austrian drama 18th century.', 'German drama 18th century.']",ger,1984,m,001218s1984    ctu     a     000 0 ger  ,Guide
55,56,University of Michigan,000325525,mdp.39015001181307,https://hdl.handle.net/2027/mdp.39015001181307,ic,20220531,no.530,Limited (search-only),000325525,"Albert, Claudia, 1953-",Der melancholische Bürger : Ausbildung bürgerlicher Deutungsmuster im Trauerspiel Diderots und Lessings /,c1983.,"['Lessing, Gotthold Ephraim, 1729-1781 Criticism and interpretation.', 'Diderot, Denis, 1713-1784 Dramatic works.', 'Melancholy in literature.', 'Middle class in literature.', 'Tragedy.', 'Domestic drama History and criticism.']",ger,1983,m,860625s1983    gw       b    00010 ger  ,no.530
56,63,University of Virginia,102029151,uva.x004731622,https://hdl.handle.net/2027/uva.x004731622,ic,20201223,T. 2 1980,Limited (search-only),102029151,"Hammermayer, Ludwig, 1928-",Der Wilhelmsbader Freimaurer-Konvent von 1782 : eine Höhe- und Wendepunkt in der Geschichte der deutschen und europäischen Geheimgesellschaften /,1980.,"['Illuminati Germany History 18th century.', 'Illuminati Europe History 18th century.', 'Freemasonry Germany History 18th century.', 'Freemasonry Europe History 18th century.', 'Enlightenment.', 'Secret societies Germany History 18th century.', 'Secret societies Europe History 18th century.']",ger,1980,m,910411s1980    gw       b    000 0 ger  ,v. 2 Year
57,80,University of California,006610253,uc1.$b767078,https://hdl.handle.net/2027/uc1.$b767078,pdus,20200702,v.1,Full view,006610253,"Napoleon I, Emperor of the French, 1769-1821.",Napoleons Leben von Ihm selbst /,[1910-1913].,"['Napoleon I, Emperor of the French, 1769-1821.', 'Europe History 1789-1815 Sources.', 'France History Consulate and First Empire, 1799-1815 Sources.']",ger,1910,m,930220m19101913gw b          000 0ager d,v.1
58,81,University of California,006610253,uc1.$b117646,https://hdl.handle.net/2027/uc1.$b117646,pdus,20190830,v.3,Full view,006610253,"Napoleon I, Emperor of the French, 1769-1821.",Napoleons Leben von Ihm selbst /,[1910-1913].,"['Napoleon I, Emperor of the French, 1769-1821.', 'Europe History 1789-1815 Sources.', 'France History Consulate and First Empire, 1799-1815 Sources.']",ger,1910,m,930220m19101913gw b          000 0ager d,v.3
59,82,University of California,006610253,uc1.$b117647,https://hdl.handle.net/2027/uc1.$b117647,pdus,20190903,v.6,Full view,006610253,"Napoleon I, Emperor of the French, 1769-1821.",Napoleons Leben von Ihm selbst /,[1910-1913].,"['Napoleon I, Emperor of the French, 1769-1821.', 'Europe History 1789-1815 Sources.', 'France History Consulate and First Empire, 1799-1815 Sources.']",ger,1910,m,930220m19101913gw b          000 0ager d,v.6
60,83,University of California,006610253,uc1.$b117648,https://hdl.handle.net/2027/uc1.$b117648,pdus,20190917,v.7,Full view,006610253,"Napoleon I, Emperor of the French, 1769-1821.",Napoleons Leben von Ihm selbst /,[1910-1913].,"['Napoleon I, Emperor of the French, 1769-1821.', 'Europe History 1789-1815 Sources.', 'France History Consulate and First Empire, 1799-1815 Sources.']",ger,1910,m,930220m19101913gw b          000 0ager d,v.7
61,84,University of California,006610253,uc1.$b117649,https://hdl.handle.net/2027/uc1.$b117649,pdus,20191113,v.8,Full view,006610253,"Napoleon I, Emperor of the French, 1769-1821.",Napoleons Leben von Ihm selbst /,[1910-1913].,"['Napoleon I, Emperor of the French, 1769-1821.', 'Europe History 1789-1815 Sources.', 'France History Consulate and First Empire, 1799-1815 Sources.']",ger,1910,m,930220m19101913gw b          000 0ager d,v.8
62,85,Columbia University,008397886,nnc1.0036747327,https://hdl.handle.net/2027/nnc1.0036747327,pd,20201118,v.1,Full view,008397886,"Häberlin, Carl Friedrich, 1756-1808.",Staats-Archiv /,1796-1805.,"['Germany Statistics.', 'Europe History 1789-1815 Sources.', 'Germany Politics and government 1740-1806.', 'Germany History 1740-1806 Sources.']",ger,1796,m,831013m17961805gw            000 0 ger d,v.1
63,86,Columbia University,008397886,nnc1.0036747335,https://hdl.handle.net/2027/nnc1.0036747335,pd,20201118,v.2,Full view,008397886,"Häberlin, Carl Friedrich, 1756-1808.",Staats-Archiv /,1796-1805.,"['Germany Statistics.', 'Europe History 1789-1815 Sources.', 'Germany Politics and government 1740-1806.', 'Germany History 1740-1806 Sources.']",ger,1796,m,831013m17961805gw            000 0 ger d,v.2
64,87,Columbia University,008397886,nnc1.0036747343,https://hdl.handle.net/2027/nnc1.0036747343,pd,20201118,v.3,Full view,008397886,"Häberlin, Carl Friedrich, 1756-1808.",Staats-Archiv /,1796-1805.,"['Germany Statistics.', 'Europe History 1789-1815 Sources.', 'Germany Politics and government 1740-1806.', 'Germany History 1740-1806 Sources.']",ger,1796,m,831013m17961805gw            000 0 ger d,v.3
65,88,Columbia University,008397886,nnc1.0036747351,https://hdl.handle.net/2027/nnc1.0036747351,pd,20201118,v.4,Full view,008397886,"Häberlin, Carl Friedrich, 1756-1808.",Staats-Archiv /,1796-1805.,"['Germany Statistics.', 'Europe History 1789-1815 Sources.', 'Germany Politics and government 1740-1806.', 'Germany History 1740-1806 Sources.']",ger,1796,m,831013m17961805gw            000 0 ger d,v.4
66,89,Columbia University,008397886,nnc1.0036747360,https://hdl.handle.net/2027/nnc1.0036747360,pd,20200729,v.5,Full view,008397886,"Häberlin, Carl Friedrich, 1756-1808.",Staats-Archiv /,1796-1805.,"['Germany Statistics.', 'Europe History 1789-1815 Sources.', 'Germany Politics and government 1740-1806.', 'Germany History 1740-1806 Sources.']",ger,1796,m,831013m17961805gw            000 0 ger d,v.5
67,90,Columbia University,008397886,nnc1.0036747378,https://hdl.handle.net/2027/nnc1.0036747378,pd,20201118,v.6,Full view,008397886,"Häberlin, Carl Friedrich, 1756-1808.",Staats-Archiv /,1796-1805.,"['Germany Statistics.', 'Europe History 1789-1815 Sources.', 'Germany Politics and government 1740-1806.', 'Germany History 1740-1806 Sources.']",ger,1796,m,831013m17961805gw            000 0 ger d,v.6
68,91,Columbia University,008397886,nnc1.0036747386,https://hdl.handle.net/2027/nnc1.0036747386,pd,20201118,v.7,Full view,008397886,"Häberlin, Carl Friedrich, 1756-1808.",Staats-Archiv /,1796-1805.,"['Germany Statistics.', 'Europe History 1789-1815 Sources.', 'Germany Politics and government 1740-1806.', 'Germany History 1740-1806 Sources.']",ger,1796,m,831013m17961805gw            000 0 ger d,v.7
69,92,Columbia University,008397886,nnc1.0036747394,https://hdl.handle.net/2027/nnc1.0036747394,pd,20201117,v.8,Full view,008397886,"Häberlin, Carl Friedrich, 1756-1808.",Staats-Archiv /,1796-1805.,"['Germany Statistics.', 'Europe History 1789-1815 Sources.', 'Germany Politics and government 1740-1806.', 'Germany History 1740-1806 Sources.']",ger,1796,m,831013m17961805gw            000 0 ger d,v.8
70,93,Columbia University,008397886,nnc1.0036747408,https://hdl.handle.net/2027/nnc1.0036747408,pd,20200726,v.9,Full view,008397886,"Häberlin, Carl Friedrich, 1756-1808.",Staats-Archiv /,1796-1805.,"['Germany Statistics.', 'Europe History 1789-1815 Sources.', 'Germany Politics and government 1740-1806.', 'Germany History 1740-1806 Sources.']",ger,1796,m,831013m17961805gw            000 0 ger d,v.9
71,94,Columbia University,008397886,nnc1.0036747416,https://hdl.handle.net/2027/nnc1.0036747416,pd,20201118,v.10,Full view,008397886,"Häberlin, Carl Friedrich, 1756-1808.",Staats-Archiv /,1796-1805.,"['Germany Statistics.', 'Europe History 1789-1815 Sources.', 'Germany Politics and government 1740-1806.', 'Germany History 1740-1806 Sources.']",ger,1796,m,831013m17961805gw            000 0 ger d,v.10
72,95,Columbia University,008397886,nnc1.0036747424,https://hdl.handle.net/2027/nnc1.0036747424,pd,20201118,v.11,Full view,008397886,"Häberlin, Carl Friedrich, 1756-1808.",Staats-Archiv /,1796-1805.,"['Germany Statistics.', 'Europe History 1789-1815 Sources.', 'Germany Politics and government 1740-1806.', 'Germany History 1740-1806 Sources.']",ger,1796,m,831013m17961805gw            000 0 ger d,v.11
73,96,Columbia University,008397886,nnc1.0036747432,https://hdl.handle.net/2027/nnc1.0036747432,pd,20200612,v.12,Full view,008397886,"Häberlin, Carl Friedrich, 1756-1808.",Staats-Archiv /,1796-1805.,"['Germany Statistics.', 'Europe History 1789-1815 Sources.', 'Germany Politics and government 1740-1806.', 'Germany History 1740-1806 Sources.']",ger,1796,m,831013m17961805gw            000 0 ger d,v.12
74,97,Columbia University,008397886,nnc1.0036747440,https://hdl.handle.net/2027/nnc1.0036747440,pd,20201118,v.13,Full view,008397886,"Häberlin, Carl Friedrich, 1756-1808.",Staats-Archiv /,1796-1805.,"['Germany Statistics.', 'Europe History 1789-1815 Sources.', 'Germany Politics and government 1740-1806.', 'Germany History 1740-1806 Sources.']",ger,1796,m,831013m17961805gw            000 0 ger d,v.13
75,98,Columbia University,008397886,nnc1.0036747459,https://hdl.handle.net/2027/nnc1.0036747459,pd,20201117,v.14,Full view,008397886,"Häberlin, Carl Friedrich, 1756-1808.",Staats-Archiv /,1796-1805.,"['Germany Statistics.', 'Europe History 1789-1815 Sources.', 'Germany Politics and government 1740-1806.', 'Germany History 1740-1806 Sources.']",ger,1796,m,831013m17961805gw            000 0 ger d,v.14
76,99,Columbia University,008397886,nnc1.0036747467,https://hdl.handle.net/2027/nnc1.0036747467,pd,20201118,v.15,Full view,008397886,"Häberlin, Carl Friedrich, 1756-1808.",Staats-Archiv /,1796-1805.,"['Germany Statistics.', 'Europe History 1789-1815 Sources.', 'Germany Politics and government 1740-1806.', 'Germany History 1740-1806 Sources.']",ger,1796,m,831013m17961805gw            000 0 ger d,v.15
77,100,University of Chicago,100724218,chi.090418227,https://hdl.handle.net/2027/chi.090418227,pd,20201115,c.1,Full view,100724218,,"Beytrag zu einer historischen, politischen und statistischen Entwickelung der von Napoleon Bonaparte während seines Obercommando und seiner Regierung befolgten Maassregeln und Entwürfe : mit einer Sammlung dahin gehöriger Staatsschriften.",1814.,"['Europe Economic conditions 1789-1900', 'France Politics and government 1789-1815 Sources.', 'France History 1789-1815', 'Europe Politics and government 1789-1815 Sources.', 'Europe History 1789-1815']",ger,1814,m,850408s1814    gw            000 0 ger d,c.1
78,101,Harvard University,007911800,hvd.32044035987106,https://hdl.handle.net/2027/hvd.32044035987106,pdus,20200205,v.1,Full view,007911800,"Charles Frederick, Grand Duke of Baden, 1728-1811.","Politische Correspondenz Karl Friedrichs von Baden, 1783-1806 /",1888-1915.,"['Charles Frederick, Grand Duke of Baden, 1728-1811.', 'Statesmen Europe Correspondence.', 'Baden (Germany) Politics and government Sources.', 'Baden (Germany) History Sources.', 'Europe Politics and government 1789-1900 Sources.', 'Europe Kings and rulers Correspondence.']",ger,1888,m,840216m18881915gw       b    001 0 ger d,v.1
79,104,Harvard University,007911800,hvd.32044035987114,https://hdl.handle.net/2027/hvd.32044035987114,pdus,20200205,v.2,Full view,007911800,"Charles Frederick, Grand Duke of Baden, 1728-1811.","Politische Correspondenz Karl Friedrichs von Baden, 1783-1806 /",1888-1915.,"['Charles Frederick, Grand Duke of Baden, 1728-1811.', 'Statesmen Europe Correspondence.', 'Baden (Germany) Politics and government Sources.', 'Baden (Germany) History Sources.', 'Europe Politics and government 1789-1900 Sources.', 'Europe Kings and rulers Correspondence.']",ger,1888,m,840216m18881915gw       b    001 0 ger d,v.2
80,108,Harvard University,007911800,hvd.32044035987122,https://hdl.handle.net/2027/hvd.32044035987122,pdus,20200205,v.3,Full view,007911800,"Charles Frederick, Grand Duke of Baden, 1728-1811.","Politische Correspondenz Karl Friedrichs von Baden, 1783-1806 /",1888-1915.,"['Charles Frederick, Grand Duke of Baden, 1728-1811.', 'Statesmen Europe Correspondence.', 'Baden (Germany) Politics and government Sources.', 'Baden (Germany) History Sources.', 'Europe Politics and government 1789-1900 Sources.', 'Europe Kings and rulers Correspondence.']",ger,1888,m,840216m18881915gw       b    001 0 ger d,v.3
81,112,Princeton University,007911800,njp.32101073661439,https://hdl.handle.net/2027/njp.32101073661439,pdus,20200214,v.4,Full view,007911800,"Charles Frederick, Grand Duke of Baden, 1728-1811.","Politische Correspondenz Karl Friedrichs von Baden, 1783-1806 /",1888-1915.,"['Charles Frederick, Grand Duke of Baden, 1728-1811.', 'Statesmen Europe Correspondence.', 'Baden (Germany) Politics and government Sources.', 'Baden (Germany) History Sources.', 'Europe Politics and government 1789-1900 Sources.', 'Europe Kings and rulers Correspondence.']",ger,1888,m,840216m18881915gw       b    001 0 ger d,v.4
82,114,Princeton University,007911800,njp.32101073661447,https://hdl.handle.net/2027/njp.32101073661447,pdus,20201125,v.5,Full view,007911800,"Charles Frederick, Grand Duke of Baden, 1728-1811.","Politische Correspondenz Karl Friedrichs von Baden, 1783-1806 /",1888-1915.,"['Charles Frederick, Grand Duke of Baden, 1728-1811.', 'Statesmen Europe Correspondence.', 'Baden (Germany) Politics and government Sources.', 'Baden (Germany) History Sources.', 'Europe Politics and government 1789-1900 Sources.', 'Europe Kings and rulers Correspondence.']",ger,1888,m,840216m18881915gw       b    001 0 ger d,v.5
83,116,Princeton University,007911800,njp.32101073661454,https://hdl.handle.net/2027/njp.32101073661454,pdus,20200327,v.6,Full view,007911800,"Charles Frederick, Grand Duke of Baden, 1728-1811.","Politische Correspondenz Karl Friedrichs von Baden, 1783-1806 /",1888-1915.,"['Charles Frederick, Grand Duke of Baden, 1728-1811.', 'Statesmen Europe Correspondence.', 'Baden (Germany) Politics and government Sources.', 'Baden (Germany) History Sources.', 'Europe Politics and government 1789-1900 Sources.', 'Europe Kings and rulers Correspondence.']",ger,1888,m,840216m18881915gw       b    001 0 ger d,v.6
84,117,Harvard University,009734613,hvd.hnn46v,https://hdl.handle.net/2027/hvd.hnn46v,pd,20200710,v.1-2,Full view,009734613,"Gentz, Friedrich von, 1764-1832.",Schriften von Friedrich von Gentz : ein Denkmal /,1838-1840.,"['Müller, Johannes von, 1752-1809', 'Gentz, Friedrich von, 1764-1832.', 'German letters', 'Europe Intellectual life Sources.', 'Europe History 1789-1900', 'Austria History 1789-1900']",ger,1838,m,820622m18381840gw            000|0dger d,v.1-2
85,118,Harvard University,009734613,hvd.hnn46w,https://hdl.handle.net/2027/hvd.hnn46w,pd,20191017,v.3-5,Full view,009734613,"Gentz, Friedrich von, 1764-1832.",Schriften von Friedrich von Gentz : ein Denkmal /,1838-1840.,"['Müller, Johannes von, 1752-1809', 'Gentz, Friedrich von, 1764-1832.', 'German letters', 'Europe Intellectual life Sources.', 'Europe History 1789-1900', 'Austria History 1789-1900']",ger,1838,m,820622m18381840gw            000|0dger d,v.3-5
86,119,University of Virginia,009734613,uva.x001704072,https://hdl.handle.net/2027/uva.x001704072,pd,20200710,T.4,Full view,009734613,"Gentz, Friedrich von, 1764-1832.",Schriften von Friedrich von Gentz : ein Denkmal /,1838-1840.,"['Müller, Johannes von, 1752-1809', 'Gentz, Friedrich von, 1764-1832.', 'German letters', 'Europe Intellectual life Sources.', 'Europe History 1789-1900', 'Austria History 1789-1900']",ger,1838,m,820622m18381840gw            000|0dger d,v.4
87,120,University of Iowa,009734613,iau.31858042780472,https://hdl.handle.net/2027/iau.31858042780472,pd,20201216,v.4/5,Full view,009734613,"Gentz, Friedrich von, 1764-1832.",Schriften von Friedrich von Gentz : ein Denkmal /,1838-1840.,"['Müller, Johannes von, 1752-1809', 'Gentz, Friedrich von, 1764-1832.', 'German letters', 'Europe Intellectual life Sources.', 'Europe History 1789-1900', 'Austria History 1789-1900']",ger,1838,m,820622m18381840gw            000|0dger d,v.4/5
88,121,University of Virginia,009734613,uva.x001704073,https://hdl.handle.net/2027/uva.x001704073,pd,20200710,T.5,Full view,009734613,"Gentz, Friedrich von, 1764-1832.",Schriften von Friedrich von Gentz : ein Denkmal /,1838-1840.,"['Müller, Johannes von, 1752-1809', 'Gentz, Friedrich von, 1764-1832.', 'German letters', 'Europe Intellectual life Sources.', 'Europe History 1789-1900', 'Austria History 1789-1900']",ger,1838,m,820622m18381840gw            000|0dger d,v.5
89,122,University of Wisconsin - Madison,005855996,wu.89099953770,https://hdl.handle.net/2027/wu.89099953770,pd,20200610,v.1,Full view,005855996,"Gentz, Friedrich von, 1764-1832.",Schriften von Friedrich von Gentz : ein Denkmal /,1838-1840.,"['Müller, Johannes von, 1752-1809 Correspondence.', 'Gentz, Friedrich von, 1764-1832.', 'Europe Intellectual life Sources.', 'Europe History 1789-1900 Sources.']",ger,1838,m,951126m18381840gw      b     000 0dger d,v.1
90,123,University of Wisconsin - Madison,005855996,wu.89099953788,https://hdl.handle.net/2027/wu.89099953788,pd,20200609,v.2,Full view,005855996,"Gentz, Friedrich von, 1764-1832.",Schriften von Friedrich von Gentz : ein Denkmal /,1838-1840.,"['Müller, Johannes von, 1752-1809 Correspondence.', 'Gentz, Friedrich von, 1764-1832.', 'Europe Intellectual life Sources.', 'Europe History 1789-1900 Sources.']",ger,1838,m,951126m18381840gw      b     000 0dger d,v.2
91,124,University of Wisconsin - Madison,005855996,wu.89099953796,https://hdl.handle.net/2027/wu.89099953796,pd,20200625,v.3,Full view,005855996,"Gentz, Friedrich von, 1764-1832.",Schriften von Friedrich von Gentz : ein Denkmal /,1838-1840.,"['Müller, Johannes von, 1752-1809 Correspondence.', 'Gentz, Friedrich von, 1764-1832.', 'Europe Intellectual life Sources.', 'Europe History 1789-1900 Sources.']",ger,1838,m,951126m18381840gw      b     000 0dger d,v.3
92,125,University of Wisconsin - Madison,005855996,wu.89099953804,https://hdl.handle.net/2027/wu.89099953804,pd,20200625,v.4,Full view,005855996,"Gentz, Friedrich von, 1764-1832.",Schriften von Friedrich von Gentz : ein Denkmal /,1838-1840.,"['Müller, Johannes von, 1752-1809 Correspondence.', 'Gentz, Friedrich von, 1764-1832.', 'Europe Intellectual life Sources.', 'Europe History 1789-1900 Sources.']",ger,1838,m,951126m18381840gw      b     000 0dger d,v.4
93,126,University of Wisconsin - Madison,005855996,wu.89099953812,https://hdl.handle.net/2027/wu.89099953812,pd,20210204,v.5,Full view,005855996,"Gentz, Friedrich von, 1764-1832.",Schriften von Friedrich von Gentz : ein Denkmal /,1838-1840.,"['Müller, Johannes von, 1752-1809 Correspondence.', 'Gentz, Friedrich von, 1764-1832.', 'Europe Intellectual life Sources.', 'Europe History 1789-1900 Sources.']",ger,1838,m,951126m18381840gw      b     000 0dger d,v.5
94,127,University of California,012478679,uc1.a0000455972,https://hdl.handle.net/2027/uc1.a0000455972,pdus,20201127,v.1,Full view,012478679,"Goncourt, Edmond de, 1822-1896.",Die Kunst des achtzehnten Jahrhunderts,[1921],"['Artists France.', 'Art, French 18th century.']",ger,1921,m,740701s1921    gw            000 0 ger|u,v.1
95,128,University of California,012478679,uc1.a0000455980,https://hdl.handle.net/2027/uc1.a0000455980,pdus,20201127,v.2,Full view,012478679,"Goncourt, Edmond de, 1822-1896.",Die Kunst des achtzehnten Jahrhunderts,[1921],"['Artists France.', 'Art, French 18th century.']",ger,1921,m,740701s1921    gw            000 0 ger|u,v.2
96,144,University of Wisconsin - Madison,007090956,wu.89032291122,https://hdl.handle.net/2027/wu.89032291122,ic,20200607,1,Limited (search-only),007090956,"Klemperer, Victor, 1881-1960",Geschichte der französischen Literatur im 18. Jahrhundert.,1954-,['French literature 18th century History and criticism.'],ger,1954,m,770518m19549999gw       b    00100 gersc,1
97,145,University of Wisconsin - Madison,007090956,wu.89032287567,https://hdl.handle.net/2027/wu.89032287567,ic,20200629,2,Limited (search-only),007090956,"Klemperer, Victor, 1881-1960",Geschichte der französischen Literatur im 18. Jahrhundert.,1954-,['French literature 18th century History and criticism.'],ger,1954,m,770518m19549999gw       b    00100 gersc,2
98,169,University of California,006691998,uc1.b3636425,https://hdl.handle.net/2027/uc1.b3636425,ic,20130806,v.1,Limited (search-only),006691998,,Briefe an Goethe /,1982.,"['Goethe, Johann Wolfgang von, 1749-1832 Correspondence.', 'Authors, German 19th century Correspondence.', 'Authors, German 18th century Correspondence.']",ger,1982,m,060831s1982    gw       b    001 0cger c,v.1
99,170,University of California,006691998,uc1.b3636426,https://hdl.handle.net/2027/uc1.b3636426,ic,20170831,v.2,Limited (search-only),006691998,,Briefe an Goethe /,1982.,"['Goethe, Johann Wolfgang von, 1749-1832 Correspondence.', 'Authors, German 19th century Correspondence.', 'Authors, German 18th century Correspondence.']",ger,1982,m,060831s1982    gw       b    001 0cger c,v.2
100,171,University of Virginia,101983105,uva.x004125496,https://hdl.handle.net/2027/uva.x004125496,ic,20201223,Bd.3,Limited (search-only),101983105,"Liszt, Franz, 1811-1886.",Die Goethe-Stiftung /,c1997.,"['Goethe, Johann Wolfgang von, 1749-1832.']",ger,1997,m,970717s1997    gw a          000 0 ger d,v.3
101,174,University of Virginia,101938636,uva.x002184034,https://hdl.handle.net/2027/uva.x002184034,ic,20201218,Jahrg.6-7 1989-90 Jahrg.6 19,Limited (search-only),101938636,,Die Französische Revolution : Philosophie und Wissenschaften /,c1990.,"['Enlightenment Congresses.', 'Philosophy, Modern 19th century Congresses.', 'Philosophy, Modern 18th century Congresses.', 'France History Revolution, 1789-1799 Influence Congresses.']",ger,1990,m,931130s1990    it       b    100 0 ger d,Jahrg.6-7 Year-90 Jahrg.6 19
102,175,University of Michigan,002642715,mdp.39015029576918,https://hdl.handle.net/2027/mdp.39015029576918,ic,20220110,v.2,Limited (search-only),002642715,,Aufklärungen.,1985-1986.,"['Enlightenment.', 'Germany Intellectual life 18th century.', 'France Intellectual life 18th century.']",ger,1985,m,930712m19851986gw a     b    000 0 ger  ,v.2
103,176,Northwestern University,010613059,ien.35556038481602,https://hdl.handle.net/2027/ien.35556038481602,ic,20220315,v.1,Limited (search-only),010613059,"International Kant Congress (10th : 2005 : São Paulo, Brazil)",Recht und Frieden in der Philosophie Kants : Akten des X. Internationalen Kant-Kongresses /,c2008.,"['Kant, Immanuel, 1724-1804 Congresses.', 'Enlightenment Germany Berlin Congresses.', 'Philosophy, German 18th century Congresses.', 'Berlin (Germany) Intellectual life Congresses.']",ger,2008,m,071207s2008    gw       b    100 0 ger c,v.1
104,177,Northwestern University,010613059,ien.35556038481610,https://hdl.handle.net/2027/ien.35556038481610,ic,20201116,v.2,Limited (search-only),010613059,"International Kant Congress (10th : 2005 : São Paulo, Brazil)",Recht und Frieden in der Philosophie Kants : Akten des X. Internationalen Kant-Kongresses /,c2008.,"['Kant, Immanuel, 1724-1804 Congresses.', 'Enlightenment Germany Berlin Congresses.', 'Philosophy, German 18th century Congresses.', 'Berlin (Germany) Intellectual life Congresses.']",ger,2008,m,071207s2008    gw       b    100 0 ger c,v.2
105,178,Northwestern University,010613059,ien.35556038481495,https://hdl.handle.net/2027/ien.35556038481495,ic,20201116,v.3,Limited (search-only),010613059,"International Kant Congress (10th : 2005 : São Paulo, Brazil)",Recht und Frieden in der Philosophie Kants : Akten des X. Internationalen Kant-Kongresses /,c2008.,"['Kant, Immanuel, 1724-1804 Congresses.', 'Enlightenment Germany Berlin Congresses.', 'Philosophy, German 18th century Congresses.', 'Berlin (Germany) Intellectual life Congresses.']",ger,2008,m,071207s2008    gw       b    100 0 ger c,v.3
106,179,Northwestern University,010613059,ien.35556038481503,https://hdl.handle.net/2027/ien.35556038481503,ic,20201116,v.4,Limited (search-only),010613059,"International Kant Congress (10th : 2005 : São Paulo, Brazil)",Recht und Frieden in der Philosophie Kants : Akten des X. Internationalen Kant-Kongresses /,c2008.,"['Kant, Immanuel, 1724-1804 Congresses.', 'Enlightenment Germany Berlin Congresses.', 'Philosophy, German 18th century Congresses.', 'Berlin (Germany) Intellectual life Congresses.']",ger,2008,m,071207s2008    gw       b    100 0 ger c,v.4
107,180,Northwestern University,010613059,ien.35556038481388,https://hdl.handle.net/2027/ien.35556038481388,ic,20201116,v.5,Limited (search-only),010613059,"International Kant Congress (10th : 2005 : São Paulo, Brazil)",Recht und Frieden in der Philosophie Kants : Akten des X. Internationalen Kant-Kongresses /,c2008.,"['Kant, Immanuel, 1724-1804 Congresses.', 'Enlightenment Germany Berlin Congresses.', 'Philosophy, German 18th century Congresses.', 'Berlin (Germany) Intellectual life Congresses.']",ger,2008,m,071207s2008    gw       b    100 0 ger c,v.5
108,183,University of Michigan,002031380,mdp.39015073190038,https://hdl.handle.net/2027/mdp.39015073190038,ic,20210924,pt.1,Limited (search-only),002031380,"Cartaud de la Vilate, François, 1700 (ca.)-1737.",Cartaud de la Villate ; ein Beitrag zur Entstehung des geschichtlichen Weltbildes in der französischen Frühaufklärung /,1960.,"['Cartaud de la Vilate, François, (1710-1737) Appréciation 18e siècle. ram', '1700-1799 fast', 'Intellectual life. fast (OCoLC)fst00975769', 'Enlightenment. fast (OCoLC)fst00912527', 'Enlightenment France.', 'France. fast (OCoLC)fst01204289', 'France Vie intellectuelle 18e siècle. ram', 'France Intellectual life 18th century.']",ger,1960,m,780405s1960    gw a     b    001 0 ger  ,pv.1
109,184,University of Michigan,002031380,mdp.39015073190020,https://hdl.handle.net/2027/mdp.39015073190020,ic,20210921,pt.2,Limited (search-only),002031380,"Cartaud de la Vilate, François, 1700 (ca.)-1737.",Cartaud de la Villate ; ein Beitrag zur Entstehung des geschichtlichen Weltbildes in der französischen Frühaufklärung /,1960.,"['Cartaud de la Vilate, François, (1710-1737) Appréciation 18e siècle. ram', '1700-1799 fast', 'Intellectual life. fast (OCoLC)fst00975769', 'Enlightenment. fast (OCoLC)fst00912527', 'Enlightenment France.', 'France. fast (OCoLC)fst01204289', 'France Vie intellectuelle 18e siècle. ram', 'France Intellectual life 18th century.']",ger,1960,m,780405s1960    gw a     b    001 0 ger  ,pv.2
