,record_id,author,title,pubyear,subjects,lang,pubyear_clean,ldr,marc_008
23,005664278,,Enlightenment and tradition : women's studies : Montesquieu.,2007.,"['Montesquieu, Charles de Secondat, baron de, 1689-1755.', 'Enlightenment France.', 'Philosophy, French 18th century.', 'French literature 18th century History and criticism.', 'France History 18th century.', 'France Social conditions 18th century.']",eng,2007,m,070725s2007    enka     b    000 0 eng  
52,003296101,,The Darnton debate : books and revolution in the eighteenth century /,1998.,"['Darnton, Robert Criticism and interpretation.', 'Publishers and publishing Europe History and criticism.', 'Enlightenment Europe History and criticism.', 'French literature 18th century History and criticism.', 'France History Revolution, 1789-1799.']",eng,1998,m,980914s1998    enk      b    001 0 eng d
55,101938795,"Colloque de Montréal (1989 : Montréal, Québec)","Jean-Jacques Rousseau et la Révolution : actes du Colloque de Montréal, 25-28 mai 1989 /",1991.,"['Rousseau, Jean-Jacques, 1712-1778 Political and social views Congresses.', 'Philosophers France Congresses.', 'Authors, French 18th century Congresses.', 'France History Revolution, 1799-1799 Congresses.']",eng,1991,m,930910s1991    onca     b    100 0 eng d
56,003879634,,The faces of nature in Enlightenment Europe /,c2003.,"['Philosophy of nature History 18th century.', 'Enlightenment Europe.', 'Europe Intellectual life 18th century.']",eng,2003,m,040112s2003    gw ab    b    000 0 eng d
206,004244416,,"Reconceptualizing nature, science, and aesthetics : Contribution a ̀une nouvelle approche des Lumières helvet́iques /",1998.,"['Enlightenment Switzerland 18th century Congresses.', 'Switzerland Intellectual life 18th century Congresses.']",eng,1998,m,030121s1998    sz a     b    100 0 eng d
300,003150837,International Congress on the Enlightenment (9th : 1995 : Münster),"Transactions of the Ninth International Congress on the Enlightenment, [Münster, 23-29 July 1995]",c1996.,"['Enlightenment Congresses.', 'Europe Intellectual life 18th century Congresses.']",eng,1996,m,970602s1996    enk      b    100 0 eng d
332,101927815,,Jan Potocki & the writers of Enlightenment.,1990.,"['Potocki, Jan, hrabia, 1761-1815 Criticism and interpretation.', 'Polish literature 18th century History and criticism.']",eng,1990,m,910822s1990    pl       b    0000  eng c
370,003607911,,French social history ; Games in the eighteenth century ; Happiness in Duclos and Rousseau /,2000.,"['1700-1799 fast', 'Manners and customs. fast (OCoLC)fst01007815', 'Games in literature. fast (OCoLC)fst00937574', 'Games. fast (OCoLC)fst00937529', 'French literature. fast (OCoLC)fst00934688', 'European literature. fast (OCoLC)fst00916751', 'Civilization, Modern. fast (OCoLC)fst00863073', 'Civilization. fast (OCoLC)fst00862898', 'Civilization, Modern 18th century.', 'European literature 18th century History and criticism.', 'French literature 18th century History and criticism.', 'Games in literature.', 'Games France History 18th century.', 'France. fast (OCoLC)fst01204289', 'France Social life and customs 18th century.', 'France Civilization 18th century.', 'French cultural history XVIIIth century', 'History. fast (OCoLC)fst01411628', 'Criticism, interpretation, etc. fast (OCoLC)fst01411635']",eng,2000,m,000905s2000    enka     b    000 0 eng d
371,001202295,"Picard, Raymond, 1917-1975.",Two centuries of French literature;,1970.,"['French literature 18th century History and criticism.', 'French literature 17th century History and criticism.']",eng,1970,m,890623s1970    enkac    b    00100 eng d
376,102827486,"Rousseau, Jean-Jacques, 1712-1778.","The Confessions of Jean-Jacques Rousseau,",1923.,"['Rousseau, Jean-Jacques, 1712-1778.', 'Autobiography.', 'Philosophers France Biography.', 'Authors, French 18th century Biography.']",eng,1923,m,720622s1923    nyu           000 0aeng d
431,005144023,,Social history ; Morellet ; Social anthropology ; History of the book /,2005.,"['Books France History 18th century.', 'French literature 18th century History and criticism.', 'France Intellectual life 18th century.', 'France Social life and customs 18th century.']",eng,2005,m,060123s2005    enka          000 0 eng  
541,001030308,"Ancelet-Hustache, Jeanne.",Goethe /,1960.,"['Goethe, Johann Wolfgang von, 1749-1832 Biography.', 'Authors, German 18th century Biography.']",eng,1960,m,890208s1960    nyuach        00000beng e
555,003531952,"Bird, Stephen, 1969-",Reinventing Voltaire : the politics of commemoration in nineteenth-century France /,2000,"['Voltaire, 1694-1778 Criticism and interpretation', 'Voltaire, 1694-1778 Public opinion', 'Voltaire, 1694-1778 Appreciation']",eng,2000,m,001026s2000    enk           001 0 eng d
557,008983406,,Adamantios Korais and the European enlightenment /,2010.,"['Koraēs, Adamantios. swd', 'Koraēs, Adamantios, 1748-1833 Criticism and interpretation.', 'Aufklärung. swd', 'Enlightenment Greece.', 'Europa. swd', 'Greece Politics and government 1453-1821.', 'Greece Social conditions 18th century.', 'Greece Intellectual life 1453-1821.']",eng,2010,m,100908s2010    enka     b    001 0 eng  
583,001201670,"Finch, Robert, 1900-1995.",French individualist poetry 1686-1760; an anthology,[1971],['French poetry 18th century'],eng,1971,m,890623s1971    onc      b    00010 eng d
584,005696267,"McClain, William H.",Goethe as a factor in Romain Rolland's development as social thinker /,1943.,"['Goethe, Johann Wolfgang von, 1749-1832 Influence.', 'Rolland, Romain, 1866-1944 Criticism and interpretation.', 'Dissertations, Academic German.', 'Dissertations, Academic French.']",eng,1943,m,030918s1943    xx       bm   000 0 eng d
606,000017108,,Studies in eighteenth-century literature /,1974.,"['Literature, Modern 18th century History and criticism']",eng,1974,m,880715s1974    hu       b    00100 eng  
613,001370640,"Beljame, A. (Alexandre), 1843?-1906.","Men of letters and the English public in the eighteenth century, 1660- 1744: Dryden, Addison and Pope.",1948.,"['Pope, Alexander, 1688-1744.', 'Addison, Joseph, 1672-1719.', 'Dryden, John, 1631-1700.', 'English literature 18th century History and criticism.']",eng,1948,m,890828s1948    enk      b    00000ceng x
620,004767577,,Correspondence ; : Images of the eighteenth century ; Polemic ; Style and aesthetics.,2004.,"['Voltaire, 1694-1778. Correspondence.', 'Morellet, André, 1727-1819 Correspondence.', 'Arts, French 18th century.', 'Enlightenment France.', 'France Intellectual life 18th century.', 'Literary studies 18th century']",eng,2004,m,040727s2004    enk      b    000 0 eng d
658,000413035,"Voltaire, 1694-1778.",Letters concerning the English nation.,[1974],"['English literature 18th century History and criticism.', 'Great Britain Religion', 'Great Britain Intellectual life 18th century']",eng,1974,m,880718r19741926nyu           00100 eng  
662,000382784,"Girard, Jacques.",Versailles gardens : sculpture and mythology /,c1985.,"['Gardens France Versailles.', 'Outdoor sculpture France Versailles.', 'Mythology, Classical, in art', 'Sculpture, French 18th century.', 'Sculpture, French 17th century.', 'Sculpture, French']",eng,1985,m,880907s1985    nyua     b    00010 eng  
689,010072815,"David Nichol Smith Memorial Seminar (3rd : 1973 : Canberra, A.C.T.)","Studies in the eighteenth century, III; papers.",1976.,"['Eighteenth century.', 'English literature 18th century History and criticism.']",eng,1973,m,981102s1973                  000 0 eng  
698,003250138,"Hockman, Kenneth C.",The differential calculus as the model of desire in French fiction of the seventeenth and eighteenth centuries /,c1997.,"['Desire in literature.', 'French fiction 18th century History and criticism.', 'French fiction 17th century History and criticism.']",eng,1997,m,980330s1997    nyua     b    000 0 eng  
703,001014554,"Atkinson, Geoffroy, 1892-1960.","The extraordinary voyage in French literature from 1700 to 1720,",1922.,"['Exoticism in literature.', 'Voyages, Imaginary.', 'French fiction 18th century History and criticism.']",eng,1922,m,790105s1922    fr       b    00010 eng  
760,001602314,"Jackman, S. W. (Sydney Wayne), 1925-2011.","Romanov relations : the private correspondence of Tsars Alexander I, Nicholas I and the Grand Dukes Constantine and Michael with their sister Queen Anna Pavlovna, 1817-1855; /",1969.,"['Romanov, House of.', 'Europe History 1815-1871 Sources.', 'Russia History 1801-1917 Sources.']",eng,1969,m,891207s1969    enkacfj       00110 eng d
772,001658525,"Forkey, Leo Orville, 1914-1979.",The role of money in French comedy during the reign of Louis XIV.,1947.,"['French drama 18th century History and criticism.', 'French drama 17th century History and criticism.', 'France Social life and customs.', 'France Economic conditions.']",eng,1947,m,881019s1947    mdu           00100 eng  
780,000030298,,Literature and history in the age of ideas : essays on the French Enlightenment presented to George R. Havens /,[1975],"['Havens, George R. (George Remington), 1890-1977 Bibliography.', 'Enlightenment.', 'French literature 18th century.', 'France Intellectual life.']",eng,1975,m,880715s1975    ohu      b    011 0 engs 
818,003003663,,Femmes savantes et femmes d'esprit : women intellectuals of the French eighteenth century /,c1994.,"['Women France Intellectual life.', 'Women intellectuals France History 18th century.', 'Women and literature France History 18th century.', 'French literature 18th century History and criticism.', 'French literature Women authors History and criticism.', 'France Intellectual life 18th century.']",eng,1994,m,951106s1994    nyua     b    000 0 eng  
836,003792063,,"Correspondence and epistolary fiction, La fête, Science and medicine, Voltaire.",2002.,"[""Grafigny, Mme de (Françoise d'Issembourg d'Happoncourt), 1695-1758."", 'Epistolary fiction, French History and criticism.', 'France History 18th century.']",eng,2002,m,021021s2002    enk      b    000 0 eng  
865,001290818,"Shackleton, Robert.",Essays on Montesquieu and on the Enlightenment /,1988.,"['Montesquieu, Charles de Secondat, baron de, 1689-1755.', 'Enlightenment.', 'France Intellectual life 18th century.']",eng,1988,m,890703r19881949enkb     b    00010 eng c
869,007131020,,"The Eighteenth century art of France and England : April 27 through May 31, 1950, the Montreal Museum of Fine Arts = L'art en France et en Angleterre au dix-huitième siècle : du 27 avril au 31 mai 1950, le Musée des beaux-arts de Montréal",[1951],"['Art, Modern 18th century Exhibitions', 'Art, French Exhibitions', 'Art, English Exhibitions']",eng,1951,m,870226s1951    xxca     c    000 0 eng  
908,000888802,Canadian Society for Eighteenth-Century Studies.,Man and nature : proceedings of the Canadian Society for Eighteenth-Century Studies.,1982-,"['Literature, Modern 18th century Congresses.', 'Civilization, Modern 18th century Congresses.', 'Eighteenth century Congresses.', 'Civilization, Modern 18th century Periodicals.']",eng,1982,s,850618c19829999oncar4    b   0uuua0eng d
916,002875153,,Lectures de La Nouvelle Héloïse /,1993.,"['Rousseau, Jean-Jacques, 1712-1778 Criticism and interpretation.', 'Rousseau, Jean-Jacques, 1712-1778. Nouvelle Héloïse.']",eng,1993,m,940909s1993    onc      b    000 0 eng d
923,000736099,"International Congress on the Enlightenment. 4th, Yale University, 1975.",Transactions of the Fourth international congress on the Enlightenment.,1976.,"['Voltaire, 1694-1778.', 'Philosophy, Modern 18th century Congresses.', 'Enlightenment Congresses']",eng,1976,m,880718s1976    enk           10000 eng d
929,003842052,,Voltaire ; Diderot ; Demography ; Women's studies ; Poètes et versificateurs ; The influence of the Enlightenment.,2003.,"['Diderot, Denis, 1713-1784 Criticism and interpretation.', 'Enlightenment France.', 'Women France History 18th century.', 'French literature 18th century History and criticism.', 'France Population History 18th century.']",eng,2003,m,030519s2003    enk      b    000 0 eng  
997,001674641,,The Age of the enlightenment: studies presented to Theodore Besterman;,1967,"['Besterman, Theodore, 1904- Bibliography', 'Voltaire, 1694-1778.', 'Philosophy, French 18th century.', 'Enlightenment.']",eng,1967,m,010205s1967    stkab    b    01000 engm 
1015,005041279,,"Le Plus beau païs du monde : completing the picture of proprietary Louisiana, 1699-1722 /",2005.,"['French Louisiana History.', 'Louisiana Social life and customs 18th century.', 'Louisiana Description and travel Early works to 1800.', 'Louisiana History To 1803.']",eng,2005,m,050725s2005    lauab    b    001 0 eng d
1031,001014930,"Voltaire, 1694-1778.",Letters concerning the English language.,1926.,"['English literature 18th century History and criticism', 'Great Britain Religion', 'Great Britain Intellectual life']",eng,1926,m,890208s1926    enk           00000 eng e
1056,003900910,,André Morellet : texts and contexts /,2003.,"['Morellet, André, 1727-1819.', 'Encyclopedists.', 'Enlightenment France.', 'Paris (France) Intellectual life 18th century.']",eng,2003,m,040524s2003    enkch    b    001 0deng c
1063,006054758,David Nichol Smith Memorial Seminar (3d : 1973 : Canberra).,"Studies in the eighteenth century, III : papers presented at the Third David Nichol Smith Memorial Seminar, Canberra, 1973 /",1976.,"['Eighteenth century.', 'English literature 18th century History and criticism.']",eng,1976,m,760720s1976    oncaf    b    10110 eng  
1069,005591746,,Narrating the self in early modern Europe /,c2007.,"['European literature History and criticism Congresses.', 'French literature 18th century History and criticism Congresses.', 'French literature 17th century History and criticism Congresses.', 'French literature 16th century History and criticism Congresses.', 'Self in literature Congresses.', 'Littérature européenne Histoire et critique.', 'Littérature française 18e siècle Histoire et critique.', 'Littérature française 17e siècle Histoire et critique.', 'Littérature française 16e siècle Histoire et critique.', 'Moi (Psychologie) dans la littérature.']",eng,2007,m,070727s2007    enk      b    101 0 eng d
1078,003900944,,History of the book. Translation. History of ideas. Paul et Virginie. Varia.,2003.,"['Saint-Pierre, Bernardin de, 1737-1814. Paul et Virginie.', 'Translations.', 'Publishers and publishing History 18th century.', 'Books and reading Europe History 18th century.', 'Enlightenment Europe.', 'Europe Intellectual life 18th century.']",eng,2003,m,040524s2003    enka     b    000 0 eng c
1079,001833558,"International Congress on the Enlightenment (7th : 1987 : Budapest, Hungary)",Transactions of the Seventh International Congress on the Enlightenment.,1989.,"['Voltaire, 1694-1778 Congresses.', 'Enlightenment Congresses', 'Europe Civilization 18th century Congresses.']",eng,1989,m,900312s1989    enkaf    b    00010 eng d
1095,004070619,"Vartanian, Aram, 1922-",Science and humanism in the French enlightenment /,c1999.,"['Diderot, Denis, 1713-1784.', 'La Mettrie, Julien Offray de, 1709-1751.', 'Fontenelle, M. de (Bernard Le Bovier), 1657-1757.', 'Science and the humanities France.', 'Enlightenment France.']",eng,1999,m,000515s1999    vau      b    001 0deng  
1110,004455070,,The Age of Enlightenment : an anthology of eighteenth-century French literature /,1971.,"['Enlightenment.', 'French literature 18th century.', 'France Intellectual life.']",eng,1971,m,940225s1971    nyu      b    00000deng d
1115,007710382,,Translating slavery /,©2009-©2010.,"['Duras, Claire de Durfort, duchesse de, 1777-1828 Translations into English.', 'Duras, Claire de Durfort, duchesse de, 1777-1828. Ourika.', 'Translating and interpreting Philosophy.', 'French literature Translations into English History and criticism.', 'Sex role in literature.', 'Race in literature.', 'Slavery in literature.', 'French literature 18th century History and criticism.', 'French literature 19th century History and criticism.', 'French literature Women authors History and criticism.']",eng,2009,m,090527m20092010ohu######b###s001#0#eng##
1124,102324585,"Voltaire, 1694-1778.","Candide; or, Optimism /",1947.,"['Satire, French Early works to 1800.', 'French fiction 18th century Translations into English.', 'France Politics and government Satire 18th century.', 'Satirical literature. lcgft']",eng,1947,m,800204s1947    enk           00001 eng d
1127,004736594,,"Enlightenment, revolution and the periodical press /",2004.,"['Enlightenment.', 'Periodicals History 18th century.', 'Literature and revolutions Europe History 18th century.', 'Press and politics Europe History 18th century.', 'Europe Civilization 18th century.']",eng,2004,m,040629s2004    enkab    b    001 e eng d
1154,002548015,,Eighteenth-century fiction.,1988-,['Fiction 18th century History and criticism Periodicals.'],eng,1988,s,920710c19889999oncqr p       0   a0eng d
1167,000805765,,Voltaire and his world : studies presented to W.H. Barber /,1985.,"['Barber, W. H. (William Henry)', 'Voltaire, 1694-1778 Criticism and interpretation.', 'France Intellectual life 18th century']",eng,1985,m,880907s1985    enkacf   b    01000 eng d
1230,003508544,,"Littérature féminine, Rousseau, Voltaire, théâtre /",2000.,"['Rousseau, Jean-Jacques, 1712-1778 Criticism and interpretation.', 'Voltaire, 1694-1778 Criticism and interpretation.', 'Women in literature.', 'French literature 18th century History and criticism.']",eng,2000,m,001016s2000    enkfh    b    000 0 eng  
1253,007283169,"Colatrella, Carol.","Evolution, sacrifice, and narrative : Balzac, Zola, and Faulkner /",1990.,"['Darwin, Charles, 1809-1882 Influence.', 'Faulkner, William, 1897-1962 Knowledge Science.', 'Zola, Emile, 1840-1902 Knowledge Science.', 'Balzac, Honoré de, 1799-1850 Knowledge Science.', 'Narration (Rhetoric)', 'Sacrifice in literature.', 'Evolution in literature.', 'Naturalism in literature.', 'Literature, Comparative American and French.', 'Literature, Comparative French and American.', 'Literature and science France History 19th century.', 'French fiction 19th century History and criticism.']",eng,1990,m,900628s1990    nyu      b    00010 eng  
1336,004063340,,The Mémoires secrets and the culture of publicity in eighteenth-century France /,1998.,"[""Mémoires secrets pour servir a l'histoire de la republique des lettres en France."", 'French literature 18th century History and criticism Sources.', 'France Civilization 18th century Sources.']",eng,1998,m,000622s1998    enk      b    001 0 eng d
1337,002467833,,"Voltaire, the Enlightenment, and the comic mode : essays in honor of Jean Sareil /",c1990.,"['Sareil, Jean.', 'Voltaire, 1694-1778 Criticism and interpretation.', 'Enlightenment.', 'Comic, The, in literature.', 'Literature, Modern French influences.', 'French literature 18th century History and criticism.']",eng,1990,m,910913s1990    nyucf    b    01000 eng  
1347,003079114,,Lumen : selected proceedings from the Canadian Society for Eighteenth-Century Studies = Travaux choisis de la Société canadienne d'étude du dix-huitième siècle.,1993-,"['Literature, Modern 18th century Congresses.', 'Civilization, Modern 18th century Congresses.', 'Eighteenth century Congresses.']",eng,1993,s,960822c19939999abcar     b   1    0eng d
1379,004294256,,"The eighteenth-century body : art, history, literature, medicine /",c2002.,"['Human body Symbolic aspects History 18th century Congresses.', 'Human body Social aspects History 18th century Congresses.', 'Arts, Modern 18th century Congresses.', 'Human body in literature Congresses.', 'Human figure in art Congresses.']",eng,2002,m,030121s2002    enka     b    101 0 eng  
1385,005144822,,The eighteenth century now : boundaries and perspectives /,2005.,"['Enlightenment France.', 'French literature 18th century History and criticism.', 'France Civilization 18th century.', 'France Intellectual life 18th century.']",eng,2005,m,051025s2005    enkah    b    001 0 eng d
1387,001836556,,Continuum.,c1989-,"['French literature 18th century History and criticism Periodicals.', 'French literature 17th century History and criticism Periodicals.', 'French literature 16th century History and criticism Periodicals.']",eng,1989,s,900319c19899999nyuar1p       0uuua0eng d
1390,000040347,"Grieder, Josephine.",Translations of French sentimental prose fiction in late eighteenth-century England : the history of a literary vogue /,1975.,['French fiction 18th century Translations into English History and criticism.'],eng,1975,m,880715s1975    ncu      b    00110 eng  
1418,006740595,"Vincent, Rose.",Empire of dust : Jeanne Dupleix and her times /,[1991],"['Dupleix, Jeanne, marquise, 1706-1756 Fiction.', 'India History 18th century Fiction.']",eng,1991,m,930821s1991    ii b          000 1 eng  
1437,000252644,,Essays on the Age of Enlightenment in honor of Ira O. Wade /,1977.,"['Wade, Ira O., 1896-1983.', 'Enlightenment.', 'French literature 18th century History and criticism', 'France Intellectual life']",eng,1977,m,880718s1977    sz c     b    01000 eng  
1451,001202839,"Moore, Alexander Parks, 1890-",The genre poissard and the French stage of the eighteenth century /,c1935.,"['Realism in literature.', 'Working class in literature.', 'French language Slang.', 'French drama 18th century History and criticism.']",eng,1935,m,881123s1935    nyuf     b    00010 engmc
1490,003114712,,Word and image /,c1994.,"['French literature 18th century History and criticism.', 'French literature 17th century History and criticism.', 'French literature 16th century History and criticism.']",eng,1994,m,970211s1994    vau      b    001 0 eng d
1499,003076136,"North American Society for Seventeenth-Century French Literature. Conference (25th : 1993 : Lexington, Ky.)","Actes de Lexington : actes du XXVe colloque de la North American Society for Seventeenth-Century French Literature, Lexington, Kentucky, 25-27 mars 1993 /",1995.,"['Saint-Simon, Louis de Rouvroy, duc de, 1675-1755. Mémoires Congresses.', 'Charron, Pierre, 1541-1603 Congresses.', 'Death in literature.', 'French drama 17th century History and criticism Congresses.', 'French literature 17th century History and criticism Congresses.']",eng,1995,m,960806s1995    fr a     b    100 0 eng  
1501,001202995,"Stewart, Philip.","Imitation and illusion in the French memoir-novel, 1700-1750; the art of make-believe.",1969.,['French fiction 18th century History and criticism.'],eng,1969,m,691211s1969    ctu      b    001 0 eng  
1513,000705451,"Rolland, Romain, 1866-1944.",Goethe and Beethoven.,1968.,"['Arnim, Bettina von, 1785-1859.', 'Goethe, Johann Wolfgang von, 1749-1832 Knowledge Music.', 'Goethe, Johann Wolfgang von, 1749-1832 Contemporaries.', 'Beethoven, Ludwig van, 1770-1827.']",eng,1968,m,700326r19681931nyuacfh       000 0ceng  
1517,007975189,,Epicurus in the Enlightenment /,2009.,"['Epicurus Influence.', 'Intellectual life History 18th century.', 'Epicureans (Greek philosophy)', 'Enlightenment.']",eng,2009,m,091202s2009    enk      b    001 0 eng c
1554,003025619,,André Morellet (1727-1819) in the Republic of Letters and the French Revolution /,c1995.,"['Morellet, André, 1727-1819 Friends and associates.', 'Encyclopedists.', 'Enlightenment France.', 'Paris (France) Intellectual life 18th century.', 'France History Revolution, 1789-1799.']",eng,1995,m,960215s1995    nyua     b    001 0aeng  
1563,000683200,"Peyre, Henri, 1901-1988.",What is romanticism? /,c1977.,"['Romanticism', 'French literature 19th century History and criticism.', 'French literature 18th century History and criticism.']",eng,1976,m,880718s1976    alu      b    00110 eng  
1569,007676233,"Voltaire, 1694-1778.","Letters concerning the English nation,",1759.,"['English literature 18th century History and criticism.', 'Great Britain Religion.', 'Great Britain Intellectual life.']",eng,1759,m,781129s1759    stk           001 0 eng d
1574,003900909,"Darlow, Mark.",Nicolas-Etienne Framery and lyric theatre in eighteenth-century France /,2003.,"['Framery, Nicolas Etienne, 1745-1810 Criticism and interpretation.', 'Opéra comique.', 'Theater France History 18th century.', 'Librettists France Biography.']",eng,2000,m,040524s2000    enkg     b    001 0 eng d
1579,007568299,International Congress on the Enlightenment.,Transactions of the ... International Congress on the Enlightenment.,1963-,"['Voltaire, 1694-1778 Congresses.', 'Civilization, Modern 18th century Periodicals.', 'Eighteenth century Congresses.', 'Enlightenment Congresses.']",eng,1963,s,880728u1963uuuuenkzr         1    0eng  
1609,002698552,,European Shakespeares : translating Shakespeare in the Romantic Age /,1993.,"['Shakespeare, William, 1564-1616 Appreciation Europe Congresses.', 'Shakespeare, William, 1564-1616 Stage history Europe Congresses.', 'Shakespeare, William, 1564-1616 Translations History and criticism Congresses.', 'Romanticism Europe Congresses.', 'English language Translating Congresses.', 'Translating and interpreting Europe History 19th century Congresses.', 'Translating and interpreting Europe History 18th century Congresses.']",eng,1993,m,930819s1993    pau      b    101 0 eng  
1666,102022448,,Voltaire ; Religion and ideology ; Women's studies ; History of the book ; Passion in the eighteenth century.,2001.,"['Voltaire, 1694-1778.', 'Women France History 18th century.', 'Religion in literature France History 18th century.', 'Religion and literature France History 18th century.', 'France Social life and customs 18th century.']",eng,2001,m,020130s2001    enkac         000 0 eng  
1749,005411584,,Diderot and European culture /,2006.,"['Diderot, Denis, 1713-1784 Influence.', 'French literature 18th century History and criticism.', 'Europe Civilization 18th century.']",eng,2006,m,061101s2006    enka     b    001 0 eng d
1765,001290634,,Enlightenment essays in memory of Robert Shackleton /,1988.,"['Shackleton, Robert.', 'Enlightenment.', 'France Intellectual life 18th century.']",eng,1988,m,890703s1988    enkaf    b    01000 eng c
1769,001202411,,Studies in eighteenth-century French literature : presented to Robert Niklaus /,1975.,"['Niklaus, Robert, 1910-', 'French literature 18th century History and criticism.']",eng,1975,m,890623s1975    enkcf    b    01000 eng d
1772,005290283,,Medievalism and manière gothique in Enlightenment France /,2006.,"['French literature 18th century History and criticism.', 'Medievalism.']",eng,2006,m,060619s2006    enkah    b    001 0 eng d
1791,005057582,,The king's crown : essays on XVIIIth century culture and literature honoring Basil Guy = To tou vasileōs stephanōma /,2005.,['French literature 18th century History and criticism.'],eng,2005,m,030411s2005    be a     b    010 0 eng  
1862,002430511,,"Le Triomphe de Marivaux : a colloquium commemorating the tricentenary of the birth of Marivaux, 1688-1988 /",1989.,"['Greene, E. J. H. (Edward Joseph Hollingsworth), 1913-', 'Marivaux, Pierre Carlet de Chamblain de, 1688-1763 Criticism and interpretation Congresses.']",eng,1989,m,910415s1989    abc      b    11000 eng d
1882,007125042,"Mornet, Daniel, 1878-1954.",French thought in the eighteenth century.,1969 [c1929],"['French literature 18th century History and criticism.', 'Enlightenment.', 'France Intellectual life.']",eng,1969,m,700114c19691929ctu      b    000 0 eng  
1883,004376739,,The city in French writing : the eighteenth-century experience = Ecrire la ville au dix-huitième siècle /,2004.,"['Cities and towns in literature.', 'City and town life in literature.', 'French literature 18th century History and criticism.']",eng,2004,m,040302s2004    ie b          001 0 eng d
1915,000718961,,"Studies in the French eighteenth century : presented to John Lough by colleagues, pupils, and friends /",1978.,"['Lough, John.', 'French literature 18th century History and criticism']",eng,1978,m,880718s1978    enka     b    01000 eng  
1961,004338929,,Ad Parnassum : a journal of eighteenth- and nineteenth-century instrumental music,c2003-,"['Instrumental music 19th century History and criticism Periodicals', 'Instrumental music 18th century History and criticism Periodicals']",eng,2003,s,030721c20039999it fr p       0    0eng d
2031,005019243,,The Lisbon earthquake of 1755 : representations and reactions /,2005.,"['Public opinion Europe.', 'Lisbon Earthquake, Portugal, 1755 Public opinion.', 'Lisbon (Portugal) In literature.', 'Literary studies Lisbon earthquake 18th century']",eng,2005,m,050317s2005    enka     b    001 0 eng  
2033,001196469,"Rolland, Romain, 1866-1944.",Goethe and Beethoven /,1931.,"['Beethoven, Ludwig van, 1770-1827.', 'Goethe, Johann Wolfgang von, 1749-1832 Music.', 'Goethe, Johann Wolfgang von, 1749-1832 Contemporaries.']",eng,1931,m,890623s1931    nyuacgh       00000 eng d
2058,003188492,,Altered writings [i.e. narratives] followed by Public space of the domestic sphere /,1997.,"['Space (Architecture) France.', 'Architecture, Domestic France.', 'French literature 18th century.', 'Women authors, French.', 'France Social life and customs 18th century.']",eng,1997,m,970828s1997    onca     b    000 0 eng d
2084,005928525,,Voltaire and the 1760s : essays for John Renwick /,2008.,"['Voltaire, 1694-1778 Criticism and interpretation.', 'France Intellectual life 18th century.']",eng,2008,m,081016s2008    enka     b    011 0 eng  
2098,011680830,"Berlioz, Hector, 1803-1869.","Lelio, oder, Die Rückkehr ins Leben : lyrisches Monodrama = Lelio, ou, Le retour à la vie : monodrama lyrique = Lelio, or, The return to life : Lyric monodrama, op. 14b /",[19--],"['Goethe, Johann Wolfgang von, 1749-1832 Musical settings.', 'Monologues with music (Chorus with orchestra) Scores.', 'Operas Scores.']",eng,1900,m,910826q19001970nyuopa   h     n 1  eng d
2224,007283091,,"EMF, studies in early modern France.",c1994-,"['Renaissance France Periodicals.', 'Enlightenment France Periodicals.', 'French literature 18th century History and criticism Periodicals.', 'French literature 17th century History and criticism Periodicals.', 'French literature 16th century History and criticism Periodicals.']",eng,1994,s,920803c19949999vauuu1        0   a0eng d
2228,001384502,,Essays on Diderot and the Enlightenment in honor of Otis Fellows /,1974.,"['Fellows, Otis, 1908-1993.', 'Diderot, Denis, 1713-1784.', 'Philosophy, French 18th century.', 'Enlightenment.']",eng,1974,m,890828s1974    sz f     b    01000ceng d
