,index,orig,fromRecord,htid,itemURL,rightsCode,lastUpdate,enumcron,usRightsString,record_id,author,title,pubyear,subjects,lang,pubyear_clean,ldr,marc_008,enumcron_clean
12,77,Harvard University,102736853,hvd.hnu6u3,https://hdl.handle.net/2027/hvd.hnu6u3,pdus,20200316,False,Full view,102736853,"Vermeil de Conchard, Paul Prosper, 1847-","Trois études sur Cabanis : d'après des documents inédits, le serment de Cabanis, le mariage de Cabanis, Cabanis homme politique /",1914.,"['Cabanis, P. J. G. (Pierre Jean Georges), 1757-1808.']",fre,1914,m,810528s1914    fr            000 0 fre d,False
78,402,University of Georgia,102878739,uga1.32108034178825,https://hdl.handle.net/2027/uga1.32108034178825,ic,20220718,False,Limited (search-only),102878739,"Philonenko, Alexis.",Commentaire de la Phénoménologie de Hegel : De la certitude sensible au savoir absolu /,2001.,"['Hegel, Georg Wilhelm Friedrich, 1770-1831. Phänomenologie des Geistes.', 'Phänomenologie des Geistes (Hegel, Georg Wilhelm Friedrich) fast (OCoLC)fst01356155', '1800-1899 fast', 'Truth. fast (OCoLC)fst01158235', 'Knowledge, Theory of. fast (OCoLC)fst00988194', 'Consciousness. fast (OCoLC)fst00875441', 'Consciousness', 'Consciousness.', 'Truth.', 'Knowledge, Theory of History 19th century.', 'Philosophy', 'History. fast (OCoLC)fst01411628']",fre,2001,m,010423s2001    fr       b    001 0 fre d,False
131,2530,Harvard University,102710744,hvd.hxg99k,https://hdl.handle.net/2027/hvd.hxg99k,pd,20200317,False,Full view,102710744,,La vraie conspiration dévoilée,1791.,"['Philosophy France History 18th century Sources.', 'France History Revolution, 1789-1799 Sources.']",fre,1791,m,890223s1791    xx            000 0 fre d,False
181,2678,University of California,102695250,uc1.c103085489,https://hdl.handle.net/2027/uc1.c103085489,ic,20200306,False,Limited (search-only),102695250,"Hennequin-Lecomte, Laure.",Le patriciat strasbourgeois (1789-1830) : destins croisés et voix intimes /,2012.,"['Turckheim family.', 'Dietrich family.', 'Social networks France Strasbourg History.', 'Elite (Social sciences) France Strasbourg History 18th century.', 'Elite (Social sciences) France Strasbourg History 19th century.', 'Strasbourg (France) Intellectual life History.', 'Strasbourg (France) Social life and customs History.', 'Strasbourg (France) History.']",fre,2011,m,120127s2011    fr a     bm   000 0 fre d,False
220,3131,University of California,102700916,uc1.l0068328475,https://hdl.handle.net/2027/uc1.l0068328475,ic,20211218,False,Limited (search-only),102700916,"Jette, Marie Henri.",France religieuse du XVIIIe [i.e. dix-huitième] siècle : de la Révolution et de l'Empire; perspectives.,1956.,"['France Intellectual life.', 'France Church history 18th century.']",fre,1956,m,800522s1956    fr       b    000 0 fre  ,False
259,3570,University of California,102845743,uc1.l0061227971,https://hdl.handle.net/2027/uc1.l0061227971,ic,20220429,False,Limited (search-only),102845743,"Blet, Pierre, 1918-2009.","Le clergé de France, Louis XIV et le Saint Siège de 1695 à 1715 /",1989.,"['Louis XIV, King of France, 1638-1715. fast (OCoLC)fst00054217', 'Louis XIV, King of France, 1638-1715.', 'Catholic Church. Assemblée générale du clergé de France. fast (OCoLC)fst00569804', 'Catholic Church. fast (OCoLC)fst00531720', 'Catholic Church Foreign relations France.', 'Catholic Church. Assemblée générale du clergé de France History.', 'Catholic Church France Clergy History.', 'Kirchengeschichte 1695-1715. swd', '1700-1799 fast', 'Geschichte 1695-1715.', 'Unigenitus (Clemens XI) gtt', 'Jansenisme. gtt', 'Pausdom. gtt', 'Geestelijkheid. gtt', 'Kerk en staat. gtt', 'Klerus. (DE-588)4031147-8 gnd', 'International relations. fast (OCoLC)fst00977053', 'Diplomatic relations. fast (OCoLC)fst01907412', 'Clergy. fast (OCoLC)fst00864014', 'Frankreich. swd', 'Frankreich. (DE-588)4018145-5 gnd', 'France. fast (OCoLC)fst01204289', 'France Church history 18th century.', 'France Foreign relations Catholic Church.', 'History. fast (OCoLC)fst01411628', 'Church history. fast (OCoLC)fst01411629']",fre,1989,m,900531s1989    vc       b    001 0 fre  ,False
307,3718,Getty Research Institute,102691616,gri.ark:/13960/t9579tv56,https://hdl.handle.net/2027/gri.ark:/13960/t9579tv56,pdus,20200130,False,Full view,102691616,,Mélanges et documents publiés a l'occasion du 2e centenaire de la mort de Mabillon.,1908.,"['Mabillon, Jean, 1632-1707.', 'France Church history 18th century.']",fre,1908,m,921026s1908    fr cf    b    000 0dfre d,False
335,3770,Boston College,102848710,bc.ark:/13960/s2d5jntr4nd,https://hdl.handle.net/2027/bc.ark:/13960/s2d5jntr4nd,pd,20220211,False,Full view,102848710,"Lamennais, Félicité Robert de, 1782-1854 author.",Réflexions sur l'état de l'église en France pendant le dix-huitième siècle : et sur sa situation actuelle : suivies de Mélanges religieux et pilosophiques /,MDCCCXIX [1819],"['Catholic Church. fast (OCoLC)fst00531720', 'Catholic Church France History 18th century.', 'Church and state. fast (OCoLC)fst00860509', 'Church and state France History 18th century.', 'France. fast (OCoLC)fst01204289']",fre,1819,m,831109s1819    fr            000 0 fre d,False
616,4348,Harvard University,102728595,hvd.hnw7al,https://hdl.handle.net/2027/hvd.hnw7al,pdus,20200317,False,Full view,102728595,"Potiguet, Franco̧is Albert, 1849-",Chateaubriand et l'hystérie. Chateaubriand l'anatomie de ses formes et ses amies; physiologie et pathologie sexuelles.,1912.,"['Chateaubriand, François-René, vicomte de, 1768-1848.']",fre,1912,m,931104s1912    fr            000 0 fre d,False
623,4362,University of Michigan,000556524,mdp.39015028732942,https://hdl.handle.net/2027/mdp.39015028732942,ic,20210910,False,Limited (search-only),000556524,"Guiton, Micheline.",Politique et personnalité : Chateaubriand /,1985.,"['Chateaubriand, François-René, vicomte de, 1768-1848 Political and social views.', 'Psychoanalysis and literature', 'Political psychology']",fre,1985,m,880718s1985    fr       b    00010 fre d,False
721,4559,University of California,006671469,uc1.b3543189,https://hdl.handle.net/2027/uc1.b3543189,ic,20190913,False,Limited (search-only),006671469,"Bérenger, Henry, 1867-1952.","Chateaubriand; héros de l'aventure romantique,",[c1931],"['Chateaubriand, François-René, vicomte de, 1768-1848.']",fre,1931,m,881222s1931    fr c     b    00010bfrem ,False
851,4782,University of California,000938831,uc1.b4421046,https://hdl.handle.net/2027/uc1.b4421046,ic,20200718,False,Limited (search-only),000938831,"Dagen, Jean.",L'histoire de l'esprit humain da,c1977.,"['Spirit.', 'Philosophy, French 18th century.']",fre,1977,m,780111s1977    fr       b    001 0 fre  ,False
929,4913,Harvard University,102720032,hvd.hnumi6,https://hdl.handle.net/2027/hvd.hnumi6,pdus,20200316,False,Full view,102720032,"Schopenhauer, Arthur, 1788-1860.","Schopenhauer et ses disciples, d'après ses conversations et sa correspondance.",1920.,"['Schopenhauer, Arthur, 1788-1860 Correspondence.', 'Philosophers Germany Correspondence.', 'Records and correspondence. fast (OCoLC)fst01423917']",fre,1920,m,801201s1920    fr            000 0 fre  ,False
930,4914,Harvard University,102729871,hvd.hntmzr,https://hdl.handle.net/2027/hvd.hntmzr,pdus,20200316,False,Full view,102729871,"Calas, Théophile.",Schopenhauer (pessimisme-athéisme)...,1909.,"['Schopenhauer, Arthur, 1788-1860.', 'Atheism.', 'Pessimism.']",fre,1909,m,931129s1909    fr            000 0 fre d,False
993,4999,University of Chicago,100868507,chi.43307100,https://hdl.handle.net/2027/chi.43307100,pdus,20220608,False,Full view,100868507,"Cruet, Jean, d. 1908.",La philosophie morale & sociale de Destutt de Tracy (1754-1836) ...,1909.,"['Destutt de Tracy, Antoine Louis Claude, comte, 1754-1836']",fre,1909,m,930116s1909    fr c          000 0 fre d,False
1155,5301,University of California,011358003,uc1.c107745817,https://hdl.handle.net/2027/uc1.c107745817,ic,20200306,False,Limited (search-only),011358003,"Hamon, Maurice, 1947-",Madame de La Ferté-Imbault : philosophe et femme d'affaires à la cour de Louis XV /,2011.,"['La Ferté-Imbault, Marie-Thérèse (Geoffrin) marquise de 1715-1791.', 'Nobility France Biography.', 'France Court and courtiers History 18th century.']",fre,2011,m,111130s2011    fr af    b    001 0bfre d,False
1248,311,The Ohio State University,000674398,osu.32435031379480,https://hdl.handle.net/2027/osu.32435031379480,ic,20220113,v.3,Limited (search-only),000674398,"Hazard, Paul, 1878-1944. http://id.loc.gov/authorities/names/n85822849.",La crise de la conscience européenne (1680-1715),[1935],"['Literature, Modern 18th century History and criticism. http://id.loc.gov/authorities/subjects/sh2009128811.', 'Philosophy, Modern History. http://id.loc.gov/authorities/subjects/sh2008109247.', 'Seventeenth century. http://id.loc.gov/authorities/subjects/sh85120427.', 'Eighteenth century. http://id.loc.gov/authorities/subjects/sh85041401.', 'Europe Intellectual life. http://id.loc.gov/authorities/subjects/sh85045726.']",fre,1935,m,741119s1935    fr cf         000 0 fre  ,v.3
1291,833,University of California,001226477,uc1.32106019427191,https://hdl.handle.net/2027/uc1.32106019427191,ic,20210724,v.1B 2002,Limited (search-only),001226477,"Voltaire, 1694-1778, author.",The complete works of Voltaire /,1968-<2022>,"['Corneille, Pierre, 1606-1684. fast (OCoLC)fst00040131', 'Corneille, Pierre, 1606-1684.', '1700-1799 fast', 'French literature. fast (OCoLC)fst00934688', 'Philosophy. fast (OCoLC)fst01060777', 'World history. fast (OCoLC)fst01181345', 'Philosophie Ouvrages avant 1800.', 'Histoire universelle Ouvrages avant 1800.', 'Littérature française 18e siècle.', 'Philosophy Early works to 1800.', 'World history Early works to 1800.', 'French literature 18th century.', 'Early works. fast (OCoLC)fst01411636']",fre,1968,m,690715m19689999sz a     b    001 0dfre  ,v.1B Year
1292,834,University of California,001226477,uc1.32106015861260,https://hdl.handle.net/2027/uc1.32106015861260,ic,20210814,v.1A 2001,Limited (search-only),001226477,"Voltaire, 1694-1778, author.",The complete works of Voltaire /,1968-<2022>,"['Corneille, Pierre, 1606-1684. fast (OCoLC)fst00040131', 'Corneille, Pierre, 1606-1684.', '1700-1799 fast', 'French literature. fast (OCoLC)fst00934688', 'Philosophy. fast (OCoLC)fst01060777', 'World history. fast (OCoLC)fst01181345', 'Philosophie Ouvrages avant 1800.', 'Histoire universelle Ouvrages avant 1800.', 'Littérature française 18e siècle.', 'Philosophy Early works to 1800.', 'World history Early works to 1800.', 'French literature 18th century.', 'Early works. fast (OCoLC)fst01411636']",fre,1968,m,690715m19689999sz a     b    001 0dfre  ,v.1A Year
1337,888,University of California,001226477,uc1.32106019427266,https://hdl.handle.net/2027/uc1.32106019427266,ic,20210814,v.20a 2003,Limited (search-only),001226477,"Voltaire, 1694-1778, author.",The complete works of Voltaire /,1968-<2022>,"['Corneille, Pierre, 1606-1684. fast (OCoLC)fst00040131', 'Corneille, Pierre, 1606-1684.', '1700-1799 fast', 'French literature. fast (OCoLC)fst00934688', 'Philosophy. fast (OCoLC)fst01060777', 'World history. fast (OCoLC)fst01181345', 'Philosophie Ouvrages avant 1800.', 'Histoire universelle Ouvrages avant 1800.', 'Littérature française 18e siècle.', 'Philosophy Early works to 1800.', 'World history Early works to 1800.', 'French literature 18th century.', 'Early works. fast (OCoLC)fst01411636']",fre,1968,m,690715m19689999sz a     b    001 0dfre  ,v.20a Year
1348,901,University of California,001226477,uc1.32106014213596,https://hdl.handle.net/2027/uc1.32106014213596,ic,20210814,v.30A 2003,Limited (search-only),001226477,"Voltaire, 1694-1778, author.",The complete works of Voltaire /,1968-<2022>,"['Corneille, Pierre, 1606-1684. fast (OCoLC)fst00040131', 'Corneille, Pierre, 1606-1684.', '1700-1799 fast', 'French literature. fast (OCoLC)fst00934688', 'Philosophy. fast (OCoLC)fst01060777', 'World history. fast (OCoLC)fst01181345', 'Philosophie Ouvrages avant 1800.', 'Histoire universelle Ouvrages avant 1800.', 'Littérature française 18e siècle.', 'Philosophy Early works to 1800.', 'World history Early works to 1800.', 'French literature 18th century.', 'Early works. fast (OCoLC)fst01411636']",fre,1968,m,690715m19689999sz a     b    001 0dfre  ,v.30A Year
1406,970,University of California,001226477,uc1.32106019427340,https://hdl.handle.net/2027/uc1.32106019427340,ic,20210814,v.62 1987,Limited (search-only),001226477,"Voltaire, 1694-1778, author.",The complete works of Voltaire /,1968-<2022>,"['Corneille, Pierre, 1606-1684. fast (OCoLC)fst00040131', 'Corneille, Pierre, 1606-1684.', '1700-1799 fast', 'French literature. fast (OCoLC)fst00934688', 'Philosophy. fast (OCoLC)fst01060777', 'World history. fast (OCoLC)fst01181345', 'Philosophie Ouvrages avant 1800.', 'Histoire universelle Ouvrages avant 1800.', 'Littérature française 18e siècle.', 'Philosophy Early works to 1800.', 'World history Early works to 1800.', 'French literature 18th century.', 'Early works. fast (OCoLC)fst01411636']",fre,1968,m,690715m19689999sz a     b    001 0dfre  ,v.62 Year
1438,1008,University of California,001226477,uc1.32106017904365,https://hdl.handle.net/2027/uc1.32106017904365,ic,20210722,v.74B 2006,Limited (search-only),001226477,"Voltaire, 1694-1778, author.",The complete works of Voltaire /,1968-<2022>,"['Corneille, Pierre, 1606-1684. fast (OCoLC)fst00040131', 'Corneille, Pierre, 1606-1684.', '1700-1799 fast', 'French literature. fast (OCoLC)fst00934688', 'Philosophy. fast (OCoLC)fst01060777', 'World history. fast (OCoLC)fst01181345', 'Philosophie Ouvrages avant 1800.', 'Histoire universelle Ouvrages avant 1800.', 'Littérature française 18e siècle.', 'Philosophy Early works to 1800.', 'World history Early works to 1800.', 'French literature 18th century.', 'Early works. fast (OCoLC)fst01411636']",fre,1968,m,690715m19689999sz a     b    001 0dfre  ,v.74B Year
1615,2633,Harvard University,008670708,hvd.hx32kc,https://hdl.handle.net/2027/hvd.hx32kc,pd,20200317,v.1-2,Full view,008670708,"Hessen, Caroline von, 1721-1774.","Briefwechsel der ""Grossen Landgräfin"" Caroline von Hessen : Dreissig Jahre eines fürstlichen Frauenlebens /",1877.,"['Germany History 18th century.', 'Darmstadt (Germany) Intellectual life.', 'Germany Intellectual life 18th century.']",fre,1877,m,830531s1877    au            001 0afre d,v.1-2
1808,3210,University of California,001202081,uc1.b3545469,https://hdl.handle.net/2027/uc1.b3545469,pd,20210218,v.2 cop.2,Full view,001202081,"Grimm, Friedrich Melchior, Freiherr von, 1723-1807.","Correspondance littéraire, philosophique et critique de Grimm et de Diderot, depuis 1753 jusqu'en 1790.",1829-31.,"['Encyclopedists.', 'French literature 18th century History and criticism.', 'France Intellectual life.']",fre,1829,m,821027m18291831fr            000 0 fre  ,v.2 cop.2
1908,3715,Harvard University,100530438,hvd.hnxh49,https://hdl.handle.net/2027/hvd.hnxh49,pd,20200317,pt.5-7,Full view,100530438,"Le Coq, Frédéric.",Documents authentiques pour servir à l'histoire de la constitution civile du clergé dans le département de la Mayenne.,[1890-93].,"['France Church history 18th century.', 'Mayenne (France : Département)']",fre,1890,m,930920m18901893fr            000 0 fre d,pv.5-7
1914,3823,University of California,102845705,uc1.l0064972649,https://hdl.handle.net/2027/uc1.l0064972649,ic,20220515,v.1,Limited (search-only),102845705,"Bécu, Jean-Luc.","Le clergé jurassien face à la Révolution française, 1789-1799 /",[1990],"['Catholic Church. fast (OCoLC)fst00531720', 'Catholic Church France Jura Clergy History 18th century.', '1700-1799 fast', 'War Religious aspects. fast (OCoLC)fst01170374', 'Priests. fast (OCoLC)fst01076268', 'Clergy. fast (OCoLC)fst00864014', 'Priests France Jura Biography Dictionaries French.', 'France Jura. fast (OCoLC)fst01216997', 'France. fast (OCoLC)fst01204289', 'France History Revolution, 1789-1799 Religious aspects.', 'Jura (France) History Religious aspects.', 'History. fast (OCoLC)fst01411628', 'Biographies. fast (OCoLC)fst01919896', 'Dictionaries. fast (OCoLC)fst01423826']",fre,1990,m,910513s1990    fr a     bd   001 0dfre  ,v.1
1925,3957,University of Illinois at Urbana-Champaign,102651876,uiug.30112014364894,https://hdl.handle.net/2027/uiug.30112014364894,ic,20210305,v.3,Limited (search-only),102651876,"Bardez, Jean-Michel","Philosophes, encyclopédistes, musiciens, théoriciens /",1980,"['Music Philosophy and aesthetics', 'Enlightenment', 'Philosophy, French 18th century']",fre,1980,m,811118s1980    sz       b    00010 fre d,v.3
1951,4113,University of Georgia,006751599,uga1.32108004096486,https://hdl.handle.net/2027/uga1.32108004096486,ic,20220718,v. 1,Limited (search-only),006751599,"Hazard, Paul, 1878-1944.",La pensée européenne au XVIIIe siècle : de Montesguieu à Lessing. [Par] Paul Hazard.,1946.,"['1700-1799 fast', 'Religious thought. fast (OCoLC)fst01094322', 'Philosophy. fast (OCoLC)fst01060777', 'Eighteenth century. fast (OCoLC)fst00904058', 'Eighteenth century.', 'Religious thought 18th century.', 'Philosophy History.', 'History. fast (OCoLC)fst01411628']",fre,1946,m,800520s1946    fr af    b    000 0 fre d,v.1
1953,4115,University of Georgia,006751599,uga1.32108004096494,https://hdl.handle.net/2027/uga1.32108004096494,ic,20220523,v. 2-3,Limited (search-only),006751599,"Hazard, Paul, 1878-1944.",La pensée européenne au XVIIIe siècle : de Montesguieu à Lessing. [Par] Paul Hazard.,1946.,"['1700-1799 fast', 'Religious thought. fast (OCoLC)fst01094322', 'Philosophy. fast (OCoLC)fst01060777', 'Eighteenth century. fast (OCoLC)fst00904058', 'Eighteenth century.', 'Religious thought 18th century.', 'Philosophy History.', 'History. fast (OCoLC)fst01411628']",fre,1946,m,800520s1946    fr af    b    000 0 fre d,v.2-3
1966,4248,The Ohio State University,007570307,osu.32435062139712,https://hdl.handle.net/2027/osu.32435062139712,ic,20220702,new ser.:no.1-5 1957-1961,Limited (search-only),007570307,"Société Chateaubriand, Châtenay-Malabry, France.",Bulletin - Société Chateaubriand.,,"['Chateaubriand, François-René, vicomte de, 1768-1848 Periodicals.']",fre,1930,s,760122c19309999fr ar     rb  0   b0fre d,new ser.:no.1-5 Year-Year
1967,4249,University of Iowa,007570307,iau.31858000802326,https://hdl.handle.net/2027/iau.31858000802326,ic,20220724,nouv.ser. no^1 1957,Limited (search-only),007570307,"Société Chateaubriand, Châtenay-Malabry, France.",Bulletin - Société Chateaubriand.,,"['Chateaubriand, François-René, vicomte de, 1768-1848 Periodicals.']",fre,1930,s,760122c19309999fr ar     rb  0   b0fre d,nouv.ser. no^1 Year
1968,4250,University of Iowa,007570307,iau.31858000802334,https://hdl.handle.net/2027/iau.31858000802334,ic,20220724,nouv.ser. no^2-5 1958-61,Limited (search-only),007570307,"Société Chateaubriand, Châtenay-Malabry, France.",Bulletin - Société Chateaubriand.,,"['Chateaubriand, François-René, vicomte de, 1768-1848 Periodicals.']",fre,1930,s,760122c19309999fr ar     rb  0   b0fre d,nouv.ser. no^2-5 Year-61
2075,4638,Harvard University,102740298,hvd.hxigc6,https://hdl.handle.net/2027/hvd.hxigc6,pd,20200317,t.1-2,Full view,102740298,"Algarotti, Francesco, conte, 1712-1764.","Le Newtonianisme pour les dames, ou Entretiens sur la lumière, sur les couleurs, et sur l'attraction;",1741.,"['Newton, Isaac, 1642-1727', 'Optics Early works to 1800.', 'Physics Early works to 1800.', 'Early works. fast (OCoLC)fst01411636']",fre,1741,m,921222s1741    ne            000 0 fre d,v.1-2
2159,5091,Getty Research Institute,100841921,gri.ark:/13960/t4mm1f534,https://hdl.handle.net/2027/gri.ark:/13960/t4mm1f534,pd,20210304,préliminare v.7,Full view,100841921,"Soulavie, Jean-Louis, 1752-1813, collector.","Monumens de l'histoire de France, en estampes et dessins ...",,"['Louis XV, King of France, 1710-1774 Portraits.', 'Louis XIV, King of France, 1638-1715 Portraits.', 'Louis XIII, King of France, 1601-1643 Portraits.', 'Medals, French.', 'Emblems France.', 'Festivals France History 17th century.', 'France Religion 18th century.', 'France Kings and rulers Portraits.', 'France History, Military 18th century.', 'France History, Military 17th century.', 'France History.', 'France Biography Portraits.', 'Prints France 18th century. aat', 'Prints France 17th century. aat']",fre,1783,m,900928q17831811fr nnn            knfre d,préliminare v.7
2207,5211,University of Georgia,102875141,uga1.32108000878747,https://hdl.handle.net/2027/uga1.32108000878747,pd,20220629,v. 1,Full view,102875141,,Mémoires pour servir à l'histoire des dix-huitième et dix-neuvième siècles. : Comprenant les mémoires et journaux de Marie Antoinette ... [et al.].,1834.,"['1700-1899 fast', 'France. fast (OCoLC)fst01204289', 'France Biography.', 'France History 19th century Sources.', 'France History 18th century Sources.', 'Sources. fast (OCoLC)fst01423900', 'Biographies. fast (OCoLC)fst01919896', 'History fast (OCoLC)fst01411628']",fre,1834,m,770711s1834    fr c          000 0 fre d,v.1
2208,5212,University of Georgia,102875141,uga1.32108000878754,https://hdl.handle.net/2027/uga1.32108000878754,pd,20220629,v. 2,Full view,102875141,,Mémoires pour servir à l'histoire des dix-huitième et dix-neuvième siècles. : Comprenant les mémoires et journaux de Marie Antoinette ... [et al.].,1834.,"['1700-1899 fast', 'France. fast (OCoLC)fst01204289', 'France Biography.', 'France History 19th century Sources.', 'France History 18th century Sources.', 'Sources. fast (OCoLC)fst01423900', 'Biographies. fast (OCoLC)fst01919896', 'History fast (OCoLC)fst01411628']",fre,1834,m,770711s1834    fr c          000 0 fre d,v.2
2209,5213,University of Georgia,102875141,uga1.32108000878762,https://hdl.handle.net/2027/uga1.32108000878762,pd,20220629,v. 3,Full view,102875141,,Mémoires pour servir à l'histoire des dix-huitième et dix-neuvième siècles. : Comprenant les mémoires et journaux de Marie Antoinette ... [et al.].,1834.,"['1700-1899 fast', 'France. fast (OCoLC)fst01204289', 'France Biography.', 'France History 19th century Sources.', 'France History 18th century Sources.', 'Sources. fast (OCoLC)fst01423900', 'Biographies. fast (OCoLC)fst01919896', 'History fast (OCoLC)fst01411628']",fre,1834,m,770711s1834    fr c          000 0 fre d,v.3
2210,5214,University of Georgia,102875141,uga1.32108000878770,https://hdl.handle.net/2027/uga1.32108000878770,pd,20220629,v. 4,Full view,102875141,,Mémoires pour servir à l'histoire des dix-huitième et dix-neuvième siècles. : Comprenant les mémoires et journaux de Marie Antoinette ... [et al.].,1834.,"['1700-1899 fast', 'France. fast (OCoLC)fst01204289', 'France Biography.', 'France History 19th century Sources.', 'France History 18th century Sources.', 'Sources. fast (OCoLC)fst01423900', 'Biographies. fast (OCoLC)fst01919896', 'History fast (OCoLC)fst01411628']",fre,1834,m,770711s1834    fr c          000 0 fre d,v.4
2211,5215,University of Georgia,102875141,uga1.32108000878788,https://hdl.handle.net/2027/uga1.32108000878788,pd,20220629,v. 5,Full view,102875141,,Mémoires pour servir à l'histoire des dix-huitième et dix-neuvième siècles. : Comprenant les mémoires et journaux de Marie Antoinette ... [et al.].,1834.,"['1700-1899 fast', 'France. fast (OCoLC)fst01204289', 'France Biography.', 'France History 19th century Sources.', 'France History 18th century Sources.', 'Sources. fast (OCoLC)fst01423900', 'Biographies. fast (OCoLC)fst01919896', 'History fast (OCoLC)fst01411628']",fre,1834,m,770711s1834    fr c          000 0 fre d,v.5
2212,5216,University of Georgia,102875141,uga1.32108000878796,https://hdl.handle.net/2027/uga1.32108000878796,pd,20220629,v. 6,Full view,102875141,,Mémoires pour servir à l'histoire des dix-huitième et dix-neuvième siècles. : Comprenant les mémoires et journaux de Marie Antoinette ... [et al.].,1834.,"['1700-1899 fast', 'France. fast (OCoLC)fst01204289', 'France Biography.', 'France History 19th century Sources.', 'France History 18th century Sources.', 'Sources. fast (OCoLC)fst01423900', 'Biographies. fast (OCoLC)fst01919896', 'History fast (OCoLC)fst01411628']",fre,1834,m,770711s1834    fr c          000 0 fre d,v.6
2213,5217,University of Georgia,102875141,uga1.32108000878804,https://hdl.handle.net/2027/uga1.32108000878804,pd,20220629,v. 7,Full view,102875141,,Mémoires pour servir à l'histoire des dix-huitième et dix-neuvième siècles. : Comprenant les mémoires et journaux de Marie Antoinette ... [et al.].,1834.,"['1700-1899 fast', 'France. fast (OCoLC)fst01204289', 'France Biography.', 'France History 19th century Sources.', 'France History 18th century Sources.', 'Sources. fast (OCoLC)fst01423900', 'Biographies. fast (OCoLC)fst01919896', 'History fast (OCoLC)fst01411628']",fre,1834,m,770711s1834    fr c          000 0 fre d,v.7
2214,5218,University of Georgia,102875141,uga1.32108000878812,https://hdl.handle.net/2027/uga1.32108000878812,pd,20220629,v. 8,Full view,102875141,,Mémoires pour servir à l'histoire des dix-huitième et dix-neuvième siècles. : Comprenant les mémoires et journaux de Marie Antoinette ... [et al.].,1834.,"['1700-1899 fast', 'France. fast (OCoLC)fst01204289', 'France Biography.', 'France History 19th century Sources.', 'France History 18th century Sources.', 'Sources. fast (OCoLC)fst01423900', 'Biographies. fast (OCoLC)fst01919896', 'History fast (OCoLC)fst01411628']",fre,1834,m,770711s1834    fr c          000 0 fre d,v.8
2215,5219,University of Georgia,102875141,uga1.32108000878820,https://hdl.handle.net/2027/uga1.32108000878820,pd,20220629,v. 9,Full view,102875141,,Mémoires pour servir à l'histoire des dix-huitième et dix-neuvième siècles. : Comprenant les mémoires et journaux de Marie Antoinette ... [et al.].,1834.,"['1700-1899 fast', 'France. fast (OCoLC)fst01204289', 'France Biography.', 'France History 19th century Sources.', 'France History 18th century Sources.', 'Sources. fast (OCoLC)fst01423900', 'Biographies. fast (OCoLC)fst01919896', 'History fast (OCoLC)fst01411628']",fre,1834,m,770711s1834    fr c          000 0 fre d,v.9
2216,5220,University of Georgia,102875141,uga1.32108000878838,https://hdl.handle.net/2027/uga1.32108000878838,pd,20220629,v. 10,Full view,102875141,,Mémoires pour servir à l'histoire des dix-huitième et dix-neuvième siècles. : Comprenant les mémoires et journaux de Marie Antoinette ... [et al.].,1834.,"['1700-1899 fast', 'France. fast (OCoLC)fst01204289', 'France Biography.', 'France History 19th century Sources.', 'France History 18th century Sources.', 'Sources. fast (OCoLC)fst01423900', 'Biographies. fast (OCoLC)fst01919896', 'History fast (OCoLC)fst01411628']",fre,1834,m,770711s1834    fr c          000 0 fre d,v.10
2217,5221,University of Georgia,102875141,uga1.32108000878846,https://hdl.handle.net/2027/uga1.32108000878846,pd,20220629,v. 11,Full view,102875141,,Mémoires pour servir à l'histoire des dix-huitième et dix-neuvième siècles. : Comprenant les mémoires et journaux de Marie Antoinette ... [et al.].,1834.,"['1700-1899 fast', 'France. fast (OCoLC)fst01204289', 'France Biography.', 'France History 19th century Sources.', 'France History 18th century Sources.', 'Sources. fast (OCoLC)fst01423900', 'Biographies. fast (OCoLC)fst01919896', 'History fast (OCoLC)fst01411628']",fre,1834,m,770711s1834    fr c          000 0 fre d,v.11
2218,5222,University of Georgia,102875141,uga1.32108000878853,https://hdl.handle.net/2027/uga1.32108000878853,pd,20220629,v. 12,Full view,102875141,,Mémoires pour servir à l'histoire des dix-huitième et dix-neuvième siècles. : Comprenant les mémoires et journaux de Marie Antoinette ... [et al.].,1834.,"['1700-1899 fast', 'France. fast (OCoLC)fst01204289', 'France Biography.', 'France History 19th century Sources.', 'France History 18th century Sources.', 'Sources. fast (OCoLC)fst01423900', 'Biographies. fast (OCoLC)fst01919896', 'History fast (OCoLC)fst01411628']",fre,1834,m,770711s1834    fr c          000 0 fre d,v.12
2219,5223,University of Georgia,102875141,uga1.32108000878861,https://hdl.handle.net/2027/uga1.32108000878861,pd,20220629,v. 13,Full view,102875141,,Mémoires pour servir à l'histoire des dix-huitième et dix-neuvième siècles. : Comprenant les mémoires et journaux de Marie Antoinette ... [et al.].,1834.,"['1700-1899 fast', 'France. fast (OCoLC)fst01204289', 'France Biography.', 'France History 19th century Sources.', 'France History 18th century Sources.', 'Sources. fast (OCoLC)fst01423900', 'Biographies. fast (OCoLC)fst01919896', 'History fast (OCoLC)fst01411628']",fre,1834,m,770711s1834    fr c          000 0 fre d,v.13
2220,5224,University of Georgia,102875141,uga1.32108000878879,https://hdl.handle.net/2027/uga1.32108000878879,pd,20220629,v. 14,Full view,102875141,,Mémoires pour servir à l'histoire des dix-huitième et dix-neuvième siècles. : Comprenant les mémoires et journaux de Marie Antoinette ... [et al.].,1834.,"['1700-1899 fast', 'France. fast (OCoLC)fst01204289', 'France Biography.', 'France History 19th century Sources.', 'France History 18th century Sources.', 'Sources. fast (OCoLC)fst01423900', 'Biographies. fast (OCoLC)fst01919896', 'History fast (OCoLC)fst01411628']",fre,1834,m,770711s1834    fr c          000 0 fre d,v.14
2221,5225,University of Georgia,102875141,uga1.32108000878887,https://hdl.handle.net/2027/uga1.32108000878887,pd,20220629,v. 15,Full view,102875141,,Mémoires pour servir à l'histoire des dix-huitième et dix-neuvième siècles. : Comprenant les mémoires et journaux de Marie Antoinette ... [et al.].,1834.,"['1700-1899 fast', 'France. fast (OCoLC)fst01204289', 'France Biography.', 'France History 19th century Sources.', 'France History 18th century Sources.', 'Sources. fast (OCoLC)fst01423900', 'Biographies. fast (OCoLC)fst01919896', 'History fast (OCoLC)fst01411628']",fre,1834,m,770711s1834    fr c          000 0 fre d,v.15
2222,5226,University of Georgia,102875141,uga1.32108000878895,https://hdl.handle.net/2027/uga1.32108000878895,pd,20220629,v. 16,Full view,102875141,,Mémoires pour servir à l'histoire des dix-huitième et dix-neuvième siècles. : Comprenant les mémoires et journaux de Marie Antoinette ... [et al.].,1834.,"['1700-1899 fast', 'France. fast (OCoLC)fst01204289', 'France Biography.', 'France History 19th century Sources.', 'France History 18th century Sources.', 'Sources. fast (OCoLC)fst01423900', 'Biographies. fast (OCoLC)fst01919896', 'History fast (OCoLC)fst01411628']",fre,1834,m,770711s1834    fr c          000 0 fre d,v.16
2223,5227,University of Georgia,102875141,uga1.32108000878903,https://hdl.handle.net/2027/uga1.32108000878903,pd,20220629,v. 17,Full view,102875141,,Mémoires pour servir à l'histoire des dix-huitième et dix-neuvième siècles. : Comprenant les mémoires et journaux de Marie Antoinette ... [et al.].,1834.,"['1700-1899 fast', 'France. fast (OCoLC)fst01204289', 'France Biography.', 'France History 19th century Sources.', 'France History 18th century Sources.', 'Sources. fast (OCoLC)fst01423900', 'Biographies. fast (OCoLC)fst01919896', 'History fast (OCoLC)fst01411628']",fre,1834,m,770711s1834    fr c          000 0 fre d,v.17
2224,5228,University of Georgia,102875141,uga1.32108000878911,https://hdl.handle.net/2027/uga1.32108000878911,pd,20220629,v. 18,Full view,102875141,,Mémoires pour servir à l'histoire des dix-huitième et dix-neuvième siècles. : Comprenant les mémoires et journaux de Marie Antoinette ... [et al.].,1834.,"['1700-1899 fast', 'France. fast (OCoLC)fst01204289', 'France Biography.', 'France History 19th century Sources.', 'France History 18th century Sources.', 'Sources. fast (OCoLC)fst01423900', 'Biographies. fast (OCoLC)fst01919896', 'History fast (OCoLC)fst01411628']",fre,1834,m,770711s1834    fr c          000 0 fre d,v.18
2225,5229,University of Georgia,102875141,uga1.32108000878929,https://hdl.handle.net/2027/uga1.32108000878929,pd,20220629,v. 19,Full view,102875141,,Mémoires pour servir à l'histoire des dix-huitième et dix-neuvième siècles. : Comprenant les mémoires et journaux de Marie Antoinette ... [et al.].,1834.,"['1700-1899 fast', 'France. fast (OCoLC)fst01204289', 'France Biography.', 'France History 19th century Sources.', 'France History 18th century Sources.', 'Sources. fast (OCoLC)fst01423900', 'Biographies. fast (OCoLC)fst01919896', 'History fast (OCoLC)fst01411628']",fre,1834,m,770711s1834    fr c          000 0 fre d,v.19
2226,5230,University of Georgia,102875141,uga1.32108000878937,https://hdl.handle.net/2027/uga1.32108000878937,pd,20220629,v. 20,Full view,102875141,,Mémoires pour servir à l'histoire des dix-huitième et dix-neuvième siècles. : Comprenant les mémoires et journaux de Marie Antoinette ... [et al.].,1834.,"['1700-1899 fast', 'France. fast (OCoLC)fst01204289', 'France Biography.', 'France History 19th century Sources.', 'France History 18th century Sources.', 'Sources. fast (OCoLC)fst01423900', 'Biographies. fast (OCoLC)fst01919896', 'History fast (OCoLC)fst01411628']",fre,1834,m,770711s1834    fr c          000 0 fre d,v.20
2227,5231,University of Georgia,102875141,uga1.32108000878945,https://hdl.handle.net/2027/uga1.32108000878945,pd,20220629,v. 21,Full view,102875141,,Mémoires pour servir à l'histoire des dix-huitième et dix-neuvième siècles. : Comprenant les mémoires et journaux de Marie Antoinette ... [et al.].,1834.,"['1700-1899 fast', 'France. fast (OCoLC)fst01204289', 'France Biography.', 'France History 19th century Sources.', 'France History 18th century Sources.', 'Sources. fast (OCoLC)fst01423900', 'Biographies. fast (OCoLC)fst01919896', 'History fast (OCoLC)fst01411628']",fre,1834,m,770711s1834    fr c          000 0 fre d,v.21
2228,5232,University of Georgia,102875141,uga1.32108000878952,https://hdl.handle.net/2027/uga1.32108000878952,pd,20220629,v. 22,Full view,102875141,,Mémoires pour servir à l'histoire des dix-huitième et dix-neuvième siècles. : Comprenant les mémoires et journaux de Marie Antoinette ... [et al.].,1834.,"['1700-1899 fast', 'France. fast (OCoLC)fst01204289', 'France Biography.', 'France History 19th century Sources.', 'France History 18th century Sources.', 'Sources. fast (OCoLC)fst01423900', 'Biographies. fast (OCoLC)fst01919896', 'History fast (OCoLC)fst01411628']",fre,1834,m,770711s1834    fr c          000 0 fre d,v.22
2229,5233,University of Georgia,102875141,uga1.32108000878960,https://hdl.handle.net/2027/uga1.32108000878960,pd,20220629,v. 23,Full view,102875141,,Mémoires pour servir à l'histoire des dix-huitième et dix-neuvième siècles. : Comprenant les mémoires et journaux de Marie Antoinette ... [et al.].,1834.,"['1700-1899 fast', 'France. fast (OCoLC)fst01204289', 'France Biography.', 'France History 19th century Sources.', 'France History 18th century Sources.', 'Sources. fast (OCoLC)fst01423900', 'Biographies. fast (OCoLC)fst01919896', 'History fast (OCoLC)fst01411628']",fre,1834,m,770711s1834    fr c          000 0 fre d,v.23
2230,5234,University of Georgia,102875141,uga1.32108000878978,https://hdl.handle.net/2027/uga1.32108000878978,pd,20220629,v. 24,Full view,102875141,,Mémoires pour servir à l'histoire des dix-huitième et dix-neuvième siècles. : Comprenant les mémoires et journaux de Marie Antoinette ... [et al.].,1834.,"['1700-1899 fast', 'France. fast (OCoLC)fst01204289', 'France Biography.', 'France History 19th century Sources.', 'France History 18th century Sources.', 'Sources. fast (OCoLC)fst01423900', 'Biographies. fast (OCoLC)fst01919896', 'History fast (OCoLC)fst01411628']",fre,1834,m,770711s1834    fr c          000 0 fre d,v.24
2231,5235,University of Georgia,102875141,uga1.32108000878986,https://hdl.handle.net/2027/uga1.32108000878986,pd,20220629,v. 25,Full view,102875141,,Mémoires pour servir à l'histoire des dix-huitième et dix-neuvième siècles. : Comprenant les mémoires et journaux de Marie Antoinette ... [et al.].,1834.,"['1700-1899 fast', 'France. fast (OCoLC)fst01204289', 'France Biography.', 'France History 19th century Sources.', 'France History 18th century Sources.', 'Sources. fast (OCoLC)fst01423900', 'Biographies. fast (OCoLC)fst01919896', 'History fast (OCoLC)fst01411628']",fre,1834,m,770711s1834    fr c          000 0 fre d,v.25
