,pubyear_clean_y,count
0,1829,43
1,1830,1
2,1831,3
3,1832,1
4,1833,3
5,1834,3
6,1835,2
7,1836,11
8,1837,1
0,1838,0
9,1839,1
1,1840,0
10,1841,1
11,1842,1
2,1843,0
12,1844,3
13,1845,2
14,1846,1
3,1847,0
15,1848,3
16,1849,8
4,1850,0
17,1851,1
18,1852,3
19,1853,2
20,1854,10
21,1855,4
22,1856,4
23,1857,3
24,1858,10
25,1859,2
26,1860,9
27,1861,6
28,1862,2
29,1863,2
30,1864,4
31,1865,2
32,1866,1
33,1867,2
34,1868,8
35,1869,5
5,1870,0
36,1871,1
37,1872,7
38,1873,3
39,1874,1
40,1875,2
41,1876,2
42,1877,48
43,1878,7
44,1879,2
45,1880,3
6,1881,0
7,1882,0
46,1883,5
47,1884,2
48,1885,4
49,1886,1
50,1887,2
51,1888,2
52,1889,7
53,1890,3
54,1891,8
55,1892,2
56,1893,13
57,1894,4
58,1895,6
59,1896,5
60,1897,1
61,1898,7
62,1899,8
63,1900,13
64,1901,1
65,1902,10
66,1903,3
67,1904,4
68,1905,10
69,1906,6
70,1907,5
71,1908,8
72,1909,7
73,1910,7
74,1911,12
75,1912,9
76,1913,3
77,1914,3
78,1915,5
79,1916,5
80,1917,3
81,1918,2
82,1919,2
83,1920,3
84,1921,4
85,1922,6
86,1923,2
87,1924,8
88,1925,7
89,1926,3
90,1927,8
91,1928,4
92,1929,6
93,1930,19
94,1931,3
95,1932,6
96,1933,9
97,1934,6
98,1935,6
99,1936,5
8,1937,0
100,1938,6
101,1939,5
9,1940,0
102,1941,2
103,1942,1
104,1943,2
105,1944,4
106,1945,4
107,1946,2
108,1947,3
109,1948,10
110,1949,1
111,1950,1
112,1951,3
113,1952,5
114,1953,3
115,1954,9
116,1955,9
117,1956,5
118,1957,22
119,1958,7
120,1959,1
121,1960,4
122,1961,4
123,1962,8
124,1963,61
125,1964,8
126,1965,9
127,1966,2
128,1967,19
129,1968,316
130,1969,18
131,1970,14
132,1971,7
133,1972,7
134,1973,16
135,1974,9
136,1975,3
137,1976,16
138,1977,17
139,1978,15
140,1979,12
141,1980,13
142,1981,11
143,1982,10
144,1983,19
145,1984,8
146,1985,16
147,1986,23
148,1987,26
149,1988,27
150,1989,42
151,1990,18
152,1991,18
153,1992,15
154,1993,21
155,1994,31
156,1995,21
157,1996,15
158,1997,16
159,1998,31
160,1999,29
161,2000,33
162,2001,41
163,2002,24
164,2003,34
165,2004,36
166,2005,39
167,2006,53
168,2007,37
169,2008,27
