,pubyear_clean_y,count
0,1759,18
1,1760,45
2,1761,12
3,1762,20
4,1763,12
5,1764,16
6,1765,25
7,1766,21
8,1767,36
9,1768,12
10,1769,32
11,1770,14
12,1771,32
13,1772,9
14,1773,14
15,1774,17
16,1775,147
17,1776,15
18,1777,83
19,1778,18
20,1779,43
21,1780,21
22,1781,62
23,1782,22
24,1783,58
25,1784,28
26,1785,14
27,1786,15
28,1787,865
29,1788,81
30,1789,343
31,1790,64
32,1791,85
33,1792,92
34,1793,36
35,1794,15
36,1795,64
37,1796,40
38,1797,47
39,1798,21
40,1799,51
41,1800,38
42,1801,45
43,1802,22
44,1803,81
45,1804,37
46,1805,28
47,1806,33
48,1807,13
49,1808,18
50,1809,15
51,1810,22
52,1811,21
53,1812,21
54,1813,46
55,1814,45
56,1815,24
57,1816,58
58,1817,52
59,1818,123
60,1819,145
61,1820,84
62,1821,52
63,1822,21
64,1823,34
65,1824,77
66,1825,33
67,1826,17
68,1827,48
69,1828,61
70,1829,145
71,1830,15
72,1831,33
73,1832,3
74,1833,24
75,1834,190
76,1835,36
77,1836,59
78,1837,29
79,1838,47
80,1839,11
81,1840,68
82,1841,48
83,1842,22
84,1843,17
85,1844,48
86,1845,82
87,1846,34
88,1847,87
89,1848,9
90,1849,17
91,1850,32
92,1851,46
93,1852,27
94,1853,72
95,1854,102
96,1855,28
97,1856,151
98,1857,34
99,1858,139
100,1859,39
101,1860,78
102,1861,81
103,1862,308
104,1863,42
105,1864,45
106,1865,45
107,1866,85
108,1867,85
109,1868,43
110,1869,51
111,1870,52
112,1871,21
113,1872,68
114,1873,81
115,1874,26
116,1875,27
117,1876,40
118,1877,97
119,1878,25
120,1879,149
121,1880,73
122,1881,81
123,1882,76
124,1883,66
125,1884,96
126,1885,90
127,1886,78
128,1887,56
129,1888,80
130,1889,65
131,1890,34
132,1891,58
133,1892,51
134,1893,60
135,1894,77
136,1895,66
137,1896,37
138,1897,43
139,1898,56
140,1899,82
141,1900,88
142,1901,55
143,1902,59
144,1903,57
145,1904,65
146,1905,65
147,1906,70
148,1907,41
149,1908,48
150,1909,74
151,1910,87
152,1911,57
153,1912,75
154,1913,40
155,1914,39
156,1915,18
157,1916,19
158,1917,18
159,1918,10
160,1919,12
161,1920,35
162,1921,27
163,1922,25
164,1923,23
165,1924,40
166,1925,35
167,1926,21
168,1927,35
169,1928,27
170,1929,158
171,1930,71
172,1931,22
173,1932,46
174,1933,23
175,1934,34
176,1935,19
177,1936,27
178,1937,16
179,1938,35
180,1939,32
181,1940,7
182,1941,12
183,1942,8
184,1943,16
185,1944,13
186,1945,11
187,1946,21
188,1947,35
189,1948,36
190,1949,115
191,1950,18
192,1951,29
193,1952,18
194,1953,20
195,1954,29
196,1955,27
197,1956,27
198,1957,34
199,1958,43
200,1959,44
201,1960,76
202,1961,47
203,1962,78
204,1963,175
205,1964,38
206,1965,153
207,1966,64
208,1967,61
209,1968,373
210,1969,128
211,1970,86
212,1971,57
213,1972,67
214,1973,84
215,1974,76
216,1975,89
217,1976,59
218,1977,103
219,1978,75
220,1979,87
221,1980,88
222,1981,90
223,1982,85
224,1983,106
225,1984,59
226,1985,115
227,1986,84
228,1987,116
229,1988,139
230,1989,273
231,1990,130
232,1991,150
233,1992,120
234,1993,135
235,1994,101
236,1995,100
237,1996,101
238,1997,113
239,1998,129
240,1999,129
241,2000,126
242,2001,142
243,2002,173
244,2003,143
245,2004,156
246,2005,162
247,2006,157
248,2007,161
249,2008,101
250,2009,53
251,2010,26
252,2011,15
253,2012,18
254,2013,9
