volumes
inu.30000085374159
uc1.b4895400
mdp.39015037436519
uva.x000365030
mdp.39015041338784
mdp.39015041338792
mdp.39015008439419
uc1.b4953397
mdp.39015049888939
mdp.39015002728866
mdp.39015015500658
uc1.b4200919
mdp.39015056166864
mdp.39015060066845
wu.89070592613
mdp.39015042156466
uva.x002042389
mdp.39015026496375
uva.x004053028
mdp.39015037335042
mdp.39015052646729
mdp.39015073874409
inu.30000042212112
uc1.31822036408672
mdp.39015050283673
uc1.c086535294
mdp.39015015380002
mdp.39015066415582
mdp.39015061334986
mdp.39015024632773
uc1.$b603294
mdp.39015027243644
uc1.b3895667
mdp.39015032746276
mdp.39015031822623
mdp.39015034434277
mdp.39015026492044
mdp.39015052475608
mdp.39015060099754
mdp.39015060602490
mdp.39015058814602
uc1.32106015774109
mdp.39015047603835
mdp.39015050121865
uiug.30112112755498
mdp.39015073901251
mdp.39015030210275
uc1.b3749888
mdp.39015046882661
mdp.39015060996371
mdp.39015048542750
mdp.39015069190570
mdp.39015014768637
mdp.39015051986183
mdp.39015063653029
mdp.39015079342336
mdp.39015057628805
mdp.39015047704286
pst.000009232136
uc1.l0104077896
mdp.39015002332008
mdp.39015059293715
mdp.39015074275465
mdp.39015051999657
uc1.l0105735278
mdp.39015040661491
mdp.39015056162756
mdp.39015026113731
mdp.39015056232047
uc1.b4385600
mdp.39015063653771
mdp.39015066886527
mdp.39015079228212
mdp.39015080730404
inu.30000054435759
mdp.39015064697652
mdp.39015005122224
mdp.39015049667531
uc1.b3759201
uc1.b4372604
uc1.b3749743
mdp.39015048959475
mdp.39015052301044
mdp.39015073952650
uva.x030036855
mdp.39015067638927
mdp.39015061443407
mdp.39015029963769
uva.x004608720
mdp.39015057575485
mdp.39015054170108
uc1.b3677355
mdp.39015054177103
mdp.39015064722070
mdp.39015064722179
mdp.39015073937859
mdp.39015005571941
mdp.39015032755863
mdp.39015043111635
mdp.39015021962033
mdp.39015042845951
mdp.39015014878527
uc1.32106015546648
mdp.39015043254757
mdp.39015054179570
mdp.39015055449345
mdp.39015055846367
mdp.39015060031252
mdp.39015056453890
mdp.39015054395747
mdp.39015076169799
mdp.39015063259207
mdp.39015066895254
mdp.39015064918124
mdp.39015066827844
mdp.39015069326745
mdp.39015063666005
mdp.39015082640593
mdp.39015075656390
mdp.39015080733820
inu.30000076412851
mdp.39015045696237
uiug.30112096276453
uva.x000937342
mdp.39015064699740
mdp.39015048525508
mdp.39015047598159
mdp.39015026457260
mdp.39015066882054
inu.30000029456872
mdp.39015034860992
mdp.39015062608271
mdp.39015073659479
mdp.39015001759599
uc1.b3920561
mdp.39015079898485
uc1.b3920562
mdp.39015079898337
uc1.b3920563
mdp.39015079898329
uc1.b3920564
mdp.39015079898477
mdp.39015013936490
mdp.39015018337991
mdp.39015021615680
mdp.39015021544088
mdp.39015025246185
mdp.39015026972102
mdp.39015026958796
mdp.39015031794608
mdp.39015031711271
mdp.39015031842076
mdp.39015035747750
mdp.39015036092602
mdp.39015040359419
mdp.39015043783722
mdp.39015050240244
mdp.39015051304650
mdp.39015056217444
mdp.39015062574515
mdp.39015069296112
mdp.39015073984513
mdp.39015073605993
mdp.39015079232024
uc1.b4325239
uc1.b4382057
mdp.39015037458380
uc1.b3678406
mdp.39015073549225
mdp.39015063653722
uc1.32106014293739
mdp.39015041981146
mdp.39015056656591
uc1.c111881447
mdp.39015060637603
mdp.39015037299214
mdp.39015011359315
mdp.39015049022976
mdp.39015047732865
mdp.39015058229223
uc1.b4382047
mdp.39015047598886
uva.x030246644
mdp.39015079310226
mdp.39015056204137
inu.30000001287220
mdp.39015063269883
mdp.39015064779450
uc1.b3745130
mdp.39015040695762
uva.x004718388
mdp.39015056061834
mdp.39015058256275
mdp.39015019449779
mdp.39015051826389
mdp.39015077124108
mdp.39015034344575
mdp.39015034792781
uc1.b4358635
mdp.39015043155640
mdp.39015058860787
mdp.39015047704435
mdp.39015049475349
uc1.b3957754
mdp.39015029283283
mdp.39015059582653
txu.059173000217197
uc1.b3540851
mdp.39015074057467
uc1.b4968234
mdp.39015037853085
mdp.39015059822737
mdp.39015050307530
mdp.39015047742195
mdp.39015053045616
mdp.39015073985965
mdp.39015058860639
mdp.39015076169542
uva.x004021525
mdp.39015041311526
uc1.31822039440920
mdp.39015043157752
mdp.39015069329335
mdp.39015038545904
uc1.b3818706
mdp.39015062628246
mdp.39015055183779
uc1.b3981723
msu.31293029561622
mdp.39015001766578
mdp.39015060874057
mdp.39015052700278
mdp.39015034341050
mdp.39015049753257
mdp.39015032832886
mdp.39015032357652
mdp.39015026138837
mdp.39015013349090
mdp.39015053232255
mdp.39015003934604
uc1.b3356483
mdp.39015063361532
mdp.39015069324054
uc1.31822038076980
mdp.39076006854496
ien.35556031304751
uva.x001122191
uc1.l0108565011
mdp.39015073546635
mdp.39015019810475
mdp.39015001700825
mdp.39015032899331
mdp.39015037446062
uva.x002744903
mdp.39015073549332
mdp.39015047680361
mdp.39015049208138
mdp.39015040793641
mdp.39015030210267
mdp.39015028528225
mdp.39015015830782
uc1.b4385602
mdp.49015000742800
mdp.49015002057736
mdp.39015056200820
mdp.39015073972823
mdp.39015073935952
mdp.39015064113411
mdp.39015068823379
uc1.b3562650
mdp.39015079313733
mdp.39015080745501
uc1.32106000228020
pst.000017495066
mdp.39015047496867
uc1.32106015856195
inu.30000122448347
wu.89072472574
ien.35556019152446
uva.x001154031
uc1.b4377521
mdp.39015054264463
mdp.39015060373191
mdp.39015069184078
uva.x030198139
wu.89075890053
mdp.39015061137637
wu.89004362349
uc1.$b192226
mdp.39015037265736
mdp.39015041043087
uc1.b4258797
mdp.39015040647268
mdp.39015032202148
mdp.39015057578463
uc1.32106009994523
mdp.39015001178329
uc1.b4377629
uc1.b3749893
mdp.39015053249077
mdp.39015053249234
uc1.b4369091
mdp.39015006603784
mdp.39015065932371
mdp.39015061100080
mdp.39015042787658
mdp.39015054159168
mdp.39015054154425
mdp.39015056896932
mdp.39015070951721
mdp.39015062520088
mdp.39015063653748
mdp.39015063681749
mdp.39015063212073
mdp.39015064949996
mdp.39015082677769
mdp.39015076113375
mdp.39015076130833
mdp.39015081417852
mdp.39015082668982
uc1.$b191510
uc1.$b191511
uc1.$b191512
uc1.b3562649
mdp.39015080709812
mdp.39015079291913
mdp.39015080699559
mdp.39015080745543
uc1.31822036414514
wu.89046635306
wu.89046635322
uc1.$b732765
mdp.39015073979760
uva.x004402437
uc1.31822038889291
uva.x001727654
mdp.39015043271017
mdp.39015043271009
mdp.39015069375825
mdp.39015060820456
mdp.39015059270994
mdp.39015061327055
mdp.39015061459510
mdp.39015074233175
uc1.l0104691878
uva.x001081631
mdp.39015060825950
mdp.39015050754111
mdp.39015069318577
mdp.39015073978515
mdp.39015058251557
mdp.39015072500948
inu.39000002738123
mdp.39015072500906
mdp.39015042821895
mdp.39015060825877
mdp.39015052701797
uc1.b5041637
uva.x004733861
uva.x004874811
gri.ark:/13960/t0ns11f3p
mdp.39015072500914
mdp.39015072500898
mdp.39015064717906
wu.89104937115
uc1.31822042618975
uva.x001594045
mdp.39015054389013
mdp.39015042957947
mdp.39015062622256
mdp.39015074275614
mdp.39015058839443
mdp.39015060031518
uva.x030337535
mdp.39015055608627
mdp.39015063681731
mdp.39015060826636
inu.30000092791080
mdp.39015056209383
uiug.30112068396784
mdp.39015052396341
pst.000009248335
mdp.39015032492301
mdp.39015048714300
mdp.39015061334978
mdp.39015063191921
mdp.39015063192077
mdp.39015079341916
uc1.c083591806
mdp.39015075656382
uva.x030574016
mdp.39015050481392
mdp.39015059270762
uc1.l0104679832
mdp.39015064866992
uc1.31822038788303
mdp.39015055198017
mdp.39015065873013
ien.35556001316728
uc1.b4598529
mdp.39015063663846
uc1.$b195318
hvd.hxigc6
uc1.b2830257
inu.30000081472510
coo.31924029378779
uiug.30112087607419
ucbk.ark:/28722/h21v5bw55
