,record_id,htid,author,title,pubyear,subjects,lang,ldr,marc_008,len_subs,subj_clean,len_subj_clean,enumcron_clean
0,2983487,mdp.39015034247927,"Moore, Evelyn K.",The passions of rhetoric : Lessing's theory of argument and the German enlightenment /,c1993.,"['Lessing, Gotthold Ephraim, 1729-1781 Knowledge Rhetoric.', 'Lessing, Gotthold Ephraim, 1729-1781 Philosophy.', 'Enlightenment Germany.', 'Rhetoric 1500-1800.', 'Germany Intellectual life 18th century.']",eng,m,950814s1993    ne       b    001 0 eng  ,204,"['Enlightenment Germany.', 'Germany Intellectual life 18th century.']",2,False
1,2554704,mdp.39015025213490,"Northeast, Catherine M.","The Parisian Jesuits and the Enlightenment, 1700-1762 /",1991.,"['Jesuits France History 18th century.', 'Enlightenment France.', 'Religious literature, French History and criticism.', 'Christian literature, French History and criticism.', 'French literature 18th century History and criticism.', 'France Intellectual life 18th century.']",eng,m,920810s1991    enk      b    001 0 eng d,274,"['Enlightenment France.', 'French literature 18th century History and criticism.', 'France Intellectual life 18th century.']",3,False
2,4493143,mdp.49015003024081,,"German writers from the Enlightenment to Sturm und Drang, 1720-1764 /",c1990.,"['Authors, German 18th century Biography Dictionaries.', 'German literature 18th century Bio-bibliography.']",eng,m,940225s1990    miuac    bd   00100ceng  ,108,[],0,False
3,8108747,mdp.39076002862741,"Bostic, Heidi.",The fiction of enlightenment : women of reason in the French eighteenth century /,c2010.,"['Charrière, Isabelle de, 1740-1805 Criticism and interpretation.', 'Riccoboni, Marie Jeanne de Heurles Laboras de Mezières, 1713-1792 Criticism and interpretation.', ""Grafigny, Mme de (Françoise d'Issembourg d'Happoncourt), 1695-1758 Criticism and interpretation."", 'Enlightenment France.', 'Women France Intellectual life 18th century.', 'Women and literature France History 18th century.', 'Reason in literature.', 'French fiction 18th century History and criticism.', 'French fiction Women authors History and criticism.']",eng,m,090522s2010    deua     b   s001 0 eng  ,526,['Enlightenment France.'],1,False
4,1201836,mdp.39015004872837,"Atkinson, Geoffroy, 1892-1960.","Prelude to the Enlightenment: French literature, 1690-1740,",1971.,['French literature 18th century History and criticism.'],eng,m,890623s1971    enkaf    b    00110 eng d,57,['French literature 18th century History and criticism.'],1,False
5,9420851,pst.000033415451,"International Congress on the Enlightenment (5th : 1979 : Pisa, Italy). Section 13. Narrative theories and techniques.",Narrative theories and techniques = Théories et techniques narratives = Teorie e tecniche narrative.,[1980?].,"['Narrative art 18th century Congresses.', 'Literature, Modern 18th century Congresses.', 'Enlightenment Congresses.']",eng,m,981203s1980    xx            000 0 eng d,118,['Enlightenment Congresses.'],1,False
6,30298,mdp.39015010460247,,Literature and history in the age of ideas : essays on the French Enlightenment presented to George R. Havens /,[1975],"['Havens, George R. (George Remington), 1890-1977 Bibliography.', 'Enlightenment.', 'French literature 18th century.', 'France Intellectual life.']",eng,m,880715s1975    ohu      b    011 0 engs ,147,"['Enlightenment.', 'French literature 18th century.', 'France Intellectual life.']",3,False
7,951863,mdp.39015013428621,"Deane, Seamus, 1940-","The French Revolution and Enlightenment in England, 1789-1832 /",1988.,"['Philosophy in literature.', 'Enlightenment.', 'English literature 18th century History and criticism.', 'English literature 19th century History and criticism.', 'English literature French influences.', 'England Intellectual life 18th century.', 'England Intellectual life 19th century.', 'France History Revolution, 1789-1799 Literature and the revolution.']",eng,m,881123s1988    mau      b    00110 eng  ,361,['Enlightenment.'],1,False
8,951863,uc1.b4280345,"Deane, Seamus, 1940-","The French Revolution and Enlightenment in England, 1789-1832 /",1988.,"['Philosophy in literature.', 'Enlightenment.', 'English literature 18th century History and criticism.', 'English literature 19th century History and criticism.', 'English literature French influences.', 'England Intellectual life 18th century.', 'England Intellectual life 19th century.', 'France History Revolution, 1789-1799 Literature and the revolution.']",eng,m,881123s1988    mau      b    00110 eng  ,361,['Enlightenment.'],1,copy 2
9,6768880,mdp.39015080843785,"Baggerman, Arianne.",Child of the Enlightenment : revolutionary Europe reflected in a boyhood diary /,2009.,"['Eck, Otto van, 1780-1798 Childhood and youth.', 'Eck, Otto van, 1780-1798 Diaries.', 'Diaries History and criticism.', 'Enlightenment Europe History Sources.', 'Boys Netherlands Diaries.', 'Europe History 1789-1815 Sources.', 'Netherlands History 1795-1815 Sources.', 'Netherlands History 1714-1795 Sources.', 'Netherlands Biography.']",eng,m,081017s2009    ne ab    b    001 0deng  ,337,[],0,False
10,4927602,mdp.39015059320807,"Lewis, Elizabeth Franklin, 1964-",Women writers in the Spanish Enlightenment : the pursuit of happiness /,c2004.,"['Horé, María Gertrudis, 1742-1801 Criticism and interpretation.', 'Gálvez, María Rosa, 1768-1806 Criticism and interpretation.', 'Amar y Borbón, Josefa, 1749- Criticism and interpretation.', 'Happiness.', 'Feminism in literature.', 'Women and literature Spain.', 'Spanish literature 18th century History and criticism.', 'Spanish literature Women authors History and criticism.']",eng,m,040219s2004    enk      b    001 0 eng  ,380,[],0,False
11,102078595,uva.x000504887,"Wellbery, David Edward.",Aesthetics and semiotics in the German Enlightenment /,1977.,"['Semiotics and literature.', 'German literature 18th century History and criticism.', 'Aesthetics.']",eng,m,830609r19831977miu      b    00010 eng d,101,['Aesthetics.'],1,False
12,8983406,ien.35556041229618,,Adamantios Korais and the European enlightenment /,2010.,"['Koraēs, Adamantios. swd', 'Koraēs, Adamantios, 1748-1833 Criticism and interpretation.', 'Aufklärung. swd', 'Enlightenment Greece.', 'Europa. swd', 'Greece Politics and government 1453-1821.', 'Greece Social conditions 18th century.', 'Greece Intellectual life 1453-1821.']",eng,m,100908s2010    enka     b    001 0 eng  ,278,[],0,False
13,6802918,wu.89010949550,"Van Cleve, John Walter.",Harlequin besieged : the reception of comedy in Germany during the early enlightenment /,1978.,"['German Drama (Comedy) History and criticism.', 'German drama 18th century History and criticism.', 'Dissertations, Academic German.']",eng,m,790219s1978    xx       b    00010 eng d,135,[],0,False
14,4135488,mdp.39015049546362,"Bannet, Eve Tavor, 1947-",The domestic revolution : Enlightenment feminisms and the novel /,2000.,"['Enlightenment.', 'Families in literature.', 'Feminist fiction, English History and criticism.', 'Domestic fiction, English History and criticism.', 'English fiction Women authors History and criticism.', 'Women and literature Great Britain History 18th century.', 'Literature and society Great Britain History 18th century.', 'Politics and literature Great Britain History 18th century.', 'English prose literature 18th century History and criticism.', 'English prose literature Women authors History and criticism.', 'Feminism and literature Great Britain History 18th century.', 'English fiction 18th century History and criticism.']",eng,m,010122s2000    mdu      b    001 0 eng  ,637,['Enlightenment.'],1,False
15,3960025,mdp.39015040132345,"Vila, Anne C., 1961-",Enlightenment and pathology : sensibility in the literature and medicine of eighteenth-century France /,1998.,"['Enlightenment.', 'Medicine in literature.', 'Senses and sensation in literature.', 'Sentimentalism in literature.', 'French literature 18th century History and criticism.']",eng,m,980420s1998    mdu      b    001 0 eng  ,174,"['Enlightenment.', 'French literature 18th century History and criticism.']",2,False
16,4937265,mdp.39015059305402,"Scott, David, 1958-",Conscripts of modernity : the tragedy of colonial enlightenment /,2004.,"['Toussaint Louverture, 1743-1803.', 'James, C. L. R. (Cyril Lionel Robert), 1901-1989. Black Jacobins.', 'Literature and history.', 'History Periodization.', 'History Philosophy.', 'Historiography.', 'Postcolonialism History.']",eng,m,040602s2004    ncu      b    001 0 eng  ,228,"['Literature and history.', 'History Philosophy.']",2,False
17,4937265,dul1.ark:/13960/t9v203p6t,"Scott, David, 1958-",Conscripts of modernity : the tragedy of colonial enlightenment /,2004.,"['Toussaint Louverture, 1743-1803.', 'James, C. L. R. (Cyril Lionel Robert), 1901-1989. Black Jacobins.', 'Literature and history.', 'History Periodization.', 'History Philosophy.', 'Historiography.', 'Postcolonialism History.']",eng,m,040602s2004    ncu      b    001 0 eng  ,228,"['Literature and history.', 'History Philosophy.']",2,c.2
18,1542010,mdp.39015018617830,"Wagner, Peter, 1949-",Eros revived : erotica of the enlightenment in England and America /,1988.,"['Enlightenment.', 'Erotica.', 'American literature 1783-1850 History and criticism.', 'American literature Colonial period, ca. 1600-1775 History and criticism.', 'English literature 18th century History and criticism.', 'Erotic literature, American History and criticism.', 'Erotic literature, English History and criticism.']",eng,m,891024s1988    enka     b    00110 eng  ,328,['Enlightenment.'],1,False
19,696746,uc1.32106005174179,,"The Age of enlightenment, 1715-1789 /",1979.,['European literature 18th century History and criticism.'],eng,m,800729s1979    enk      b    001 0 eng  ,59,['European literature 18th century History and criticism.'],1,False
20,1831311,mdp.39015015497780,,Exoticism in the enlightenment /,c1990.,"['British Asia History 18th century.', 'Exoticism in literature History 18th century.', 'Enlightenment.', 'East and West History 18th century.', 'Civilization, Modern 18th century.', 'Great Britain Civilization 18th century.']",eng,m,900305s1990    enk      b    00100 eng  ,226,['Enlightenment.'],1,False
21,101907675,uva.x000398044,"Furbank, P. N. (Philip Nicholas), 1920-2014",The Encyclopédie /,1980.,"['French literature 18th century History and criticism.', 'Encyclopedists.', 'France Intellectual life.']",eng,m,810529s1980    enkab    b    00010 eng d,105,"['French literature 18th century History and criticism.', 'France Intellectual life.']",2,False
22,296217,mdp.39015008429436,"Wessell, Leonard P., 1939-",G. E. Lessing's theology : a reinterpretation : a study in the problematic nature of the enlightenment /,[1977],"['Lessing, Gotthold Ephraim, 1729-1781 Philosophy.', 'Lessing, Gotthold Ephraim, 1729-1781 Religion and ethics.', 'Enlightenment.']",eng,m,880907s1977    ne       b    00110 eng  ,131,['Enlightenment.'],1,False
23,4455070,mdp.49015000727835,,The Age of Enlightenment : an anthology of eighteenth-century French literature /,1971.,"['Enlightenment.', 'French literature 18th century.', 'France Intellectual life.']",eng,m,940225s1971    nyu      b    00000deng d,82,"['Enlightenment.', 'French literature 18th century.', 'France Intellectual life.']",3,False
24,1190874,mdp.39015021930410,"Schatzberg, Walter.","Scientific themes in the popular literature and the poetry of the German enlightenment, 1720-1760. -",1973.,"['Science Early works to 1800', 'Science in literature', 'German poetry 18th century History and criticism.']",eng,m,890623s1973    sz       b    00000 eng d,109,[],0,False
25,7126241,uva.x000500688,"Fellows, Otis, 1908-1993 ed.","The age of enlightenment,",1947,"['French literature 18th century.', 'Enlightenment.']",eng,m,801219s1942    nyu           00000 eng  ,53,"['French literature 18th century.', 'Enlightenment.']",2,False
26,1190355,mdp.39015000639131,"Kettler, H. K. (Hans Kuhnert)","Baroque tradition in the literature of the German enlightenment, 1700-1750; studies in the determination of a literary period,",[1943],['German literature 18th century History and criticism'],eng,m,890623s1943    enkafh   b    00010 engmc,56,[],0,False
27,3142276,mdp.39015040738422,,The treatise of the three impostors and the problem of Enlightenment : a new translation of the Traité des trois inposteurs (1777 edition) /,c1997.,"['Revelation Controversial literature.', 'Enlightenment.', 'Religion Controversial literature.', 'Skepticism.', 'Rationalism.']",eng,m,970505s1997    mdu      b    000 0 eng  ,127,"['Enlightenment.', 'Rationalism.']",2,False
28,154588,mdp.39015015132338,"MacQueen, John.",The Enlightenment and Scottish literature /,1982-1989.,"['Enlightenment.', 'Scottish literature 18th century History and criticism.']",eng,m,890615m19821989stk      b    00110 eng  ,77,['Enlightenment.'],1,v.2
29,154588,uc1.b3473652,"MacQueen, John.",The Enlightenment and Scottish literature /,1982-1989.,"['Enlightenment.', 'Scottish literature 18th century History and criticism.']",eng,m,890615m19821989stk      b    00110 eng  ,77,['Enlightenment.'],1,v.1
30,4197852,mdp.39015050478737,"Tobin, Robert Deam.",Doctor's orders : Goethe and Enlightenment thought /,c2001.,"['Goethe, Johann Wolfgang von, 1749-1832 Knowledge Medicine.', 'Goethe, Johann Wolfgang von, 1749-1832. Wilhelm Meisters Lehrjahre.', 'Enlightenment Germany.', 'Medicine Germany History 18th century.', 'Literature and medicine Germany History 18th century.', 'Medicine in literature.', 'Germany Intellectual life 18th century.']",eng,m,011001s2001    pau      b    001 0 eng  ,328,"['Enlightenment Germany.', 'Germany Intellectual life 18th century.']",2,False
31,4314352,mdp.39015056805966,"Cheek, Pamela.",Sexual antipodes : enlightenment globalization and the placing of sex /,2003.,"['Enlightenment.', 'Colonies in literature.', 'Sex customs in literature.', 'Imperialism in literature.', 'Globalization History 18th century.', 'Comparative literature French and English.', 'Comparative literature English and French.', 'Erotic literature, French History and criticism.', ""Travelers' writings, French History and criticism."", ""Travelers' writings, English History and criticism."", 'French literature 18th century History and criticism.', 'Sex in literature.', 'Erotic literature, English History and criticism.', 'English literature 18th century History and criticism.', 'Oceania In literature.']",eng,m,030728s2003    cau      b    001 0 eng  ,613,"['Enlightenment.', 'French literature 18th century History and criticism.']",2,False
32,7603480,mdp.39076002904626,"Eger, Elizabeth.",Bluestockings : women of reason from Enlightenment to Romanticism /,2010.,"['Literary patrons Great Britain.', 'Women intellectuals Great Britain.', 'Women Great Britain Intellectual life 18th century.', 'Feminism and literature Great Britain History 18th century.', 'Women and literature Great Britain History 18th century.', 'English literature 18th century History and criticism.', 'English literature Women authors History and criticism.']",eng,m,091022s2010    enka     b    001 0 eng  ,368,[],0,False
33,2721909,mdp.39076001436307,"Kavanagh, Thomas M.",Enlightenment and the shadows of chance : the novel and the culture of gambling in eighteenth-century France /,c1993.,"['Chance in literature.', 'Enlightenment France.', 'Gambling literature.', 'Literature and society France History 18th century.', 'French fiction 18th century History and criticism.']",eng,m,931111s1993    mdua     b    001 0 eng  ,183,['Enlightenment France.'],1,False
34,3953315,mdp.39015040065198,,The libertine reader : eroticism and enlightenment in eighteenth-century France /,1997.,"['French fiction 18th century History and criticism.', 'Erotic stories, French History and criticism.', 'French fiction 18th century.', 'Erotic stories, French.']",eng,m,980309s1997    nyu      b    000 0 eng  ,162,[],0,False
35,5143397,uc1.32106018466968,"Richter, Simon","Missing the breast : gender, fantasy, and the body in the German Enlightenment /",c2006,"['Breast in literature', 'German literature 18th century History and criticism']",eng,m,051128s2006    waua     b   s001 0 eng  ,80,[],0,False
36,101892706,uva.x000159962,"Grigson, Geoffrey, 1905-1985 comp.",Before the romantics : an anthology of the Enlightenment /,1978.,"['Enlightenment.', 'English literature Early modern, 1500-1700.', 'English literature 18th century.']",eng,m,790515r19781946nyu      b    00010 eng  ,101,['Enlightenment.'],1,False
37,1191131,mdp.39015012059088,"Schreiber, Sara Etta","The German woman in the age of enlightenment, a study in the drama from Gottsched to Lessing.",1948,"['Women in literature.', ""Women's rights"", 'German drama 18th century History and criticism']",eng,m,890623s1948    nyu           00000 eng x,93,[],0,False
38,4031894,mdp.39015046485705,"Ferguson, Robert A., 1942-2017.","The American enlightenment, 1750-1820 /",1997.,"['Enlightenment United States.', 'American literature 1783-1850 History and criticism.', 'Revolutionary literature, American History and criticism.', 'Politics and literature United States History 19th century.', 'Politics and literature United States History 18th century.', 'American literature Revolutionary period, 1775-1783 History and criticism.', 'American literature Colonial period, ca. 1600-1775 History and criticism.', 'United States Intellectual life 1783-1865.', 'United States Intellectual life 18th century.', 'United States History Revolution, 1775-1783 Literature and the revolution.']",eng,m,990719r19971994mau      b    001 0 eng  ,603,[],0,False
39,101892642,uva.x000086764,,The Theatre of the French and German enlightenment : five essays /,1979.,"['Literature and morals.', 'Enlightenment.', 'German drama 18th century History and criticism.', 'French drama 18th century History and criticism.']",eng,m,800911s1979    nyu      b    00000 eng d,148,"['Enlightenment.', 'French drama 18th century History and criticism.']",2,False
40,2481811,mdp.39015021992410,"Burwick, Frederick.",Illusion and the drama : critical theory of the Enlightenment and romantic era /,c1991.,"['Criticism History.', 'Illusion in literature.', 'European drama 19th century History and criticism.', 'European drama 18th century History and criticism.']",eng,m,911111s1991    pau      b   s001 0 eng  ,157,[],0,False
41,102068631,uva.x000009929,"Ages, Arnold.",French enlightenment and rabbinic tradition.,"[1970, i.e. 1969]","['Philosophy, French 18th century.', 'Enlightenment.', 'Rabbinical literature History and criticism.', 'France Civilization Jewish influences.']",eng,m,700602s1969    gw       b    00000 eng  ,144,"['Philosophy, French 18th century.', 'Enlightenment.']",2,False
42,2516003,uva.x001978376,,Erotica and the Enlightenment /,c1991.,"['Erotic literature History and criticism 18th century.', 'Erotica History 18th century.']",eng,m,901004s1991    gw a     b    0000  eng  ,90,[],0,False
43,89635,mdp.39015002282245,"Browning, Robert M. (Robert Marcellus), 1911-2000.",German poetry in the Age of the Enlightenment : from Brockes to Klopstock /,c1978.,"['Enlightenment.', 'German poetry 18th century History and criticism.', 'Germany Intellectual life']",eng,m,880715s1978    pau      b    00110 eng  ,100,['Enlightenment.'],1,False
44,2645133,mdp.39015026957608,,Homosexuality in Renaissance and Enlightenment England : literary representations in historical context /,c1992.,"['Sex in literature.', 'Renaissance England.', 'Enlightenment England.', 'Erotic literature, English History and criticism.', 'English literature 18th century History and criticism.', 'Homosexuality and literature England History 18th century.', 'Homosexuality and literature England History 17th century.', 'Homosexuality and literature England History 16th century.', 'English literature Early modern, 1500-1700 History and criticism.']",eng,m,930719s1992    nyu      b    001 0 eng  ,438,[],0,False
45,10173728,uc1.b3915864,,Exile and enlightenment : studies in German and comparative literature /,1987.,"['Stern, Guy, 1922-', 'German literature Foreign countries History and criticism.', 'Enlightenment.', 'German literature History and criticism.', 'Germany Intellectual life 18th century.']",eng,m,971129s1987    miuc     b    010 0 eng d,188,"['Enlightenment.', 'Germany Intellectual life 18th century.']",2,False
46,2467833,mdp.39015021831840,,"Voltaire, the Enlightenment, and the comic mode : essays in honor of Jean Sareil /",c1990.,"['Sareil, Jean.', 'Voltaire, 1694-1778 Criticism and interpretation.', 'Enlightenment.', 'Comic, The, in literature.', 'Literature, Modern French influences.', 'French literature 18th century History and criticism.']",eng,m,910913s1990    nyucf    b    01000 eng  ,216,"['Enlightenment.', 'French literature 18th century History and criticism.']",2,False
47,5279332,mdp.39015067645070,"Worrall, David.","Harlequin empire : race, ethnicity and the drama of the popular Enlightenment /",2007.,"['Noncitizens in literature.', 'Culture in literature.', 'Ethnicity in literature.', 'Enlightenment Great Britain.', 'English drama 19th century History and criticism.', 'English drama 18th century History and criticism.']",eng,m,060911s2007    enk      b    001 0 eng d,222,[],0,False
48,1190995,mdp.39015008291026,"Heitner, Robert R.","German tragedy in the age of enlightenment; a study in the development of original tragedies, 1724-1768.",1963.,"['German drama 18th century History and criticism', 'German drama (Tragedy) History and criticism']",eng,m,890623s1963    xx            00000 eng e,99,[],0,False
49,101915787,uva.x001810535,,Exoticism in the enlightenment /,"1989, c1990.","['British Asia History 18th century.', 'Exoticism in literature History 18th century.', 'Enlightenment.', 'East and West History 18th century.', 'Civilization, Modern 18th century.', 'Great Britain Civilization 18th century.']",eng,m,890616c19891990enka     b    00100 eng  ,226,['Enlightenment.'],1,False
50,726943,mdp.39015011704759,,"The Enlightenment and English literature : prose and poetry of the eighteenth century, with selected modern critical essays /",c1980.,"['English literature 18th century History and criticism', 'English literature 18th century']",eng,m,880718s1980    mau      b    00100 eng  ,92,[],0,False
51,570598,uva.x000937141,"Saul, Nicholas.",History and poetry in Novalis and in the tradition of the German Enlightenment /,1984.,"['Schiller, Friedrich, 1759-1805 Criticism and interpretation.', 'Novalis, 1772-1801 Criticism and interpretation.', 'German poetry 19th century History and criticism.', 'German poetry 18th century History and criticism.']",eng,m,850318s1984    enk      b    00110 eng d,222,[],0,False
52,252644,mdp.39015005150134,,Essays on the Age of Enlightenment in honor of Ira O. Wade /,1977.,"['Wade, Ira O., 1896-1983.', 'Enlightenment.', 'French literature 18th century History and criticism', 'France Intellectual life']",eng,m,880718s1977    sz c     b    01000 eng  ,130,"['Enlightenment.', 'French literature 18th century History and criticism', 'France Intellectual life']",3,False
53,4736594,mdp.39015061152479,,"Enlightenment, revolution and the periodical press /",2004.,"['Enlightenment.', 'Periodicals History 18th century.', 'Literature and revolutions Europe History 18th century.', 'Press and politics Europe History 18th century.', 'Europe Civilization 18th century.']",eng,m,040629s2004    enkab    b    001 e eng d,202,"['Enlightenment.', 'Europe Civilization 18th century.']",2,False
54,4070619,mdp.39015048544228,"Vartanian, Aram, 1922-",Science and humanism in the French enlightenment /,c1999.,"['Diderot, Denis, 1713-1784.', 'La Mettrie, Julien Offray de, 1709-1751.', 'Fontenelle, M. de (Bernard Le Bovier), 1657-1757.', 'Science and the humanities France.', 'Enlightenment France.']",eng,m,000515s1999    vau      b    001 0deng  ,190,"['Diderot, Denis, 1713-1784.', 'Enlightenment France.']",2,False
55,2430172,mdp.39015019641607,"Cope, Kevin Lee.",Criteria of certainty : truth and judgment in the English Enlightenment /,c1990.,"['Enlightenment.', 'Philosophy in literature.', 'Philosophy, English 18th century.', 'English literature 18th century History and criticism.', 'Great Britain Intellectual life 18th century.']",eng,m,910415s1990    kyu      b    00110 eng  ,191,['Enlightenment.'],1,False
56,404833,mdp.39015009183487,"Brady, Patrick, 1933-","Rococo style versus Enlightenment novel : with essays on Lettres persanes, La Vie de Marianne, Candide, La nouvelle Héloĩse, Le Neveu de Rameau.",1984.,['French fiction 18th century History and criticism.'],eng,m,880718s1984    sz ||||||||| |||||||eng|d,54,[],0,False
57,3161281,mdp.39015041027254,"Hardin, Moses, 1950-",Modern techniques in a seventeenth-century writer : Anne de la Roche-Guilhen /,c1997.,"['La Roche-Guilhem, Anne de, 1644-1707 Technique.', 'Fiction Technique.', 'Rhetoric.', 'Women and literature France History 17th century.', 'French fiction 17th century History and criticism Theory, etc.']",eng,m,970716s1997    nyu      b    001 0 eng  ,205,['Rhetoric.'],1,False
58,2461240,mdp.39015019471666,"Batley, Edward M. (Edward Malcolm), 1935-","Catalyst of Enlightenment, Gotthold Ephraim Lessing : productive criticism of eighteenth-century Germany /",c1990.,"['Lessing, Gotthold Ephraim, 1729-1781 Criticism and interpretation.', 'Enlightenment Germany.', 'Germany Intellectual life 18th century.']",eng,m,910819s1990    sz a     b    00110 eng c,139,"['Enlightenment Germany.', 'Germany Intellectual life 18th century.']",2,False
59,4367973,mdp.39015063260809,,Framing women : changing frames of representation from the Enlightenment to postmodernism /,2003.,"['Women History Modern period, 1600-', 'European literature 20th century History and criticism.', 'European literature 18th century History and criticism.', 'Women in literature.']",eng,m,040220s2003    gw a     b    001 0 eng  ,180,['European literature 18th century History and criticism.'],1,False
60,2791710,mdp.39015029113761,"Hammer, Stephanie Barbé.","The sublime crime : fascination, failure, and form in literature of the Enlightenment /",c1994.,"['Enlightenment.', 'Crime in literature.', 'Literature, Modern 18th century History and criticism.']",eng,m,940324s1994    ilu      b   s001 0 eng  ,100,"['Enlightenment.', 'Literature, Modern 18th century History and criticism.']",2,False
61,1441817,uc1.$b683580,"Grigson, Geoffrey, 1905-1985, comp.","Before the romantics, an anthology of the Enlightenment.",[1946],"['English literature.', 'English literature 18th century.', 'English literature Early modern, 1500-1700.']",eng,m,750602s1946    enk           000 0 eng  ,106,[],0,False
62,12271370,pst.000067606092,"Knox-Shaw, Peter, 1944-",Jane Austen and the Enlightenment /,2009.,"['Austen, Jane, 1775-1817 Political and social views.', 'Austen, Jane, 1775-1817 Philosophy.', 'Skepticism in literature.', 'Enlightenment Great Britain.', 'Literature and society Great Britain History 19th century.']",eng,m,091021r20092004enk      b    001 0deng  ,217,[],0,False
63,3792063,uva.x004667298,,"Correspondence and epistolary fiction, La fête, Science and medicine, Voltaire.",2002.,"[""Grafigny, Mme de (Françoise d'Issembourg d'Happoncourt), 1695-1758."", 'Epistolary fiction, French History and criticism.', 'France History 18th century.']",eng,m,021021s2002    enk      b    000 0 eng  ,156,['France History 18th century.'],1,no.6
64,3792063,mdp.39015055197878,,"Correspondence and epistolary fiction, La fête, Science and medicine, Voltaire.",2002.,"[""Grafigny, Mme de (Françoise d'Issembourg d'Happoncourt), 1695-1758."", 'Epistolary fiction, French History and criticism.', 'France History 18th century.']",eng,m,021021s2002    enk      b    000 0 eng  ,156,['France History 18th century.'],1,False
65,3842052,mdp.39015056492070,,Voltaire ; Diderot ; Demography ; Women's studies ; Poètes et versificateurs ; The influence of the Enlightenment.,2003.,"['Diderot, Denis, 1713-1784 Criticism and interpretation.', 'Enlightenment France.', 'Women France History 18th century.', 'French literature 18th century History and criticism.', 'France Population History 18th century.']",eng,m,030519s2003    enk      b    000 0 eng  ,222,"['Diderot, Denis, 1713-1784 Criticism and interpretation.', 'Enlightenment France.', 'French literature 18th century History and criticism.']",3,False
66,9398987,inu.30000122959392,,John Thelwall : radical romantic and acquitted felon /,2009.,"['Thelwall, John, 1764-1834 Political and social views.', 'Thelwall, John, 1764-1834 Criticism and interpretation.', 'Romanticism Great Britain.', 'Great Britain Intellectual life 18th century.']",eng,m,081128s2009    enk      b    001 0 eng  ,195,[],0,False
67,1016356,uc1.b4281853,"Bronson, Bertrand Harris, 1902-1986.",Facets of the Enlightenment; studies in English literature and its contexts.,1968.,['English literature 18th century.'],eng,m,841007s1968    cauafh        00000 eng  ,36,[],0,copy 2
68,1016356,uc1.b4300491,"Bronson, Bertrand Harris, 1902-1986.",Facets of the Enlightenment; studies in English literature and its contexts.,1968.,['English literature 18th century.'],eng,m,841007s1968    cauafh        00000 eng  ,36,[],0,False
69,3971992,mdp.39015040376728,"Dwyer, John.",The age of the passions : an interpretation of Adam Smith and Scottish enlightenment culture /,1998.,"['Smith, Adam, 1723-1790 Criticism and interpretation.', 'Scottish literature 18th century History and criticism.', 'English literature Scottish authors 18th century History and criticism.', 'Enlightenment Scotland.', 'Love Scotland.']",eng,m,980824s1998    stk      b    001 0 eng d,235,[],0,False
70,842058,uva.x001210505,,Lessing and the enlightenment /,1986.,"['Lessing, Gotthold Ephraim, 1729-1781 Contemporary Germany Congresses.', 'Lessing, Gotthold Ephraim, 1729-1781 Criticism and interpretation Congresses.', 'Enlightenment Congresses.', 'Germany Intellectual life 18th century Congresses.']",eng,m,851115s1986    nyuac    b    10100 eng  ,237,['Enlightenment Congresses.'],1,False
71,924530,mdp.39015010754375,"Orel, Harold, 1926-",English Romantic poets and the Enlightenment : nine essays on a literary relationship /,1973.,"['English poetry French influences.', 'Politics in literature.', 'Enlightenment.', 'Romanticism England.', 'English poetry 19th century History and criticism.', 'English poetry 18th century History and criticism.', 'France History Revolution, 1789-1799 Literature and the revolution.']",eng,m,881209s1973    enk      b    00010 eng  ,285,['Enlightenment.'],1,v.103-105
72,4769063,mdp.39015060078105,"Wyngaard, Amy S., 1970-",From savage to citizen : the invention of the peasant in the French Enlightenment /,c2004.,"['Peasants in art.', 'Art, French 18th century.', 'Peasants in literature.', 'French literature 18th century History and criticism.']",eng,m,031113s2004    deua     b    001 0 eng  ,133,['French literature 18th century History and criticism.'],1,False
73,101927815,uva.x002086123,,Jan Potocki & the writers of Enlightenment.,1990.,"['Potocki, Jan, hrabia, 1761-1815 Criticism and interpretation.', 'Polish literature 18th century History and criticism.']",eng,m,910822s1990    pl       b    0000  eng c,122,[],0,False
74,851266,mdp.39015012163138,"Harari, Josué V.",Scenarios of the imaginary : theorizing the French enlightenment /,1987.,"['Criticism France History 18th century.', 'Enlightenment.', 'French literature 18th century History and criticism Theory, etc.', 'France Intellectual life 18th century']",eng,m,880908s1987    nyu      b    00110 eng  ,170,"['Enlightenment.', 'France Intellectual life 18th century']",2,False
75,774779,uc1.32106006104662,"Segel, Harold B., 1930-","The literature of eighteenth-century Russia; an anthology of Russian literary materials of the age of classicism and the Enlightenment from the reign of Peter the Great, 1689-1725, to the reign of Alexander I, 1801-1825.",1967.,"['Russian literature 18th century History and criticism.', 'English literature.', 'Russian literature Translations into English.', 'Russia Civilization 18th century Literary collections']",eng,m,740606s1967    nyuach   b    000 0 eng  ,187,[],0,v.1
76,774779,uc1.32106006104670,"Segel, Harold B., 1930-","The literature of eighteenth-century Russia; an anthology of Russian literary materials of the age of classicism and the Enlightenment from the reign of Peter the Great, 1689-1725, to the reign of Alexander I, 1801-1825.",1967.,"['Russian literature 18th century History and criticism.', 'English literature.', 'Russian literature Translations into English.', 'Russia Civilization 18th century Literary collections']",eng,m,740606s1967    nyuach   b    000 0 eng  ,187,[],0,v.2
77,3139956,uc1.32106013343808,"Mikoś, Michael J",Polish Baroque and Enlightenment literature : an anthology /,1996,"['Polish literature 18th century Translations into English', 'Polish literature 17th century Translations into English']",eng,m,960624s1996    ohua     b    000 0 eng d,120,[],0,False
78,2906705,mdp.39015017433908,"Williams, Jerry M., 1952-",Censorship and art in pre-enlightenment Lima : Pedro de Peralta Barnuevo's Diálogo de las muertos:la causa académica /,1994.,"['Peralta Barnuevo, Pedro de, 1663-1743 Criticism and interpretation.', 'Peralta Barnuevo, Pedro de, 1663-1743. Dialogo de los muertos.', 'Peru Intellectual life 18th century.']",eng,m,950119s1994    mdua     b    000 0 eng  ,177,[],0,False
79,4324406,mdp.39015056903357,"Wirtschafter, Elise Kimerling.",The play of ideas in Russian Enlightenment theater /,c2003.,"['Social justice in literature.', 'Social ethics in literature.', 'Enlightenment Russia.', 'Theater and society Russia History 18th century.', 'Theater Russia History 18th century.', 'Russian drama 18th century History and criticism.']",eng,m,030811s2003    ilu      b   s001 0 eng  ,235,['Social ethics in literature.'],1,False
80,2575764,uc1.32106001359618,"Wellesz, Egon, 1885-1974.","The age of enlightenment, 1745-1790;",1973.,"['Music 18th century History and criticism.', 'Enlightenment.']",eng,m,740502s1973    enka     b    001 0 eng  ,63,"['Music 18th century History and criticism.', 'Enlightenment.']",2,False
81,7141786,uc1.32106011429070,,"Talking forward, talking back : critical dialogues with the Enlightenment /",c2002,"['Criticism Europe History 18th century', 'European literature 18th century History and criticism']",eng,m,991129s2002    nyua     b    001 0 eng  ,99,[],0,False
82,4454863,uc1.32106005021404,,The Theatre of the French and German enlightenment : five essays /,1978.,"['Literature and morals.', 'Enlightenment.', 'German drama 18th century History and criticism.', 'French drama 18th century History and criticism.']",eng,m,781129r1978    nyu      b    100 0 eng  ,148,"['Enlightenment.', 'French drama 18th century History and criticism.']",2,False
83,1648277,mdp.39015016735972,"Becker-Cantarino, Barbara.",Aloys Blumauer and the literature of Austrian Enlightenment.,1973.,"['Blumauer, Aloys, 1755-1798.', 'Austrian literature History and criticism.', 'German literature 18th century History and criticism']",eng,m,891207s1973    sz       b    00000 eng d,133,[],0,no.90-93
84,1648277,uva.x000444139,"Becker-Cantarino, Barbara.",Aloys Blumauer and the literature of Austrian Enlightenment.,1973.,"['Blumauer, Aloys, 1755-1798.', 'Austrian literature History and criticism.', 'German literature 18th century History and criticism']",eng,m,891207s1973    sz       b    00000 eng d,133,[],0,False
85,2999312,mdp.39015034420003,"Steinbrügge, Lieselotte, 1953-",The moral sex : woman's nature in the French Enlightenment /,1995.,"['Women France Conduct of life History 18th century.', 'Women in literature France History 18th century.', 'Women Psychology History 18th century.']",eng,m,951017s1995    nyu      b    001 0 eng  ,148,[],0,False
86,4169205,mdp.39015043255796,,Disrupted patterns : on chaos and order in the Enlightenment /,2000.,"['Chaotic behavior in systems in literature Congresses.', 'Literature 18th century History and criticism Congresses.']",eng,m,010924s2000    ne a     b    000 0 eng d,118,[],0,False
87,664916,uva.x000993857,"Van Cleve, John Walter.",The merchant in German literature of the Enlightenment /,1986.,"['Enlightenment.', 'Businessmen in literature.', 'German literature 18th century History and criticism.', 'Germany Intellectual life.']",eng,m,850619s1986    ncu      b   s00110 eng  ,135,"['Enlightenment.', 'Germany Intellectual life.']",2,False
88,4369562,mdp.39015061324961,"Johnson, E. Joe (Edward Joe)","Once there were two true friends, or, The idealized male friendship in French narrative from the Middle Ages through the Enlightenment /",2003.,"['French literature History and criticism.', 'Male friendship in literature.']",eng,m,040112s2003    alua     b    001 0 eng d,78,['French literature History and criticism.'],1,False
89,1014580,mdp.39015014753811,"Fellows, Otis, 1908-1993.",The Age of enlightenment : an anthology of eighteenth century French literature /,1942.,"['Enlightenment.', 'French literature 18th century.']",eng,m,890208s1942    nyuc   h      00000 eng c,53,"['Enlightenment.', 'French literature 18th century.']",2,False
90,1201835,uc1.b4930849,"Atkinson, Geoffroy, 1892-1960.","Prelude to the Enlightenment: French literature, 1690-1740,",[1970],['French literature 18th century History and criticism.'],eng,m,710809s1970    wau      b    001 0 eng  ,57,['French literature 18th century History and criticism.'],1,False
91,5664278,mdp.39015075615297,,Enlightenment and tradition : women's studies : Montesquieu.,2007.,"['Montesquieu, Charles de Secondat, baron de, 1689-1755.', 'Enlightenment France.', 'Philosophy, French 18th century.', 'French literature 18th century History and criticism.', 'France History 18th century.', 'France Social conditions 18th century.']",eng,m,070725s2007    enka     b    000 0 eng  ,250,"['Enlightenment France.', 'Philosophy, French 18th century.', 'French literature 18th century History and criticism.', 'France History 18th century.']",4,False
92,128079,mdp.39015008291000,"Van Cleve, John Walter.",Harlequin besieged : the reception of comedy in Germany during the early enlightenment /,c1980.,"['Enlightenment.', 'German drama (Comedy) History and criticism.', 'German drama 18th century History and criticism.', 'Germany Intellectual life']",eng,m,880715s1980    sz       b    00010 eng  ,147,['Enlightenment.'],1,False
93,9824909,inu.30000127148223,"Pelli, Moshe.",Haskalah and beyond : the reception of the Hebrew Enlightenment and the emergence of Haskalah Judaism /,c2010.,"['Hebrew literature, Modern Germany History and criticism.', 'Jews Germany Intellectual life.', 'Judaism Germany History 18th century.', 'Haskalah Germany History 18th century.']",eng,m,100524s2010    mdu      b    001 0 eng d,178,['Jews Germany Intellectual life.'],1,False
94,5290283,mdp.39015064796710,,Medievalism and manière gothique in Enlightenment France /,2006.,"['French literature 18th century History and criticism.', 'Medievalism.']",eng,m,060619s2006    enkah    b    001 0 eng d,73,['French literature 18th century History and criticism.'],1,False
95,102462779,uc1.31822003557097,"Ingram, Julia Simon",The feminized other of philosophical dialogue : critical studies in the French enlightenment /,1988,"['Feminism and literature France', 'Feminist criticism France', 'Dialogues, French History and criticism', 'Philosophy, French 18th century', 'Dissertations, Academic UCSD French language and literature. local', 'Dissertations, Academic UCSD Literary theory. local', 'Dissertations, Academic UCSD Literature. local']",eng,m,880809r19881988xx       b    000 0 eng d,316,"['Philosophy, French 18th century']",1,False
96,4084979,uva.x004395455,"Swenson, James.",On Jean-Jacques Rousseau : considered as one of the first authors of the Revolution /,2000.,"['Rousseau, Jean-Jacques, 1712-1778 Political and social views.', 'Rousseau, Jean-Jacques, 1712-1778 Criticism and interpretation.', 'Politics and literature France History 18th century.', 'France History Revolution, 1789-1799 Historiography.', 'France History Revolution, 1789-1799 Literature and the revolution.']",eng,m,990713s2000    cau      b    001 0deng  ,315,"['Rousseau, Jean-Jacques, 1712-1778 Criticism and interpretation.']",1,False
97,102553709,msu.31293030632545,"Chen, Huang-hua.",The other enlightenment : excess and the epistolary novel in the long eighteenth century /,2009.,"['Fiction 18th century. http://id.loc.gov/authorities/subjects/sh85048052', 'Enlightenment 18th century. http://id.loc.gov/authorities/subjects/sh85044032', 'Epistolary fiction 18th century. http://id.loc.gov/authorities/subjects/sh85044453']",eng,m,      s2009    xx a     m    000 0 eng d,242,[],0,False
98,102763199,ucbk.ark:/28722/h25q4rn7f,"Aravamudan, Srinivas.",Enlightenment Orientalism : resisting the rise of the novel /,"[2012], ©2012.","['Enlightenment Europe.', 'European fiction 18th century History and criticism.', 'Orientalism in literature.', 'Orientalism Europe History 18th century.', 'Orient In literature.']",eng,m,110811t20122012ilu      b    001 0 eng c,180,"['Enlightenment Europe.', 'European fiction 18th century History and criticism.']",2,False
99,923425,uc1.31822030556666,"Rinnander, Jon Alfred, 1942-","One god, one Farinelli : enlightenment elites and the containment of the theatrical impulse /",1985,"['Farinelli, 1705-1782', 'Music 18th century History and criticism', 'Theater History 18th century', 'Spain Court and courtiers', 'Spain History Ferdinand VI, 1746-1759', 'Dissertations, Academic UCSD Theatre. local', 'Dissertations, Academic UCSD History. local']",eng,m,860724|1985    xx       b    000 0 eng d,264,[],0,False
100,102549115,msu.31293024700084,"Swender, Catherine Ann.","""Gothified Histories"" : eighteenth- and nineteenth-century women's gothic novels and enlightenment historiography /",2003.,"['Women and literature 19th century. http://id.loc.gov/authorities/subjects/sh85147430', 'Women and literature 18th century. http://id.loc.gov/authorities/subjects/sh85147430', 'Historical fiction 19th century. http://id.loc.gov/authorities/subjects/sh85061165', 'Historical fiction 18th century. http://id.loc.gov/authorities/subjects/sh85061165', 'Gothic revival (Literature) 19th century. http://id.loc.gov/authorities/subjects/sh85055998', 'Gothic revival (Literature) 18th century. http://id.loc.gov/authorities/subjects/sh85055998']",eng,m,040326s2003    xx a      m   000 0 eng d,538,[],0,3
101,102454240,uc1.31822018875583,"Sposito, Frank Andreas, 1965-",A political theory of romanticism : aesthetic criticism and common sense in counter-Enlightenment thought /,1995,"['Common sense', 'Liberalism', 'Enlightenment', 'Criticism (Philosophy)', 'Aesthetics Philosophy', 'Romanticism', 'Dissertations, Academic UCSD Political science. local']",eng,m,950801s1995    xx       b    000 0 eng d,170,['Enlightenment'],1,False
102,101938709,uva.x001945249,"Peterson, Merrill D.",Thomas Jefferson and the Enlightenment : reflections on literary influence /,1975?],"['Jefferson, Thomas, 1743-1826 Knowledge Literature.', 'Jefferson, Thomas, 1743-1826 Knowledge and learning.', 'Enlightenment United States.', 'Enlightenment Influence.', 'United States Intellectual life 18th century.']",eng,m,920721s1975             b    00010 eng d,219,[],0,False
