,Keyword,Count
2,Enlightenment,188
3,Enlightenment Congresses,45
4,Enlightenment Bibliography Union lists,31
6,France Intellectual life 18th century,26
7,"France History Revolution, 1789-1799",18
8,Enlightenment Germany,16
9,Enlightenment France,15
10,Europe Intellectual life 18th century,14
11,Enlightenment Europe,12
12,Europe Civilization 18th century,12
13,"Voltaire, 1694-1778",12
14,Germany History 1648-1740,11
15,Germany History 1740-1806,11
16,United States Intellectual life 18th century,10
17,France Civilization 18th century,10
18,France Politics and government 18th century,10
21,Germany Intellectual life 18th century,9
23,Germany History 18th century,7
26,Scotland History 18th century,6
27,Enlightenment History,6
28,"Authors, German 18th century Biography",6
31,France History 18th century,5
35,Enlightenment Scotland,5
37,Europe Intellectual life 18th century Congresses,5
38,United States Intellectual life 18th century Sources,4
40,Austria Intellectual life 18th century,4
41,Enlightenment Europe Congresses,4
42,Political science France History 18th century,4
43,Great Britain Intellectual life 18th century,4
45,Enlightenment United States Sources,4
46,"Authors, French 18th century Biography",4
47,Scotland Intellectual life 18th century,4
49,Europe Civilization 18th century Congresses,4
51,England Intellectual life 18th century,4
53,Enlightenment Exhibitions,4
55,Enlightenment Germany Congresses,4
56,"Civilization, Modern 18th century",4
60,Enlightenment Germany Bavaria,3
61,Enlightenment Austria,3
62,Enlightenment United States,3
63,"Catherine II, Empress of Russia, 1729-1796",3
64,Enlightenment Germany Berlin,3
66,"France History Revolution, 1789-1799 Causes",3
68,Apologetics History 18th century,3
70,Europe History 1648-1789,3
72,Germany Intellectual life 18th century Congresses,3
73,"Tissot, S. A. D. (Samuel Auguste David), 1728-1797",3
76,"Rousseau, Jean-Jacques, 1712-1778",3
78,France Intellectual life 18th century Congresses,3
79,"Voltaire, 1694-1778 Congresses",3
82,Medicine History 18th century,3
84,Education France History 18th century,2
85,Church history 18th century,2
86,Freemasonry Europe History 18th century,2
92,Europe History 18th century,2
95,Press Germany Hamburg History 18th century,2
100,"Painting, European 18th century Exhibitions",2
101,Social sciences Scotland History 18th century,2
102,Europe Church history 18th century,2
103,"Art, European 18th century Exhibitions",2
104,Saxony (Germany) Intellectual life 18th century,2
106,Austria History 1740-1789,2
108,Public opinion Political aspects Germany History 18th century,2
109,"Schoepflin, Johann Daniel, 1694-1771",2
114,Enlightenment England,2
115,Enlightenment Influence,2
116,Reformed Church Doctrines History 18th century,2
118,"Ethics, Modern 18th century",2
119,Enlightenment India,2
120,Women and freemasonry France History 18th century,2
121,"France History, Naval 18th century",2
123,Political science History 18th century,2
124,"History, 18th Century",2
128,"Voltaire, 1694-1778 Political and social views",2
130,Freemasonry France History 18th century,2
131,Engineering France History 18th century,2
132,Enlightenment France Congresses,2
134,Women France Intellectual life 18th century,2
135,"Louis XIV, King of France, 1638-1715",2
138,"History, 18th Century France",2
141,Science History 18th century,2
144,Enlightenment Germany (West),2
148,Women Europe History 18th century,2
149,"Duncan, Andrew, 1744-1828",2
150,"Civilization, Modern 18th century Pictorial works",2
152,Communication Political aspects Germany History 18th century,2
153,Enlightenment France Influence,2
154,"Civilization, Modern 18th century Sources",2
155,Enlightenment Sources,2
156,Enlightenment Influence Congresses,2
158,Enlightenment Germany Influence,2
160,"Karl Theodor, Elector Palatine and Elector of Bavaria, 1724-1799 Art collections Exhibitions",2
163,Decorative arts Germany Mannheim History 18th century Exhibitions,2
164,Enlightenment Ecuador,2
165,Ecuador Intellectual life 18th century,2
167,"Art, Modern 18th century Germany Mannheim Exhibitions",2
169,France Politics and government 1789-1900,2
170,Enlightenment Italy,2
171,Historians Poland Gdańsk 18th century Biography,2
176,Europe Social conditions 18th century,2
177,"Karoline Luise, Grand Duchess, consort of Charles Frederick, Grand Duke of Baden, 1723-1783",2
178,"Lengnich, Gottfried, 1689-1774",2
179,Freemasonry Germany History 18th century,2
180,Enlightenment. ,2
183,Written communication Europe History 18th century,1
184,Postal service Europe History 18th century,1
188,United States Church history 18th century,1
189,"Carlyle, Alexander, 1722-1805",1
192,Enlightenment Philadelphia,1
193,Religion and science Philadelphia History 18th century,1
197,"United States History Revolution, 1775-1783 Causes",1
198,Slavery Mauritius History 18th century,1
200,Creole dialects Mauritius History 18th century,1
201,Racially mixed people Mauritius History 18th century,1
203,Puritans Massachusetts Boston History 18th century,1
204,Enlightenment Massachusetts Boston,1
205,Neoclassicism (Architecture) Germany (East) Dessau Region History 18th century,1
207,Liberalism (Religion) Massachusetts Boston History of doctrines 18th century,1
211,Congregational churches Doctrines History 18th century,1
214,"Painting, German Germany Dresden 18th century Exhibitions",1
215,Neoclassicism (Architecture) United States History 18th century,1
216,"Clérisseau, Charles-Louis, 1721-1820",1
219,Artists Italy Rome History 18th century Congresses,1
220,"Art, French Italy Rome History 18th century Congresses",1
221,"Accademia di Francia (Rome, Italy) History 18th century Congresses",1
222,"Palazzo Mancini (Rome, Italy) History 18th century Congresses",1
228,Legislative bodies France History 18th century Congresses,1
229,Lawyers France History 18th century Congresses,1
232,Printing France History 18th century,1
238,"Erdmannsdorff, Friedrich Wilhelm von, 1736-1800",1
239,"Jefferson, Thomas, 1743-1826 Contributions in architecture",1
240,Great Britain Historiography History 18th century,1
241,"Jefferson, Thomas, 1743-1826 Friends and associates",1
245,Scrolls (Decorative arts) France History 18th century,1
247,"Landscape painting, French 18th century",1
249,Art and society France History 18th century,1
250,Scotland Social life and customs 18th century,1
253,"Carmontelle, 1717-1806",1
254,Historiography England History 18th century,1
257,"Staël, Madame de (Anne-Louise-Germaine), 1766-1817",1
258,"Condorcet, Jean-Antoine-Nicolas de Caritat, marquis de, 1743-1794",1
259,Pietism History 18th century Congresses,1
263,Electrophysiology History 18th century,1
264,"Walsh, John, 1726-1795",1
265,"Volta, Alessandro, 1745-1827",1
267,Scotland History 18th century Congresses,1
274,Geistesgeschichte 1680-1790. swd,1
283,Sympathy History 18th century,1
284,Social ethics History 18th century,1
287,Birmingham (England) History 18th century,1
289,Ethnicity Balkan Peninsula History 18th century,1
304,Great Britain Politics and government 1760-1789,1
305,Radicalism Great Britain History 18th century,1
307,Postal service Europe History 18th century. nli,1
310,"Jebb, John, 1736-1786",1
311,Lorraine (France) Intellectual life 18th century,1
314,"Women authors, French 18th century Biography",1
317,Science Scotland History 18th century,1
318,Germany Civilization 18th century,1
319,Medicine Scotland History 18th century,1
322,"History, 18th Century Scotland",1
327,Germany Politics and government 18th century,1
333,Written communication Europe History 18th century. nli,1
335,Lorraine (France) Social life and customs 18th century,1
337,Enlightenment France Lorraine,1
338,"Anatomy, Artistic History 18th century",1
339,"Séguier, Jean-François, 1703-1784 Congresses",1
341,Isle-Adam 18th century Exhibitions.,1
343,Body image History 18th century,1
344,"Fragonard, Jean-Honoré, 1732-1806 Exhibitions",1
346,"Fragonard, Jean-Honoré, 1732-1806 Journeys Italy Exhibitions",1
348,French social history Family Solidarity Uncles and aunts 18th century,1
352,Library directors France Paris 18th century Biography Exhibitions,1
353,Catholic Church Clergy 18th century Biography Exhibitions,1
358,"Le Blond, Abbé (Gaspard Michel), 1738-1809 Exhibitions",1
361,Enlightenment France Nantes,1
362,"Graslin, Jean-Joseph-Louis, 1727-1790",1
364,Catholic Church Réunion History 18th century,1
365,"Davelu, Antoine Joseph, 1735-1815",1
366,"Caulier, Philippe-Albert, 1723-1795",1
367,Lyon (France) Intellectual life 18th century Exhibitions,1
368,"Art, French France Lyon 18th century Exhibitions",1
369,Architecture France Lyon 18th century Exhibitions,1
370,Urbanization France Lyon 18th century Exhibitions,1
371,Interior decoration France Lyon 18th century Exhibitions,1
372,Engravings France 18th century. aat,1
378,"Le Blond, Abbé (Gaspard Michel), 1738-1809 Anniversaries, etc. Exhibitions",1
381,"Gustav III, King of Sweden, 1746-1792. Correspondence",1
384,Corsica (France) History 18th century,1
385,Italy History 18th century,1
387,"Paoli, Pasquale, 1725-1807",1
388,Human-animal relationships History 18th century,1
390,"Ordnance, Naval France 18th century Exhibitions",1
392,France. Marine Ordnance and ordnance stores 18th century Exhibitions,1
393,History of Male Homosexuality 18th Century,1
394,Male homosexuality History 18th century,1
396,Salons France History 18th century,1
398,"Creutz, Gustav Philip, greve, 1731-1785 Correspondence",1
402,"Art, Spanish 18th century",1
404,Political history and city planning Tours Centre 18th century,1
405,Tours (France) Politics and government 18th century,1
406,Tours (France) History 18th century,1
407,"Legeay, Jean-Laurent, active 18th century",1
408,Enlightenments Europe 18th century history,1
410,Political history Europe & America Liberalism 18th-19th centuries,1
413,Liberalism Europe History 18th century,1
416,Diplomatic history Sweden-France Europe Correspondence 18th century,1
417,France Court and courtiers History 18th century Sources,1
418,France Foreign relations 1774-1793,1
421,Theater Germany History 18th century,1
423,"France History Revolution, 1789-1799 Congresses",1
426,"Condorcet, Jean-Antoine-Nicolas de Caritat, marquis de, 1743-1794 Congresses",1
428,"Morangiés, Jean-François-Charles de Mollette, comte de, active 18th century",1
429,France Politics and government 1589-1789,1
430,Cabinet officers France History 18th century,1
432,Cultural History 18th Century,1
440,France Civilization 17th-18th centuries,1
441,Theater France History 18th century Congresses,1
442,"Astell, Mary, 1668-1731",1
443,Fashion Netherlands History 18th century Exhibitions,1
444,Europe History 1789-1900 Congresses,1
452,"History, 18th Century Biography",1
453,"History, 18th Century Congresses",1
455,France Social conditions 18th century. ,1
457,Sociolinguistics Europe History 18th century Congresses,1
458,Multiculturalism Europe History 18th century Congresses,1
459,Freemasons Europe History 18th century,1
460,Fashion France History 18th century Exhibitions,1
462,Apologetics 18th century,1
463,Historical Memoirs 18th-19th Century Sarthe,1
464,Historical studies Violences Human body 18th-21st centuries,1
469,City planning France Paris History 18th century,1
470,Urban renewal France Paris History 18th century,1
471,French National Identity Socio-Historical Essays 16th-18th Century,1
473,"France History Bourbons, 1589-1789",1
477,Corsica (France) History 18th century Exhibitions,1
478,Corsica (France) Civilization 18th century Exhibitions,1
479,Enlightenment France Corsica Exhibitions,1
480,Medicine and art History 18th century,1
481,"Paoli, Pasquale, 1725-1807 Exhibitions",1
487,Education History 18th century,1
492,France Civilization 18th century Italian influences,1
493,Italy Civilization 18th century French influences,1
495,"Gauthey, E.-M. (Emiland-Marie), 1732-1806",1
496,Guyenne (France) Civilization 18th century,1
497,Nobility France Guyenne History 18th century,1
498,Italy Civilization 18th century,1
499,Italy Intellectual life 1559-1789,1
502,Leisure Europe History 18th century,1
503,Prussia (Germany) Politics and government 1740-1815,1
505,Europe History 1648-1789 Congresses,1
509,"Karl Friedrich, grand-duke of Baden, 1728-1811",1
515,Education Russia (Federation) History 18th century,1
516,"Reimarus, Elise, 1735-1805",1
517,Education and state Russia (Federation) History 18th century,1
518,Social history 18th century,1
521,Christianity and politics Europe History 18th century,1
522,Blacks Public opinion History 18th century,1
523,Black race Public opinion History 18th century,1
531,"Colden, Cadwallader, 1688-1776",1
532,Musical theater England London 18th century,1
533,Liberty History 18th century,1
535,"Military history, Modern 18th century Congresses",1
540,Spain Relations Latin America History 18th century,1
542,Enlightenment Scotland Glasgow,1
543,Latin America Relations Spain History 18th century,1
544,"Indians, Treatment of Latin America History 18th century",1
545,Public opinion Europe History 18th century,1
546,Antislavery movements Europe History 18th century,1
547,Faith and reason Christianity History of doctrines 18th century,1
548,"European culture, 1715-1789",1
550,"Great Britain History George III, 1760-1820",1
552,Architecture Great Britain 18th century,1
554,Art patronage Great Britain 18th century,1
556,"George III, King of Great Britain, 1738-1820",1
557,"Paisiĭ, Khilendarski, Hieromonk, 1722-1773",1
563,"History, 18th Century United States",1
569,"Authors and publishers Europe, Western History 18th century",1
570,Inquisition Portugal History 18th century,1
571,"Medicine, Magic, mystic, and spagiric Portugal History 18th century",1
572,Witchcraft Portugal History 18th century,1
573,Enlightenment Portugal,1
574,"Copyright Europe, Western History 18th century",1
577,"Vogt, Nicolaus, 1756-1836",1
579,Enlightenment Romania,1
582,Scotland Civilization 18th century,1
585,Reading and literary studies Europe 18th century,1
587,New York (State) Intellectual life 18th century,1
588,"New York (State) History Colonial period, ca. 1600-1775",1
589,Massachusetts Politics and government 1775-1783,1
590,Russia Intellectual life 18th century,1
591,Enlightenment Russia,1
593,Dresden (Germany) Civilization 18th century Exhibitions,1
595,Enlightenment Scotland Edinburgh,1
612,"Augustus II, King of Poland, 1670-1733 Art patronage Exhibitions",1
613,"Augustus III, King of Poland, 1696-1763 Art patronage Exhibitions",1
614,"France History Louis XIV, 1643-1715",1
616,Ramtha School for Enlightenment,1
619,"History, 18th Century Europe",1
620,"Painting, Spanish 18th century Exhibitions",1
621,"Goya, Francisco, 1746-1828 Influence",1
622,"Goya, Francisco, 1746-1828 Exhibitions",1
627,Massachusetts Politics and government To 1775,1
628,Massachusetts Politics and government 1775-1865,1
629,"Mechanics, Analytic History 18th century",1
630,Monarchy History 18th century,1
638,Great Britain Social life and customs 18th century,1
640,Enlightenment Europe Influence,1
641,Geology Europe History 18th century,1
642,Great Britain Social conditions 18th century,1
644,Religious thought Europe History 18th century,1
646,Witchcraft Europe History 18th century,1
647,Calculus Europe History 18th century,1
651,Nationalism Europe History 18th century Congresses,1
654,Enlightenment Massachusetts,1
655,"Bowdoin, James, 1726-1790",1
656,Science England History 18th century,1
657,"Authors, English 18th century Family relationships",1
658,Human geography England History 18th century,1
662,France Social life and customs 18th century,1
663,Women France History 18th century,1
664,Families Great Britain History 18th century,1
665,Feminism France History 18th century,1
666,Authorship History 18th century,1
670,"Thornton, William, 1759-1828",1
672,Presbyterians Ulster (Northern Ireland and Ireland) History 18th century,1
673,Presbyterians North America History 18th century,1
674,Scots-Irish North America History 18th century,1
675,Motherhood France History 18th century,1
676,"Love, Maternal France History 18th century",1
677,Women France Social conditions 18th century,1
678,Poland Politics and government 1763-1796,1
679,Poland Intellectual life To 1795,1
680,Nationalism Poland History 18th century,1
682,"History, Modern 18th century",1
690,North America Religious life and customs 18th century,1
696,Internationalism Europe History 18th century,1
701,Ulster (Northern Ireland and Ireland) Religious life and customs 18th century,1
704,Hungary Intellectual life 18th century,1
705,Enlightenment Hungary,1
706,Netherlands History 1714-1795,1
707,Enlightenment Netherlands,1
708,"Rosicrucians Europe, Central History 18th century",1
709,Cosmopolitanism Europe History 18th century,1
710,Sex customs Scotland Anstruther History 18th century,1
712,Sex customs Scotland Edinburgh History 18th century,1
716,Scotland Church history 18th century,1
717,Church of Scotland History 18th century,1
719,"Diderot, Denis, 1713-1784",1
721,France Intellectual life History 18th century,1
722,Death History 18th century,1
724,Enlightenment Miscellanea,1
727,Deism England History 18th century,1
728,Religious disputations England History 18th century,1
729,Church and state England History 18th century,1
732,Architecture Scotland 18th century,1
734,Upper class Scotland Anstruther Sexual behavior History 18th century,1
735,Upper class Scotland Edinburgh Sexual behavior History 18th century,1
736,Jews Ukraine Podillia Intellectual life 18th century,1
741,"Levin, Menahem Mendel, 1749-1826",1
742,Berlin (Germany) History 18th century,1
743,"Perl, Joseph, 1773-1839",1
745,Religious tolerance France History 18th century,1
749,"Ferguson, Adam, 1723-1816",1
755,"Pergen, Johann Anton, 1725-1814",1
756,Political crimes and offenses Austria Prevention History 18th century,1
757,Earth sciences History 18th century,1
758,Geology France History 18th century,1
760,Geologists France History 18th century,1
764,Women scientists History 18th century,1
766,Women in science History 18th century,1
767,Medicine France History 18th century,1
768,Women Health and hygiene France History 18th century,1
769,Medical jurisprudence France History 18th century,1
770,Secret service Austria History 18th century,1
773,"Lingard, John, 1771-1851",1
777,Deism Great Britain History of doctrines 18th century,1
779,Enlightenment Great Britain,1
783,"Austria History Joseph II, 1780-1790",1
785,"Voltaire, 1694-1778 Relations with women",1
786,"Du Châtelet, Gabrielle Emilie Le Tonnelier de Breteuil, marquise, 1706-1749",1
787,England Church history 18th century,1
795,Prussia (Germany) History 1740-1815,1
802,"Arts, Modern 18th century Europe",1
805,"Sculpture, European 18th century",1
806,Architecture Europe History 18th century,1
814,Islam Europe History 18th century,1
817,Providence and government of God History of doctrines 18th century,1
819,Divination History 18th century,1
821,Puritans Massachusetts Doctrines History 18th century,1
822,Austria Politics and government 1789-1815,1
823,"Mather, Cotton, 1663-1728 Contributions in doctrine of providence and government of God",1
825,Austria Politics and government 1740-1789,1
826,Europe Religion 18th century,1
828,British Foreign countries History 18th century,1
831,Religion and science Europe History 18th century,1
833,Sex History 18th century,1
834,Language and languages Study and teaching History 18th century,1
840,Theology History 18th century,1
841,"Pratje, Johann Hinrich, 1710-1791",1
844,"Authors, German 18th century Correspondence",1
846,"Huber, Therese, 1764-1829 Correspondence",1
847,Europe History 1789-1815 Congresses,1
848,"France History Revolution, 1789-1799 Influence Congresses",1
849,"Judaism History Modern period, 1750- Congresses",1
850,Publishers and publishing Italy Venice History 18th century,1
851,Printing industry Italy Venice History 18th century,1
853,"Knigge, Adolf, Freiherr von, 1752-1796. Über den Umgang mit Menschen",1
854,Sex France History 18th century,1
855,Libertinism Europe History 18th century,1
857,"Education, Elementary France History 18th century",1
858,City and town life Europe History 18th century,1
860,"War, 1756-1763 Sources.",1
862,Military art and science Europe History 18th century Sources,1
867,Sexual ethics Europe History 18th century,1
868,"Seligenstadt (Hesse, Germany) History 18th century",1
869,"Seligenstadt (Hesse, Germany) Social conditions 18th century",1
870,Enlightenment Germany Seligenstadt (Hesse),1
873,Westphalia (Germany) History 18th century,1
874,"Maximilian Franz, Archduke of Austria, 1756-1801",1
877,"Knigge, Adolf (baron de), 1752-1796. Über den Umgang mit Menschen. ram",1
878,"Knigge, Adolf von, 1752-1796. Über den Umgang mit Menschen. ram",1
879,Secret societies Europe History 18th century Congresses,1
880,"Archenholz, Johann Wilhelm von, 1743-1812",1
883,Insurgency Germany Württemberg History 18th century,1
886,Travel Europe History 18th century Congresses,1
887,Travelers Europe History 18th century Congresses,1
888,Freemasons Europe History 18th century Congresses,1
889,Enlightenment Central Europe History 18th century,1
891,"Sculpture, European 18th century Congresses",1
896,Germany Social life and customs 18th century Congresses,1
897,Enlightenment Germany Saxony,1
898,"Bertuch, Friedrich Justin, 1747-1822",1
899,"Languages, Modern Study and teaching Germany History 18th century Congresses",1
900,Languages in contact Germany History 18th century Congresses,1
901,Multilingualism Germany History 18th century Congresses,1
902,Enlightenment Central Europe History Bibliography,1
903,Enlightenment Central Europe History Library resources,1
904,Catholic Church Europe History 18th century,1
905,"France History Revolution, 1789-1799 Art and the revolution. Exhibitions",1
907,Europe Civilization 18th century Exhibitions,1
911,Cities and towns Germany Bavaria History 18th century,1
912,Political science Germany Halle an der Saale History 18th century,1
913,Martin-Luther-Universität Halle-Wittenberg History 18th century,1
916,"Hegel, Georg Wilhelm Friedrich, 1770-1831",1
917,Italy Civilization 1559-1789,1
918,Il Caffè (1764-1766),1
920,Education Europe History 18th century,1
925,Germany Social life and customs 18th century,1
934,Germany Intellectual life 18th century Bibliography Exhibitions,1
943,German language History 18th century Congresses,1
944,"Frederick II, King of Prussia, 1712-1786",1
946,"Enlightenment Germany, Northern",1
949,Libraries History 18th century Exhibitions,1
955,Enlightenment Spain,1
956,Germany History 18th century Encyclopedias,1
957,Europe History 18th century Encyclopedias,1
958,Enlightenment Germany Encyclopedias,1
959,Enlightenment Europe Encyclopedias,1
961,"Töpsl, Franziscus, 1711-1796",1
962,Nobility Education Europe History 18th century Congresses,1
963,Education Europe History 18th century Congresses,1
966,Austria Intellectual  life 18th century,1
968,"Lange, Johann Christian, 1669-1756",1
969,Libraries Germany History 17th-18th centuries Congresses,1
970,Germany Politics and government 18th century Congresses,1
971,Prussia (Germany) Politics and government 1740-1815 Congresses,1
973,Poland Politics and government 1763-1796 Congresses,1
974,Enlightenment Poland Congresses,1
978,Books History 18th century,1
979,Engraving 18th century,1
983,"Painting, Modern 18th century History",1
984,Nationalism Germany History 18th century,1
985,Nationalism Europe History 18th century,1
986,"Hoffmann, Leopold Alois, 1760-1806 Political and social views",1
987,"Leopold II, Holy Roman Emperor, 1747-1792 Views on enlightenment",1
990,"Bertuch, Friedrich Justin, 1747-1822 Exhibitions",1
992,"Scheuchzer, Johann Jakob, 1672-1733",1
993,"Tschudi, Johann Heinrich, 1670-1729",1
994,"Bodmer, Johann Jakob, 1698-1783",1
995,"Iselin, Isaak, 1728-1782",1
996,Political participation France History 18th century,1
998,"Cagliostro, Alessandro, conte di, 1743-1795",1
1000,"France History Revolution, 1789-1799 Historiography",1
1001,"Austria History Leopold II, 1790-1792",1
1002,Liberalism Austria History 18th century,1
1003,Conservatism Austria History 18th century,1
1004,"Leopold II, Holy Roman Emperor, 1747-1792 Political and social views",1
1005,Censorship Germany Saxony History 18th century,1
1006,Drawing 18th century Germany Exhibitions,1
1007,"Germany, Northern Social life and customs 18th century",1
1009,Art Collectors and collecting Germany History 18th century Congresses,1
1010,Art Collectors and collecting Netherlands History 18th century Congresses,1
1011,Art Collectors and collecting England History 18th century Congresses,1
1012,Art Collectors and collecting France History 18th century Congresses,1
1013,Peasants France History 18th century,1
1015,"Theology, Doctrinal History 18th century",1
1018,Voyages and travels History 18th century Congresses,1
1019,"Painting, French 18th century",1
1020,Austria Foreign relations 18th century Congresses,1
1021,Austria Politics and government 1740-1780 Congresses,1
1022,"Kaunitz-Rietberg, Wenzel Anton, Fürst, 1711-1794 Congresses",1
1026,Secret societies Austria Tyrol History 18th century,1
1032,"Frederick II, Landgrave of Hesse-Kassel, 1720-1785",1
1035,Education Germany Braunschweig History 18th century,1
1036,"Jersualem, Johann Friedrich Wilhelm, 1709-1789",1
1037,"Nicolai, Friedrich, 1733-1811",1
1038,Baden-Baden (Margraviate) Civilization 18th century,1
1045,Russia Civilization 18th century,1
1046,United States Civilization 18th century,1
1049,Tyrol (Austria) Intellectual life History 18th century,1
1050,Freemasons Austria Tyrol History 18th century,1
1053,"Constant, Benjamin, 1767-1830 Political science",1
1056,Landscape architecture Austria Vienna History 18th century,1
1059,"Oikonomos, Kōnstantinos, 1780-1857",1
1060,"Koraēs, Adamantios, 1748-1833",1
1063,"Westenrieder, Lorenz von, 1748-1829",1
1064,Jews Europe History 18th century,1
1067,Public health Austria History 18th century,1
1068,Medical policy Austria History 18th century,1
1071,Enlightenment Germany Wied-Neuwied (Grafschaft),1
1074,Suicide Moral and ethical aspects Germany History 18th century,1
1075,Enlightenment Denmark Congresses,1
1079,Enlightenment Silesia,1
1083,Anthropological illustration France History 18th century,1
1084,Illustration of books France 18th century,1
1087,"Picart, Bernard, 1673-1733",1
1088,Human rights Germany History 18th century,1
1091,"Mendelssohn, Moses, 1729-1786. Jerusalem",1
1094,Enlightenment Russia (Federation) Baltic Provinces Congresses,1
1095,Books Germany Hannover History 18th century,1
1096,Jesuits History 18th century,1
1098,"Jochmann, Carl Gustav, 1789-1830",1
1099,Trier (Germany) Church history 18th century Exhibitions,1
1100,Trier (Germany) Intellectual life 18th century Exhibitions,1
1101,Hannover (Germany) Intellectual life 18th century,1
1102,Book collectors Germany Hannover History 18th century,1
1103,Books and reading Germany Hannover History 18th century,1
1104,Early printed books 18th century Private collections Germany Hannover,1
1105,Enlightenment Austria Innsbruck,1
1106,"Brandes, Georg Friedrich, 1709-1791 Library",1
1107,"Brandes, Georg Friedrich, 1709-1791 Books and reading",1
1117,Illuminati Germany History 18th century,1
1123,Travelers Germany Brandenburg History 18th century Congresses,1
1124,Travelers Germany Prussia History 18th century Congresses,1
1126,Germany Intellectual life 18th century Exhibitions,1
1127,Enlightenment Germany Exhibitions,1
1128,"Lichtenberg, Georg Christoph, 1742-1799 Exhibitions",1
1130,"Nonnotte, Claude-François, 1711-1793",1
1131,"Lichtenberg, Georg Christoph, 1742-1799 Religion",1
1132,Secret societies Europe History 18th century,1
1133,Secret societies Germany History 18th century,1
1134,Illuminati Europe History 18th century,1
1138,Jews Emancipation Germany History 18th century,1
1143,"Reich, Philipp Erasmus, 1717-1787",1
1145,Baden (Germany) Civilization 18th century,1
1146,Translating and interpreting History 18th century,1
1147,Antisemitism Germany History 18th century,1
1148,Historiography France History 18th century,1
1149,Religious tolerance Germany History 18th century,1
1150,Women Europe 18th century Biography,1
1152,Europe Politics and government 18th century,1
1153,"Authors, German 18th century Journeys Europe",1
1158,"Mendelssohn, Moses, 1729-1786 Exhibitions",1
1159,Enlightenment Germany Berlin Exhibitions,1
1163,Enlightenment Germany Schleswig-Holstein,1
1164,"France History Revolution, 1789-1799 Art and the Revolution",1
1165,"Art, Modern 18th century",1
1166,Books and reading Trier (Electorate) History 18th century,1
1168,Enlightenment Trier (Electorate),1
1169,"Women authors, German 18th century Exhibitions",1
1171,"La Roche, Sophie von, 1731-1807",1
1172,Unmarried couples Germany Oberbayern History 18th century,1
1173,Premarital sex Germany Oberbayern History 18th century,1
1174,Sex customs Germany Oberbayern History 18th century,1
1180,Classical languages Study and teaching History 18th century,1
1182,La Roche-Guyon (France) Intellectual life 18th century,1
1183,Enlightenment France La Roche-Guyon,1
1185,Polish art 18th-19th centuries,1
1186,"Art, Polish 18th century Exhibitions",1
1189,Medicine History 18th century Congresses,1
1190,Medical education History 18th century Congresses,1
1191,Theater History 18th century,1
1196,"Rochegude, Henri Pascal de, 1741-1834",1
1197,"Rochegude, Henri Pascal de, 1741-1834 Library",1
1198,Balloons History 18th century,1
1199,Aeronautics History 18th century,1
1200,"Croÿ, Emmanuel, duc de, 1718-1783 or 1784",1
1202,Enlightenment Historiography,1
1204,Protestants France Lyon History 18th century,1
1206,Luxembourg History 18th century,1
1207,Local government Luxembourg History 18th century,1
1208,Enlightenment Luxembourg,1
1209,Europe - Royal History - Queens and Princesses - 16th-18th Century,1
1212,Agriculturists France 18th century Congresses,1
1213,"Guibert, Jacques-Antoine-Hippolyte, comte de, 1743-1790",1
1214,Intellectuals France 18th century Congresses,1
1215,Statesmen France 18th century Congresses,1
1217,"Duhamel du Monceau, M., 1700-1782 Congresses",1
1218,Letters Europe History 18th century,1
1219,Political and military history Biography France 18th century,1
1220,"France History, Military 18th century",1
1222,History of Mathematics Geometry Circle Squaring 18th Century Enlightenment,1
1224,"France History Revolution, 1789-1799 Religious aspects Sources",1
1225,"Egypt History French occupation, 1798-1801 Exhibitions",1
1229,Vendôme (France) Social conditions 18th century Sources,1
1230,"Bordier, Pierre, 1713-1781",1
1231,Punishment France History 18th-21st centuries,1
1234,"Second Coalition, War of the, 1798-1801 Campaigns Egypt Exhibitions",1
1236,French Egypt History 18th century Exhibitions,1
1238,"Napoleon I, Emperor of the French, 1769-1821 Exhibitions",1
1239,Socio-cultural and political history France and Europe 18th century,1
1240,France Foreign relations 1715-1793,1
1245,Social History Cosmetics 16th-18th Century,1
1246,Education Spain History 18th century Congresses,1
1247,Education England History 18th century Congresses,1
1249,Catholic Church History 18th century Sources,1
1250,"Pius VII, Pope, 1742-1823",1
1253,"Authors, French 18th century Correspondence",1
1255,"Voltaire, 1694-1778. Correspondence",1
1256,"Voltaire, 1694-1778 Relationship with men Frederick II",1
1257,"Frederick II, King of Prussia, 1712-1786 Correspondence",1
1258,French socio-political history Cities Paris 18th-21st centuries,1
1264,Education France History 18th century Congresses,1
1267,"Voltaire, 1694-1778 Biography",1
1270,Elite (Social sciences) France Grenoble History 18th century,1
1272,Normandy (France) History 18th century,1
1273,"France History Revolution, 1789-1799 Influence",1
1274,Enlightenment France Normandy,1
1276,Enlightenment Greece,1
1279,Swabia (Germany) Intellectual life 18th century,1
1281,German periodicals Germany Swabia History 18th century,1
1282,Geschichte 1717-1832 swd,1
1283,Geschichte 1750-1790 swd,1
1285,Architecture France 18th century,1
1286,Building France History 18th century,1
1287,Grenoble (France) History 18th century,1
1288,French social history Elite Isère 18th-19th centuries,1
1291,"Languages, Modern Study and teaching History 18th century",1
1292,Language and education History 18th century,1
1294,Great Britain Politics and government 18th century,1
1298,Constitutions Great Britain 18th cnetury,1
1299,Russia Intellectual life 18th century French influences Congresses,1
1300,Europe Intellectual life 18th century French influences Congresses,1
1302,Freemasonry France Roussillon (Province) History 18th century,1
1305,French social history 18th century Biography,1
1307,Horsemanship France History 18th century,1
1308,Publishing Press Journals of Europe 18th-19th centuries,1
1311,Admirals France 18th century Biography,1
1314,France Church history 18th century Congresses,1
1315,Religion and politics France History 18th century Congresses,1
1316,Enlightenment France Religious aspects Congresses,1
1318,"Académie des sciences, inscriptions et belles-lettres de Toulouse History 18th century",1
1323,Citizenship France History 18th century,1
1324,Political rights France History 18th century,1
1325,Civil rights France History 18th century,1
1326,Monarchy France History 18th century,1
1327,Religious history Catholicism Croatia 17th-18th centuries,1
1331,France History of Sexuality 18th-19th Century,1
1339,"Rousseau, Jean-Jacques, 1712-1778 Views on religion",1
1340,Freemasonry France History 18th century Bibliography,1
1342,Latin America History 18th century Congresses,1
1351,Europe History 18th century Historiography,1
1352,France Religion 18th century,1
1353,"Germany, Northern Intellectual life 18th century",1
1354,"Saint-Pierre, Charles Irénée Castel de, 1658-1743",1
1355,Feudalism France Hérault History 18th century,1
1359,"Enlightenment Prussia, East (Poland and Russia)",1
1360,France Politics and government 1643-1715,1
1361,France Politics and government 1715-1774,1
1368,"Michaelis, Johann David, 1717-1791",1
1371,Families. fast (OCoLC)fst01728849,1
1374,Enlightenment France History,1
1375,Autonomy (Psychology) France History 18th century,1
1376,Hagiography Christian canonization 18th century,1
1378,"Nicolay, Ludwig Heinrich von, 1737-1820",1
1379,"Nicolay, Paul, 1777-1866",1
1380,Marseille (France) Economic conditions 18th century,1
1382,Religious thought Europe History of doctrines 18th century,1
1384,Jesus Christ History of doctrines 18th century,1
1386,Ethnology France History 18th century,1
1390,"Labre, Benoît-Joseph, Saint, 1748-1783",1
1391,"Labre, Benoît-Joseph, saint, 1748-1783",1
1392,"Women France Societies, etc. History 18th century",1
1393,"Intellectuals France Societies, etc. History 18th century",1
1398,German language 18th century Grammar Exhibitions,1
1405,"Forster, Georg, 1754-1794 Journeys Oceania",1
1406,"German language Early modern, 1500-1700 Grammar Exhibitions",1
1407,Utopias History 18th century,1
1410,Psychiatry Germany History 18th century,1
1413,Historiography Germany History 18th century,1
1416,Hamburg (Germany) Social life and customs 18th century,1
1418,"Education, Elementary Germany 18th century",1
1420,"Born, Ignaz, Edler von, 1742-1791",1
1423,"Ess, Leander van, 1772-1847",1
1424,"Ess, Leander van, 1772-1847. fast (OCoLC)fst00306096",1
1426,"Art, French 18th century Exhibitions",1
1429,"Oudry, Jean-Baptiste, 1686-1755 Exhibitions",1
1430,"Houdon, Jean Antoine, 1741-1828 Exhibitions",1
1431,Universität Trier History 18th century,1
1432,Poland History 18th century Congresses,1
1433,Germany History 18th century Congresses,1
1435,"Dessau Region (Dessau, Germany) Civilization 18th century",1
1436,Wörlitz Region (Germany) Civilization 18th century,1
1440,Medical ethics History 18th century,1
1441,France Race relations History 18th century,1
1444,Protestantism Europe History 18th century,1
1446,"Marion, Élie, 1678-1713",1
1447,"France History Revolution, 1789-1799 Atrocities",1
1449,"Malesherbes, Chrétien Guillaume de Lamoignon de, 1721-1794",1
1450,Haiti Race relations History 18th century,1
1452,Racism France History 18th century,1
1453,Antisemitism France History 18th century,1
1454,"Mendès France, Isaac, 1721-1785",1
1456,Great Britain. Royal Navy Provisioning History 18th century,1
1458,Cities and towns Europe History 18th century,1
1459,City planning Europe History 18th century,1
1461,Criminal law Switzerland Geneva History 18th century,1
1462,"Criminal justice, Administration of Switzerland Geneva History 18th century",1
1466,Brittany (France) History 18th century,1
1467,"Robien, Christophe-Paul-Gautron de, 1698-1756 Biography",1
1468,"Robien, Christophe-Paul-Gautron de, 1698-1756 Private collections",1
1471,Jansenists France History 18th century,1
1473,País Vasco (Spain) Intellectual life 18th century,1
1474,Enlightenment Spain País Vasco,1
1475,Real Sociedad Vascongada de Amigos del País History 18th century,1
1476,Women in education France History 18th century,1
1477,Women teachers France History 18th century,1
1478,Women educators France History 18th century,1
1481,Spain Socio-Ethnological History Magic and Sorcery 18th-19th Century,1
1482,Witchcraft Spain History 18th century,1
1483,Smallpox Vaccination Social aspects History 18th century,1
1485,Aquitaine (France) History 18th century,1
1486,Aquitaine (France) Social life and customs 18th century,1
1487,Nobility France Aquitaine HIstory 18th century,1
1490,"Architecture, Modern 18th century",1
1492,Navarre (France) Politics and government 18th century,1
1493,Spain Intellectual life 18th century,1
1495,"Spain History Charles III, 1759-1788",1
1496,Censorship Spain History 18th century,1
1497,"Art, French France Jura 18th century Exhibitions",1
1500,"Voltaire, 1694-1778 Contemporaries",1
1501,History of Epidemics Small Pox 18th Century Enlightenment,1
1502,Smallpox Vaccination Moral and ethical aspects History 18th century,1
1504,Marriages of royalty and nobility France History 18th century,1
1505,Divorce France History 18th century,1
1506,"Ledoux, Claude Nicolas, 1736-1806",1
1507,Magic Spain History 18th century,1
1516,French-Canadian periodicals Québec (Province) Montréal History 18th century,1
1517,"Mesplet, Fleury, 1734-1794",1
1518,Bayeux (France) History 18th century,1
1521,Architecture France Arc-et-Senans 18th century,1
