,record_id,author,title,pubyear,subjects,lang,pubyear_clean,ldr,marc_008
68,003879634,,The faces of nature in Enlightenment Europe /,c2003.,"['Philosophy of nature History 18th century.', 'Enlightenment Europe.', 'Europe Intellectual life 18th century.']",eng,2003,m,040112s2003    gw ab    b    000 0 eng d
104,001385197,"Mendelssohn, Moses, 1729-1786.",Moses Mendelssohn : selections from his writings /,[1975],"['Mendelssohn, Moses, 1729-1786.', 'Immortality', 'Judaism Apologetic works', 'Jews Emancipation']",eng,1975,m,890828s1975    nyu      b    00110aeng d
141,101662949,"Caplan, Jay, author.","Postal culture in Europe, 1500-1800 /",©2016,"['Thurn und Taxis famille. rero', 'Post Office (Grande-Bretagne) rero', 'La Poste (France) rero', 'Großbritannien Parliament Office of Science and Technology gnd', 'Europa gnd', '1700-1799 fast', 'Communication Social aspects Europe. nli', 'Written communication Europe History 18th century. nli', 'Postal service Europe History 18th century. nli', 'Kultur gnd', 'Kommunikation gnd', 'Gesellschaft gnd', 'Written communication. fast (OCoLC)fst01181697', 'Postal service. fast (OCoLC)fst01072885', 'Communication Social aspects. fast (OCoLC)fst00870009', 'Communication Social aspects Europe.', 'Written communication Europe History 18th century.', 'Postal service Europe History 18th century.', 'Europe. rero', 'Europe. fast (OCoLC)fst01245064', 'History. fast (OCoLC)fst01411628']",eng,2016,m,160504s2016    enka     b    001 0 eng  
235,101884071,"Eisenhauer, Robert G., 1946-",Mythology of souls : philosophical perspectives in the novels of Jean Paul /,c1987.,"['Jean Paul, 1763-1825 Philosophy.', 'Philosophy, Modern 18th century.']",eng,1987,m,870406s1987    nyu      b    00110 eng  
287,100194165,"Bogen, F. W.","The German in America, or, Advice and instruction for German emigrants in the United States of America : also, a reader for beginners in the English and German languages /",1852.,"['Franklin, Benjamin, 1706-1790.', 'Washington, George, 1732-1799.', 'Germans United States.', 'United States Description and travel.', 'United States Emigration and immigration.']",eng,1852,m,900530s1852    mau           000 0 eng  
328,001385260,"Grayeff, Felix.",Kant's theoretical philosophy: a commentary to the central part of the 'Critique of pure reason';,1970.,"['Kant, Immanuel, 1724-1804. Kritik der reinen Vernunft.']",eng,1970,m,881013s1970    enk           00100 eng  
330,002559424,,John Locke und Immanuel Kant : historische Rezeption und gegenwärtige Relevanz /,c1991.,"['Kant, Immanuel, 1724-1804 Contributions in political science Congresses.', 'Locke, John, 1632-1704 Contributions in political science Congresses.', 'Political science Philosophy Congresses.']",eng,1991,m,920901s1991    gw       b    100 0 eng c
343,000282992,"Kant, Immanuel, 1724-1804.",What real progress has metaphysics made in Germany since the time of Leibniz and Wolff? /,1983.,"['Wolff, Christian, Freiherr von, 1679-1754.', 'Leibniz, Gottfried Wilhelm, Freiherr von, 1646-1716.', 'Philosophy, German 18th century.', 'Metaphysics History 18th century.']",eng,1983,m,010202s1983    nyu      b    000 0 eng  
461,002652094,"Seidel, George J. (George Joseph), 1932-",Fichte's Wissenschaftslehre of 1794 : a commentary on Part 1 /,c1993.,"['Fichte, Johann Gottlieb, 1762-1814. Wissenschaftslehre.']",eng,1993,m,930806s1993    inu      b    001 0 eng  
506,003500150,,Enlightenment in Germany /,1979.,"['Philosophy, German 18th century.', 'Enlightenment.', 'Germany Intellectual life.', 'Germany History 18th century.']",eng,1979,m,000905s1979    gw ac    b    000 0 eng d
596,010173728,,Exile and enlightenment : studies in German and comparative literature /,1987.,"['Stern, Guy, 1922-', 'German literature Foreign countries History and criticism.', 'Enlightenment.', 'German literature History and criticism.', 'Germany Intellectual life 18th century.']",eng,1987,m,971129s1987    miuc     b    010 0 eng d
709,004462911,"Smith, Norman Kemp, 1872-1958.","A commentary to Kant's ""Critique of pure reason,""","[1930, 1923]","['Kant, Immanuel, 1724-1804. Kritik der reinen Vernunft.']",eng,1930,m,940225r19301923enk           00010 eng  
738,000536922,"Simmel, Georg, 1858-1918.",Schopenhauer and Nietzsche /,1986.,"['Nietzsche, Friedrich Wilhelm, 1844-1900.', 'Schopenhauer, Arthur, 1788-1860.']",eng,1986,m,880718s1986    mau          s00110 eng  
781,000140692,,Studies in Jewish thought : an anthology of German Jewish scholarship /,1981.,"['Mendelssohn, Moses, 1729-1786.', 'Judaism Doctrines', 'Judaism History']",eng,1981,m,880715s1981    miu      b    00100 eng  
1136,102701319,"Hamann, Johann Georg, 1730-1788.",Briefwechsel (1751-1788) : lexicological system and concordances on CD-ROM with thesaurus = lexikologisches System und Konkordanzen auf CD-ROM mit Thesaurus.,2001-,"['Hamann, Johann Georg, 1730-1788 Correspondence Concordances.']",eng,2001,m,011105m20019999it a          000 0 eng c
1184,000184948,"Nietzsche, Friedrich Wilhelm, 1844-1900.",On the advantage and disadvantage of history for life /,c1980.,"['Strauss, David Friedrich, 1808-1874.', 'Schopenhauer, Arthur, 1788-1860.', 'Wagner, Richard, 1813-1883.', 'History Study and teaching.']",eng,1980,m,800513s1980    inu      b    00010 eng  
1320,100464573,"Stirling, James Hutchison, 1820-1909.","Text-book to Kant The critique of pure reason; aesthetic categories, schematism.  Translation, reproduction, commentary, index.  With biographical sketch.",1882.,"['Kant, Immanuel, 1724-1804. Kritik der reinen Vernunft.']",eng,1882,m,930412s1882    nyu     a     001 0beng  
1519,000715048,"Fischer, Kuno, 1824-1907.",A commentary on Kant's Critick of the pure reason : translated from the History of modern philosophy /,1976.,"['Kant, Immanuel, 1724-1804. Kritik der reinen Vernunft.', 'Reason.', 'Causation.', 'Knowledge, Theory of.']",eng,1976,m,760309r19761866nyu           000 0 eng  
1592,001407862,"Hagenbach, K. R. (Karl Rudolf), 1801-1874.",History of the church in the eighteenth and nineteenth centuries.,1869.,"['Philosophy and religion.', 'Church history 19th century.', 'Church history 18th century.', 'Germany Religion.']",eng,1869,m,780404s1869    nyu           000 0 eng  
1626,001386365,"Scheler, Max, 1874-1928.",Formalism in ethics and non-formal ethics of values; a new attempt toward the foundation of an ethical personalism,1973.,"['Kant, Immanuel, 1724-1804.', 'Values.', 'Ethics.']",eng,1973,m,860512s1973    ilu      b    00110 engm 
1677,008733339,"Hagenbach, K. R. (Karl Rudolf), 1801-1874.","German rationalism, in its rise, progress, and decline, in relation to theologians, scholars, poets, philosophers, and the people :  a contribution to the church history of the eighteenth and nineteenth centuries.",1865.,"['Philosophy and religion.', 'Church history 19th century.', 'Church history 18th century.', 'Rationalism History.', 'Germany Religion.']",eng,1865,m,760510s1865    stk           000 0 eng  
1754,102826523,,A Collection of thirteen dissertations on David Hume's philosophy.,1877-1913.,"['Hume, David, 1711-1776.']",eng,1877,m,890404m18771913xx            00000 eng d
1758,004385534,"Hegel, Georg Wilhelm Friedrich, 1770-1831.","Hegel : texts and commentary : Hegel's Preface to his System in a new translation with commentary on facing pages, and ""Who thinks abstractly?""/","1977, c1965.","['Hegel, Georg Wilhelm Friedrich, 1770-1831.', 'Hegel, Georg Wilhelm Friedrich, 1770-1831. Phänomenologie des Geistes.', 'Truth.', 'Consciousness.', 'Spirit.', 'Knowledge, Theory of.']",eng,1977,m,940225r19771966inu           001 0 eng  
1822,100456598,"Hölzke, Theodor.",D. Hume and T. B. Macaulay,1862.,"['Macaulay, Thomas Babington Macaulay, Baron, 1800-1859 Contributions in history.', 'Hume, David, 1711-1776 Contributions in history.']",eng,1862,m,920512s1862    gw      a     000 0 eng d
2041,000715647,"Hegel, Georg Wilhelm Friedrich, 1770-1831.",The difference between Fichte's and Schelling's system of philosophy /,1977.,"['Schelling, Friedrich Wilhelm Joseph von, 1775-1854.', 'Fichte, Johann Gottlieb, 1762-1814.', 'Faith and reason.']",eng,1976,m,880718s1976    nyu      b    00110 eng  
2065,002447803,,Schopenhauer : new essays in honor of his 200th birthday /,c1988.,"['Schopenhauer, Arthur, 1788-1860.']",eng,1988,m,910624s1988    nyu      b    00100 eng  
