,pubyear_clean_y,count
0,1885,175
1,1886,56
2,1887,154
3,1888,42
4,1889,70
5,1890,43
6,1891,44
7,1892,48
8,1893,71
9,1894,44
10,1895,40
11,1896,50
12,1897,41
13,1898,42
14,1899,66
15,1900,100
16,1901,108
17,1902,80
18,1903,43
19,1904,62
20,1905,96
21,1906,63
22,1907,67
23,1908,132
24,1909,134
25,1910,93
26,1911,84
27,1912,62
28,1913,99
29,1914,122
30,1915,20
31,1916,31
32,1917,30
33,1918,36
34,1919,43
35,1920,64
36,1921,112
37,1922,86
38,1923,48
39,1924,38
40,1925,46
41,1926,35
42,1927,28
43,1928,48
44,1929,35
45,1930,40
46,1931,53
47,1932,131
48,1933,36
49,1934,26
50,1935,38
51,1936,77
52,1937,29
53,1938,30
54,1939,27
55,1940,21
56,1941,19
57,1942,16
58,1943,14
59,1944,22
60,1945,6
61,1946,22
62,1947,34
63,1948,45
64,1949,139
65,1950,29
66,1951,22
67,1952,34
68,1953,21
69,1954,21
70,1955,163
71,1956,34
72,1957,38
73,1958,32
74,1959,33
75,1960,73
76,1961,30
77,1962,26
78,1963,51
79,1964,43
80,1965,105
81,1966,85
82,1967,59
83,1968,63
84,1969,60
85,1970,68
86,1971,56
87,1972,61
88,1973,71
89,1974,118
90,1975,59
91,1976,57
92,1977,72
93,1978,104
94,1979,76
95,1980,100
96,1981,113
97,1982,182
98,1983,95
99,1984,110
100,1985,82
101,1986,169
102,1987,121
103,1988,84
104,1989,118
105,1990,87
106,1991,109
107,1992,80
108,1993,72
109,1994,115
110,1995,64
111,1996,62
112,1997,54
113,1998,90
114,1999,113
115,2000,75
116,2001,91
117,2002,79
118,2003,90
119,2004,77
120,2005,107
121,2006,73
